\relax 
\citation{Silberstein_1907}
\citation{jackson1998classical}
\citation{Bialynicki-Birula_1996}
\citation{Sameen_Ahmed_Khan_2005}
\newlabel{FirstPage}{{}{1}{}{}{}}
\@writefile{toc}{\contentsline {title}{Real-time Maxwell-Kohn-Sham propagation (working title)}{1}{}}
\@writefile{toc}{\contentsline {abstract}{Abstract}{1}{}}
\@writefile{toc}{\contentsline {section}{\numberline {I}Introduction}{1}{}}
\newlabel{sec:Intro}{{I}{1}{}{}{}}
\@writefile{toc}{\contentsline {section}{\numberline {II}Riemann-Silberstein formulation of Maxwell's equations in vacuum}{1}{}}
\newlabel{eq_RSf_Riemann-Silberstein_vector_vacuum}{{1}{1}{}{}{}}
\newlabel{eq_RSf_RS_energy_density_vacuum}{{3}{1}{}{}{}}
\newlabel{eq_RSf_Gauss_vacuum_Riemann-Silberstein}{{4}{1}{}{}{}}
\newlabel{eq_RSf_Faraday_Ampere_vacuum_Riemann-Silberstein}{{5}{1}{}{}{}}
\newlabel{eq_RSf_curl_identity_Spin-1_matrices}{{6}{1}{}{}{}}
\newlabel{eq_RSf_Spin-1_xyz_matrices}{{II}{1}{}{}{}}
\newlabel{eq_RSf_Ampere_Farraday_law_in_RS_representation}{{9}{1}{}{}{}}
\newlabel{eq_RSf_Ampere_Farraday_law_hamiltonian}{{11}{1}{}{}{}}
\citation{Mamadou_Ndong_2009}
\citation{Ioana_Serban_2005}
\citation{Ruggenthaler_2014}
\citation{Babiker_83}
\citation{Dirac_28}
\@writefile{toc}{\contentsline {section}{\numberline {III}Time-evolution operator for Maxwell's equations in Riemann-Silberstein formalism}{2}{}}
\newlabel{eq_Mteo_inhom_Schroedinger_time_ev_op}{{12}{2}{}{}{}}
\newlabel{eq_Mteo_inhom_Maxwell_time_ev_op}{{13}{2}{}{}{}}
\newlabel{eq_Mteo_hom_Maxwell_time_ev_op}{{14}{2}{}{}{}}
\newlabel{eq_Mteo_def_inhom_Maxwell_time_ev_op}{{15}{2}{}{}{}}
\@writefile{toc}{\contentsline {section}{\numberline {IV}Maxwell-Kohn-Sham coupling in low relativistic regime}{2}{}}
\newlabel{eq_MKSc_Maxwell_Dirac_eq}{{16}{2}{}{}{}}
\newlabel{eq_MKSc_Maxwell_Dirac_alpha_eq}{{17}{2}{}{}{}}
\citation{HohenbergKohn}
\citation{KohnSham}
\newlabel{eq_MKSc_Maxwell_Dirac_alpha_eq_2}{{18}{3}{}{}{}}
\newlabel{eq_MKSc_Maxwell_Dirac_alpha_eq_2_approx}{{19}{3}{}{}{}}
\newlabel{eq_MKSc_psi_m_approx}{{20}{3}{}{}{}}
\newlabel{eq_MKSc_Maxwell_Dirac_alpha_eq_electron}{{21}{3}{}{}{}}
\newlabel{eq_MKSc_Pauli_eq_factor_approximation}{{22}{3}{}{}{}}
\newlabel{eq_MKSc_Pauli_identity}{{23}{3}{}{}{}}
\newlabel{eq_MKSc_Pauli_equation}{{24}{3}{}{}{}}
\newlabel{eq_MKSc_Pauli_hamiltonian}{{25}{3}{}{}{}}
\newlabel{eq_MKSc_total_Hamiltonian}{{26}{3}{}{}{}}
\newlabel{eq_MKSc_Kohn_Sham_equation}{{27}{3}{}{}{}}
\newlabel{eq_MKSc_Kohn_Sham_Hamiltonian}{{28}{3}{}{}{}}
\newlabel{eq_MKSc_Kohn_Sham_potential}{{29}{3}{}{}{}}
\newlabel{eq_MKSc_Kohn_Sham_Pauli_equation}{{30}{4}{}{}{}}
\newlabel{eq_MKSc_Kohn_Sham_Pauli_Hamiltonian}{{31}{4}{}{}{}}
\newlabel{eq_MKSc_Kohn_Sham_Pauli_A_Hamiltonian}{{32}{4}{}{}{}}
\newlabel{eq_MKSc_Kohn_Sham_Pauli_B_Hamiltonian}{{33}{4}{}{}{}}
\newlabel{eq_MKSc_Kohn_Sham_Pauli_potential}{{34}{4}{}{}{}}
\newlabel{eq_MKSc_Kohn_Sham_plus_int_Hamiltonian}{{35}{4}{}{}{}}
\newlabel{eq_MKSc_interaction_Hamiltonian}{{36}{4}{}{}{}}
\newlabel{eq_MKSc_gauge_transformation}{{37}{4}{}{}{}}
\newlabel{eq_MKSc_Power_Zienau_Woolley_trans}{{38}{4}{}{}{}}
\newlabel{eq_MKSc_charge_density_polarization}{{39}{4}{}{}{}}
\newlabel{eq_MKSc_atomic_charge_density}{{40}{4}{}{}{}}
\newlabel{eq_MKSc_polarization}{{41}{4}{}{}{}}
\newlabel{eq_MKSc_Power_Zienau_Woolley_trans_Coulomb}{{42}{4}{}{}{}}
\newlabel{eq_MKSc_PZW_trans_of_KSP_Hamiltonian}{{43}{4}{}{}{}}
\newlabel{eq_MKSc_PZW_trans_of_KSP_Hamiltonian_full}{{44}{4}{}{}{}}
\newlabel{eq_MKSc_electric_dipole_Hamiltonian_term}{{45}{4}{}{}{}}
\citation{Castro2004}
\bibdata{octopus_maxwellNotes,octopus_maxwell}
\newlabel{eq_MKSc_magnetic_dipole_Hamiltonian_term}{{46}{5}{}{}{}}
\newlabel{eq_MKSc_electric_quadrupole_Hamiltonian_term}{{47}{5}{}{}{}}
\@writefile{toc}{\contentsline {section}{\numberline {V}Predictor-Corrector Time-evolution of Maxwell-Kohn-Sham system}{5}{}}
\bibcite{Silberstein_1907}{{1}{1907}{{{Silberstein}}}{{}}}
\bibcite{jackson1998classical}{{2}{1998}{{Jackson}}{{}}}
\bibcite{Bialynicki-Birula_1996}{{3}{1996}{{Bialynicki-Birula}}{{}}}
\bibcite{Sameen_Ahmed_Khan_2005}{{4}{2005}{{Khan}}{{}}}
\bibcite{Mamadou_Ndong_2009}{{5}{2009}{{Ndong\ \emph  {et~al.}}}{{Ndong, Tal-Ezer, Kosloff,\ and\ Koch}}}
\bibcite{Ioana_Serban_2005}{{6}{2005}{{Serban\ \emph  {et~al.}}}{{Serban, Werschnik,\ and\ Gross}}}
\bibcite{Ruggenthaler_2014}{{7}{2014}{{Ruggenthaler\ \emph  {et~al.}}}{{Ruggenthaler, Flick, Pellegrini, Appel, Tokatly,\ and\ Rubio}}}
\bibcite{Babiker_83}{{8}{1983}{{M.~Babiker}}{{}}}
\bibcite{Dirac_28}{{9}{1928}{{Dirac}}{{}}}
\bibcite{HohenbergKohn}{{10}{1964}{{Hohenberg\ and\ Kohn}}{{}}}
\bibcite{KohnSham}{{11}{1965}{{Kohn\ and\ Sham}}{{}}}
\bibcite{Castro2004}{{12}{2004}{{Castro\ \emph  {et~al.}}}{{Castro, Marques,\ and\ Rubio}}}
\bibstyle{apsrev4-1}
\citation{REVTEX41Control}
\citation{apsrev41Control}
\@writefile{toc}{\contentsline {section}{\numberline {VI}Electromagnetic absorbing boundaries}{6}{}}
\@writefile{toc}{\contentsline {section}{\numberline {VII}Implementation in the real-time real-space ab initio simulation code Octopus}{6}{}}
\@writefile{toc}{\contentsline {section}{\numberline {VIII}Maxwell propagation}{6}{}}
\@writefile{toc}{\contentsline {subsection}{\numberline {A}}{6}{}}
\@writefile{toc}{\contentsline {subsection}{\numberline {B}}{6}{}}
\@writefile{toc}{\contentsline {section}{\numberline {IX}Maxwell-Kohn-Sham simulation of an azulene molecule with an Gau\ss shaped optical laser}{6}{}}
\@writefile{toc}{\contentsline {subsection}{\numberline {A}Maxwell-Kohn-Sham simulation in Dipole Approximation without matter to Maxwell coupling}{6}{}}
\@writefile{toc}{\contentsline {subsection}{\numberline {B}Maxwell-Kohn-Sham simulation in higher multipole expansion with coupled matter to Maxwell coupling}{6}{}}
\@writefile{toc}{\contentsline {subsection}{\numberline {C}Relaxation and field radiation of the azulene molecule after excitation}{6}{}}
\@writefile{toc}{\contentsline {subsection}{\numberline {D}Perfomance of the Maxwell-Kohn-Sham implementation}{6}{}}
\@writefile{toc}{\contentsline {section}{\numberline {X}Summary, Outlook}{6}{}}
\@writefile{toc}{\contentsline {section}{\numberline {}References}{6}{}}
\newlabel{LastBibItem}{{12}{6}{}{}{}}
\newlabel{LastPage}{{}{6}{}{}{}}
