CalculationMode = kdotp
ExperimentalFeatures = yes
fromScratch = yes

%Coordinates
 'O'  |  0.000000  | -0.553586  |  0.000000
 'H'  |  1.429937  |  0.553586  |  0.000000
 'H'  | -1.429937  |  0.553586  |  0.000000
%

Spacing = 0.5
ConvRelDens = 1.0e-4
BoxShape = parallelepiped
Lsize = 10
PeriodicDimensions = 3

Preconditioner = no
KdotPCalcSecondOrder = yes

%KPointsGrid
1 | 1 | 1
%
