# -*- coding: utf-8 mode: shell-script -*-
# $Id: 01-quadratic_box.02-hartree.inp 13356 2015-03-14 23:36:41Z xavier $
#
# The following tests reproduced some basic results from:
# E. Rasanen et al., Phys. Rev. B 67, 235307 (2003).
#
# This adds the Hartree interaction in 2D to the previous particle in a box example.
# To make it more meaningful, it uses two electrons.

CalculationMode = gs
FromScratch = yes
Dimensions = 2

%Species
"qd" | species_user_defined | potential_formula | "0" | valence | 2
%

%Coordinates
"qd" | 0 | 0
%

BoxShape = parallelepiped
npoints = 51
delta = pi/(npoints + 1)
l = pi - 2*delta
%Lsize
l/2 | l/2
%
%Spacing
delta | delta
%

DerivativesOrder = 1

XCFunctional = no

EigenSolverMaxIter = 50

PoissonSolver = fft

