NDimModelMB = 1
NParticleModelMB = 2
NTypeParticleModelMB = 1

ExperimentalFeatures = yes

CalculationMode = gs
TheoryLevel = independent_particles
Dimensions = 2
FromScratch = yes

ExtraStates = 2 

BoxShape = Hypercube
acell = 10
%Lsize 
 acell | acell
%
spacing = 0.2

ConvRelDens = 2e-12
ConvAbsEv = 1e-16
EigensolverTolerance = 1e-8
EigensolverMaxIter = 50


b=0.5
v = 0.9
k=1.0

%Species
'Cosh2e' | species_user_defined | potential_formula | "-v/(cosh(k*x)^2)-v/(cosh(k*y)^2)+b/(cosh(k*(x-y))^2)" | valence | 2
%

%Coordinates
 'Cosh2e' | 0.0 | 0.0 | 0.0
%

%DescribeParticlesModelMB
 "electron"  | 1 | 1.    | 1. | fermion
 "electron"  | 1 | 1.    | 1. | fermion
%

%DensitytoCalc
"electron"      | 1 | 3
%

Output = mmb_den + mmb_wfs + density
OutputHow = plane_z + axis_x + boundary_points
