CalculationMode = td
FromScratch = yes

Units = ev_angstrom

%Coordinates
'Na'  | -1.4646408 | 0 | 0 | yes
'Na'  |  1.4646408 | 0 | 0 | yes
%

FromScratch = yes

Spacing = 0.32
Radius = 6.0

TDMaxSteps = 100

TDPropagator = aetrs

TDDeltaStrength = 0.01

%TDPolarization
 1/sqrt(2) | -1/sqrt(2) | 0
 1/sqrt(2) |  1/sqrt(2) | 0
 1/sqrt(2) |  0         | 1/sqrt(2)
%
   
TDPolarizationDirection = 1
TDPolarizationEquivAxes = 3

SpinComponents = spin_polarized
TDDeltaStrengthMode = kick_spin_and_density
