CalculationMode = gs

ExperimentalFeatures = yes
ComplexScaling = space
ComplexScalingTheta = 0.3

Dimensions = 1
BoxShape = sphere
fromScratch = yes
Spacing = 0.05
Radius = 10
ComplexScalingRotateSpectrum = pi / 2 - ComplexScalingTheta
ComplexScalingLocalizationRadius = Radius * 0.9
ComplexScalingLocalizedStates = 4

ExtraStates = 8
XCFunctional = pbe_xc_cmplx

# recommended 2 * nstates + 1 or more
EigenSolverArnoldiVectors = 24

Eigensolver = arpack

eith = exp(i * ComplexScalingTheta)

d0 = 1

%Species
 'ATOM' | species_user_defined | potential_formula | "-4 * exp(-0.5*(x*eith)^2)" | valence | 3
 'FIELD' | species_user_defined | potential_formula | "0.3 * (x + d0) * eith" | valence | 0
%

%Coordinates
 'ATOM' | 0
 'FIELD' | d0
%

Output = wfs + density + potential
OutputHow = axis_x
