\relax 
\providecommand\hyper@newdestlabel[2]{}
\@writefile{toc}{\contentsline {chapter}{\numberline {6}Applications}{157}{chapter.6}}
\@writefile{lof}{\addvspace {10\p@ }}
\@writefile{lot}{\addvspace {10\p@ }}
\newlabel{chap_applications}{{6}{157}{Applications}{chapter.6}{}}
\@writefile{lot}{\contentsline {table}{\numberline {6.1}{\ignorespaces Table of acronyms that are used in the present work to indicate the level of EMPKS theory.}}{157}{table.6.1}}
\newlabel{tab_Na_297_dimer_acronyms}{{6.1}{157}{Table of acronyms that are used in the present work to indicate the level of EMPKS theory}{table.6.1}{}}
\@writefile{toc}{\contentsline {section}{\numberline {6.1}Laser pulse simulation scheme for a plasmonic \newline  nanoparticle system and simulation parameters}{158}{section.6.1}}
\newlabel{sec_simulation_set_up}{{6.1}{158}{Laser pulse simulation scheme for a plasmonic \newline nanoparticle system and simulation parameters}{section.6.1}{}}
\@writefile{lof}{\contentsline {figure}{\numberline {6.1}{\ignorespaces Simulation scheme of a laser pulse excitation of a quantum-mechanical system. }}{158}{figure.6.1}}
\newlabel{fig_simulation_scheme_dimer}{{6.1}{158}{Laser pulse simulation scheme for a plasmonic \newline nanoparticle system and simulation parameters}{figure.6.1}{}}
\citation{doi:10.1021/acs.jpclett.5b00573}
\citation{Noya2007}
\citation{CCD}
\citation{doi:10.1002/pssb.200642067}
\citation{Octopus_2015}
\citation{Gonze20092582}
\@writefile{toc}{\contentsline {subsection}{\numberline {6.1.1}Na$_{\mathrm  {297}}$-dimer geometry and optical spectra}{159}{subsection.6.1.1}}
\newlabel{subsec_dimer_geometry}{{6.1.1}{159}{Na$_{\mathrm {297}}$-dimer geometry and optical spectra}{subsection.6.1.1}{}}
\citation{doi:10.1021/acs.jpclett.5b00573}
\@writefile{lof}{\contentsline {figure}{\numberline {6.2}{\ignorespaces Geometry of the Na$_{297}$ dimer in E2E configuration with different distances $ d_1=0.1 $ nm and $ d_2=0.5 $ nm}}{160}{figure.6.2}}
\newlabel{fig_Na_297_dimer_geometry}{{6.2}{160}{Geometry of the Na$_{297}$ dimer in E2E configuration with different distances $ d_1=0.1 $ nm and $ d_2=0.5 $ nm}{figure.6.2}{}}
\citation{doi:10.1021/acs.jpclett.5b00573}
\citation{doi:10.1021/acs.jpclett.5b00573}
\citation{doi:10.1002/pssb.200642067}
\@writefile{lof}{\contentsline {figure}{\numberline {6.3}{\ignorespaces Absorption spectrum of the Na$_{297}$ dimer for light that is polarized along the dimer axis}}{161}{figure.6.3}}
\newlabel{fig_Na_297_absorption_spectrum}{{6.3}{161}{Absorption spectrum of the Na$_{297}$ dimer for light that is polarized along the dimer axis}{figure.6.3}{}}
\@writefile{toc}{\contentsline {subsection}{\numberline {6.1.2}Simulation boxes and grid alignement}{161}{subsection.6.1.2}}
\newlabel{subsec_simulation_boxes_and_grid}{{6.1.2}{161}{Simulation boxes and grid alignement}{subsection.6.1.2}{}}
\@writefile{lot}{\contentsline {table}{\numberline {6.2}{\ignorespaces Simulation parameters for the sodium dimer for distances $ d_1=0.1 $ nm and $ d_2=0.5 $ nm.}}{162}{table.6.2}}
\newlabel{tab_dimer}{{6.2}{162}{Simulation parameters for the sodium dimer for distances $ d_1=0.1 $ nm and $ d_2=0.5 $ nm}{table.6.2}{}}
\@writefile{toc}{\contentsline {subsection}{\numberline {6.1.3}Measurement and detector regions}{163}{subsection.6.1.3}}
\newlabel{subsec_measurement_detector_region}{{6.1.3}{163}{Measurement and detector regions}{subsection.6.1.3}{}}
\newlabel{eq_Na_297_dimer_detector_surface}{{6.1.4}{163}{Measurement and detector regions}{equation.6.1.4}{}}
\@writefile{toc}{\contentsline {subsection}{\numberline {6.1.4}Laser pulse shape}{163}{subsection.6.1.4}}
\newlabel{subsec_laser_pulse_shape}{{6.1.4}{163}{Laser pulse shape}{subsection.6.1.4}{}}
\@writefile{lof}{\contentsline {figure}{\numberline {6.4}{\ignorespaces Visualization of the inner simulation box limits and detector points and surfaces}}{164}{figure.6.4}}
\newlabel{fig_detector_points_surfaces}{{6.4}{164}{Visualization of the inner simulation box limits and detector points and surfaces}{figure.6.4}{}}
\citation{doi:10.1021/acs.jpclett.5b00573}
\citation{Octopus_2015}
\citation{andrade_2009}
\newlabel{eq_plane_wave_RS_dimer_application}{{6.1.7}{165}{Laser pulse shape}{equation.6.1.7}{}}
\@writefile{toc}{\contentsline {subsection}{\numberline {6.1.5}Propagators}{165}{subsection.6.1.5}}
\newlabel{subsec_propagators}{{6.1.5}{165}{Propagators}{subsection.6.1.5}{}}
\citation{KohnSham}
\citation{Octopus_2015}
\citation{Octopus_2015}
\citation{PBE_functional}
\citation{zenodo.1489303}
\citation{zenodo.1489305}
\@writefile{toc}{\contentsline {section}{\numberline {6.2}Results from Ehrenfest-Maxwell-Pauli-Kohn-Sham simulations}{166}{section.6.2}}
\newlabel{sec_dimer_simulation_results}{{6.2}{166}{Results from Ehrenfest-Maxwell-Pauli-Kohn-Sham simulations}{section.6.2}{}}
\@writefile{lof}{\contentsline {figure}{\numberline {6.5}{\ignorespaces Contour plots in the x-y plane for the current density, the electron localization function, electric field difference, and Maxwell energy difference}}{167}{figure.6.5}}
\newlabel{fig_movie_frame_1}{{6.5}{167}{Contour plots in the x-y plane for the current density, the electron localization function, electric field difference, and Maxwell energy difference}{figure.6.5}{}}
\@writefile{lof}{\contentsline {figure}{\numberline {6.6}{\ignorespaces Similar movie frame as Figure\nobreakspace  {}\ref  {fig_movie_frame_1}, but with the frame at time 8.33 fs.}}{168}{figure.6.6}}
\newlabel{fig_movie_frame_2}{{6.6}{168}{Similar movie frame as Figure~\ref {fig_movie_frame_1}, but with the frame at time 8.33 fs}{figure.6.6}{}}
\@writefile{toc}{\contentsline {subsection}{\numberline {6.2.1}Electric field enhancement}{169}{subsection.6.2.1}}
\newlabel{subsec_electric_field_enhancement}{{6.2.1}{169}{Electric field enhancement}{subsection.6.2.1}{}}
\newlabel{eq_transverse_electric_field_matter}{{6.2.1}{169}{Electric field enhancement}{equation.6.2.1}{}}
\newlabel{eq_total_electric_field_forward_coupling}{{6.2.2}{169}{Electric field enhancement}{equation.6.2.2}{}}
\@writefile{lof}{\contentsline {figure}{\numberline {6.7}{\ignorespaces Electric field values and current density in z-direction in the center between the two Sodium clusters for $ d_1 = 0.1 $ nm}}{170}{figure.6.7}}
\newlabel{fig_Na_297_dimer_0_1_nm_electric_field_fixed_ions}{{6.7}{170}{Electric field values and current density in z-direction in the center between the two Sodium clusters for $ d_1 = 0.1 $ nm}{figure.6.7}{}}
\@writefile{lof}{\contentsline {figure}{\numberline {6.8}{\ignorespaces Electric field values and current density in z-direction in the center between the two Sodium clusters for $ d_2 = 0.5 $ nm}}{171}{figure.6.8}}
\newlabel{fig_Na_297_dimer_0_5_nm_electric_field_fixed_ions}{{6.8}{171}{Electric field values and current density in z-direction in the center between the two Sodium clusters for $ d_2 = 0.5 $ nm}{figure.6.8}{}}
\@writefile{lof}{\contentsline {figure}{\numberline {6.9}{\ignorespaces Decomposition of the total electric field into transverse and longitudinal components for the dimer with $d_1 = 0.1 $ nm}}{173}{figure.6.9}}
\newlabel{fig_Na_297_dimer_0_1_nm_electric_field_fixed_ions_decomposition}{{6.9}{173}{Decomposition of the total electric field into transverse and longitudinal components for the dimer with $d_1 = 0.1 $ nm}{figure.6.9}{}}
\@writefile{lof}{\contentsline {figure}{\numberline {6.10}{\ignorespaces Decomposition of the electric field as in Figure\nobreakspace  {}\ref  {fig_Na_297_dimer_0_1_nm_electric_field_fixed_ions_decomposition} for the sodium dimer with $ d_2 = 0.5 $ nm.}}{174}{figure.6.10}}
\newlabel{fig_Na_297_dimer_0_5_nm_electric_field_fixed_ions_decomposition}{{6.10}{174}{Decomposition of the electric field as in Figure~\ref {fig_Na_297_dimer_0_1_nm_electric_field_fixed_ions_decomposition} for the sodium dimer with $ d_2 = 0.5 $ nm}{figure.6.10}{}}
\@writefile{lof}{\contentsline {figure}{\numberline {6.11}{\ignorespaces Contour plots for the electric field enhancement in the x-z plane of the nanoplasmonic dimer with $ d_1=0.1 $ nm}}{175}{figure.6.11}}
\newlabel{fig_electric_field_enhancement_contour}{{6.11}{175}{Contour plots for the electric field enhancement in the x-z plane of the nanoplasmonic dimer with $ d_1=0.1 $ nm}{figure.6.11}{}}
\@writefile{toc}{\contentsline {subsection}{\numberline {6.2.2}Next order in multipole coupling and energies}{176}{subsection.6.2.2}}
\newlabel{subsec_matter_maxwell_energies}{{6.2.2}{176}{Next order in multipole coupling and energies}{subsection.6.2.2}{}}
\@writefile{lof}{\contentsline {figure}{\numberline {6.12}{\ignorespaces Matter and electromagnetic energies for the sodium dimer with $d_1=0.1 $ nm separation}}{177}{figure.6.12}}
\newlabel{fig_Na_297_dimer_0_1_nm_energy}{{6.12}{177}{Matter and electromagnetic energies for the sodium dimer with $d_1=0.1 $ nm separation}{figure.6.12}{}}
\@writefile{lof}{\contentsline {figure}{\numberline {6.13}{\ignorespaces Matter and electromagnetic energies for the sodium dimer with $d_2=0.5 $ nm separation}}{178}{figure.6.13}}
\newlabel{fig_Na_297_dimer_0_5_nm_energy}{{6.13}{178}{Matter and electromagnetic energies for the sodium dimer with $d_2=0.5 $ nm separation}{figure.6.13}{}}
\@writefile{toc}{\contentsline {subsection}{\numberline {6.2.3}Electromagnetic detectors and harmonic generation}{179}{subsection.6.2.3}}
\newlabel{subsec_detectors_harmonic_generation}{{6.2.3}{179}{Electromagnetic detectors and harmonic generation}{subsection.6.2.3}{}}
\@writefile{lof}{\contentsline {figure}{\numberline {6.14}{\ignorespaces Position expectation value of the nanoplasmonic dimer with $d_1 = 0.1$ nm separation}}{180}{figure.6.14}}
\newlabel{fig_Na_297_dimer_0_5_nm_multipoles}{{6.14}{180}{Position expectation value of the nanoplasmonic dimer with $d_1 = 0.1$ nm separation}{figure.6.14}{}}
\@writefile{lof}{\contentsline {figure}{\numberline {6.15}{\ignorespaces Fourier transform of the dipole expectationvalues and the electric field at the far-field detectors}}{181}{figure.6.15}}
\newlabel{fig_second_harmonic_peak}{{6.15}{181}{Fourier transform of the dipole expectationvalues and the electric field at the far-field detectors}{figure.6.15}{}}
\citation{andrade_2009}
\@writefile{toc}{\contentsline {subsection}{\numberline {6.2.4}Ion motion}{182}{subsection.6.2.4}}
\newlabel{subsec_ion_motion}{{6.2.4}{182}{Ion motion}{subsection.6.2.4}{}}
\@writefile{lof}{\contentsline {figure}{\numberline {6.16}{\ignorespaces Same as Figure\nobreakspace  {}\ref  {fig_Na_297_dimer_0_1_nm_energy} but now including the motion of the ions in classical Ehrenfest approximation.}}{182}{figure.6.16}}
\newlabel{fig_Na_297_dimer_0_1_nm_moved_ions_energy}{{6.16}{182}{Same as Figure~\ref {fig_Na_297_dimer_0_1_nm_energy} but now including the motion of the ions in classical Ehrenfest approximation}{figure.6.16}{}}
\citation{Octopus_2015}
\citation{KohnSham}
\citation{Octopus_2015}
\citation{PBE_functional}
\@writefile{toc}{\contentsline {subsection}{\numberline {6.2.5}Comparison of different density functionals}{183}{subsection.6.2.5}}
\newlabel{subsec_comparison_density_functionals}{{6.2.5}{183}{Comparison of different density functionals}{subsection.6.2.5}{}}
\@writefile{lof}{\contentsline {figure}{\numberline {6.17}{\ignorespaces Electric field, Maxwell energy and dipole expectation value for the comparison between TDLDA, TDPBE, and fully coupled Maxwell to matter simulations}}{184}{figure.6.17}}
\newlabel{fig_density_functionals}{{6.17}{184}{Electric field, Maxwell energy and dipole expectation value for the comparison between TDLDA, TDPBE, and fully coupled Maxwell to matter simulations}{figure.6.17}{}}
\@setckpt{./large_molecular_Maxwell_Pauli_Kohn_Sham_systems/large_molecular_Maxwell_Pauli_Kohn_Sham_systems}{
\setcounter{page}{185}
\setcounter{equation}{2}
\setcounter{enumi}{0}
\setcounter{enumii}{0}
\setcounter{enumiii}{0}
\setcounter{enumiv}{0}
\setcounter{footnote}{0}
\setcounter{mpfootnote}{0}
\setcounter{part}{0}
\setcounter{chapter}{6}
\setcounter{section}{2}
\setcounter{subsection}{5}
\setcounter{subsubsection}{0}
\setcounter{paragraph}{0}
\setcounter{subparagraph}{0}
\setcounter{figure}{17}
\setcounter{table}{2}
\setcounter{parentequation}{0}
\setcounter{r@tfl@t}{0}
\setcounter{subfigure}{0}
\setcounter{lofdepth}{1}
\setcounter{subtable}{0}
\setcounter{lotdepth}{1}
\setcounter{su@anzahl}{0}
\setcounter{LT@tables}{0}
\setcounter{LT@chunks}{0}
\setcounter{@pps}{0}
\setcounter{@ppsavesec}{0}
\setcounter{@ppsaveapp}{0}
\setcounter{float@type}{4}
\setcounter{Item}{0}
\setcounter{Hfootnote}{2}
\setcounter{bookmark@seq@number}{0}
\setcounter{lips@count}{0}
\setcounter{section@level}{2}
}
