# -*- coding: utf-8 mode: shell-script -*-
# $Id: 05-output.02-convert.inp 12356 2014-08-06 15:57:19Z dstrubbe $

ExperimentalFeatures = yes
Units = eV_Angstrom

Radius = 5.0
Spacing = 0.5
%Coordinates
  "H" | 0 | 0 | 0
%

OutputHow = dx
Output = density
ConvertFolder = 'restart/gs'
ConvertFilename = 'density'
ConvertIterateFolder = no

ConvertStart = 1
ConvertEnd   = 1
