\relax 
\citation{Silberstein_1907}
\citation{jackson1998classical}
\citation{Bialynicki-Birula_1996}
\citation{Sameen_Ahmed_Khan_2005}
\citation{Mamadou_Ndong_2009}
\citation{Ioana_Serban_2005}
\newlabel{FirstPage}{{}{1}{}{}{}}
\@writefile{toc}{\contentsline {title}{Paper title}{1}{}}
\@writefile{toc}{\contentsline {abstract}{Abstract}{1}{}}
\@writefile{toc}{\contentsline {section}{\numberline {I}Introduction}{1}{}}
\newlabel{sec:Intro}{{I}{1}{}{}{}}
\@writefile{toc}{\contentsline {section}{\numberline {II}Riemann-Silberstein formalism of Maxwell's equations in vacuum}{1}{}}
\newlabel{eq_RSf_Riemann-Silberstein_vector_vacuum}{{1}{1}{}{}{}}
\newlabel{eq_RSf_RS_energy_density_vacuum}{{3}{1}{}{}{}}
\newlabel{eq_RSf_Gauss_vacuum_Riemann-Silberstein}{{4}{1}{}{}{}}
\newlabel{eq_RSf_Faraday_Ampere_vacuum_Riemann-Silberstein}{{5}{1}{}{}{}}
\newlabel{eq_RSf_curl_identity_Spin-1_matrices}{{6}{1}{}{}{}}
\newlabel{eq_RSf_Spin-1_xyz_matrices}{{II}{1}{}{}{}}
\newlabel{eq_RSf_Ampere_Farraday_law_in_RS_representation}{{9}{1}{}{}{}}
\newlabel{eq_RSf_Ampere_Farraday_law_hamiltonian}{{11}{1}{}{}{}}
\citation{HohenbergKohn}
\citation{KohnSham}
\citation{Ruggenthaler_2014}
\citation{Loudon,craig2012molecular}
\@writefile{toc}{\contentsline {section}{\numberline {III}Time-evolution operator for Maxwell's equations in Riemann-Silberstein formalism}{2}{}}
\newlabel{eq_Mteo_inhom_Schroedinger_time_ev_op}{{12}{2}{}{}{}}
\newlabel{eq_Mteo_inhom_Maxwell_time_ev_op}{{13}{2}{}{}{}}
\newlabel{eq_Mteo_hom_Maxwell_time_ev_op}{{14}{2}{}{}{}}
\newlabel{eq_Mteo_def_inhom_Maxwell_time_ev_op}{{15}{2}{}{}{}}
\@writefile{toc}{\contentsline {section}{\numberline {IV}Maxwell-Kohn-Sham coupling and time-depending density functional theory}{2}{}}
\newlabel{eq_MKSc_Kohn_Sham_equation}{{16}{2}{}{}{}}
\newlabel{eq_MKSc_Kohn_Sham_Hamiltonian}{{17}{2}{}{}{}}
\newlabel{eq_MKSc_Kohn_Sham_potential}{{18}{2}{}{}{}}
\citation{Castro2004}
\bibdata{octopus_maxwellNotes,octopus_maxwell}
\bibcite{Silberstein_1907}{{1}{1907}{{{Silberstein}}}{{}}}
\bibcite{jackson1998classical}{{2}{1998}{{Jackson}}{{}}}
\bibcite{Bialynicki-Birula_1996}{{3}{1996}{{Bialynicki-Birula}}{{}}}
\bibcite{Sameen_Ahmed_Khan_2005}{{4}{2005}{{Khan}}{{}}}
\bibcite{Mamadou_Ndong_2009}{{5}{2009}{{Ndong\ \emph  {et~al.}}}{{Ndong, Tal-Ezer, Kosloff,\ and\ Koch}}}
\bibcite{Ioana_Serban_2005}{{6}{2005}{{Serban\ \emph  {et~al.}}}{{Serban, Werschnik,\ and\ Gross}}}
\bibcite{HohenbergKohn}{{7}{1964}{{Hohenberg\ and\ Kohn}}{{}}}
\bibcite{KohnSham}{{8}{1965}{{Kohn\ and\ Sham}}{{}}}
\bibcite{Ruggenthaler_2014}{{9}{2014}{{Ruggenthaler\ \emph  {et~al.}}}{{Ruggenthaler, Flick, Pellegrini, Appel, Tokatly,\ and\ Rubio}}}
\@writefile{toc}{\contentsline {section}{\numberline {V}Predictor-Corrector Time-evolution of Maxwell-Kohn-Sham system}{3}{}}
\@writefile{toc}{\contentsline {section}{\numberline {VI}Implementation in the real-time real-space ab initio simulation code Octopus}{3}{}}
\@writefile{toc}{\contentsline {section}{\numberline {VII}Separating analytic electromagnetic fields and computed scattered field}{3}{}}
\@writefile{toc}{\contentsline {section}{\numberline {VIII}Calculation performance on larger clusters}{3}{}}
\@writefile{toc}{\contentsline {section}{\numberline {IX}Calculation of a small molecluar system}{3}{}}
\@writefile{toc}{\contentsline {section}{\numberline {X}Summary, Outlook}{3}{}}
\@writefile{toc}{\contentsline {section}{\numberline {}References}{3}{}}
\bibcite{Loudon}{{10}{1983}{{Loudon}}{{}}}
\bibcite{craig2012molecular}{{11}{2012}{{Craig\ and\ Thirunamachandran}}{{}}}
\bibcite{Castro2004}{{12}{2004}{{Castro\ \emph  {et~al.}}}{{Castro, Marques,\ and\ Rubio}}}
\bibstyle{apsrev4-1}
\citation{REVTEX41Control}
\citation{apsrev41Control}
\newlabel{LastBibItem}{{12}{4}{}{}{}}
\newlabel{LastPage}{{}{4}{}{}{}}
