# -*- coding: utf-8 mode: shell-script -*-
# $Id: 04-oep.02-jellium-exx_kli.inp 13307 2015-03-09 06:55:02Z xavier $

# Now, EXX/KLI for Li, 8 electrons (restarting from the previous run)

CalculationMode = gs

r_s = 3.28
N_electrons = 8
jradius = r_s * (N_electrons)^(1.0/3.0)

%Species
"jellium" | species_jellium | jellium_radius | jradius | valence | N_electrons
%

%Coordinates
"jellium" | 0 | 0 | 0
%

BoxShape = sphere
Radius  = 13.0
Spacing = 0.35

XCFunctional = oep_x
OEPLevel = oep_kli

ConvRelDens = 8e-6

EigenSolverTolerance = 1e-5

Preconditioner = no

ParallelizationStrategy = par_domains
