\relax 
\pgfsyspdfmark {pgfid1}{1799790}{816750}
\newlabel{MX_v_1}{{1}{2}}
\newlabel{MX_v_2}{{2}{2}}
\newlabel{MX_v_3}{{3}{2}}
\newlabel{MX_v_4}{{4}{2}}
\newlabel{RS_v}{{5}{2}}
\newlabel{div_F_v}{{6}{2}}
\newlabel{rot_F_v}{{7}{2}}
