FromScratch=yes

CalculationMode = td

%Coordinates
 'C'  | 0.000000  |  2.638059  |  0.000000
 'C'  | 2.284680  |  1.319029  |  0.000000
 'C'  | 2.284680  | -1.319029  |  0.000000
 'C'  | 0.000000  | -2.638059  |  0.000000
 'C'  |-2.284680  |  1.319029  |  0.000000
 'C'  |-2.284680  | -1.319029  |  0.000000
 'H'  | 0.000000  |  4.684633  |  0.000000
 'H'  | 4.057244  |  2.343261  |  0.000000
 'H'  | 4.057244  | -2.343261  |  0.000000
 'H'  | 0.000000  | -4.684633  |  0.000000
 'H'  |-4.057244  |  2.343261  |  0.000000
 'H'  |-4.057244  | -2.343261  |  0.000000
%

%Velocities					
'C' |  0.0001389819794198 | -2.450505548238E-06 |  0.00035312236323
'C' |  0.0002678468363427 |  0.0002308223678696 | -0.0002811668673951
'C' | -0.0004047858043771 | -0.0001294796225752	| -1.506441842891E-05
'C' |  0.0003022083139104 |  1.268806469852E-05	| -0.0002852612571474
'C' | -3.332540399668E-05 |  5.552463707742E-05	|  0.0001719066198501
'C' | -7.598085894397E-06 | -0.0001206163517478	| -5.141562795187E-06
'H' | -0.0003866501143552 | -0.0005975032848973	|  0.0004476503073567
'H' | -0.0001624482375963 | -0.0001982483625699	| -0.000686746185301
'H' | -0.0003228248028958 |  6.440778452842E-05	|  2.800702757686E-05
'H' | -0.0004466369638685 | -9.050285510693E-05	|  0.001087815929153
'H' | -4.294712506488E-05 | -0.0001768891566633	| -0.0001091863318754
'H' | -0.001776329961504  |  0.0004447738281565	| -3.344878999792E-05
%

Spacing=0.55

Radius=8

ParallelizationStrategy = par_domains + par_states

TDIonicTimeScale = 10

TDTimeStep = 0.1 * TDIonicTimeScale
TDMaxSteps = 20

%ParallelizationGroupRanks
2 | 2
%
