# -*- coding: utf-8 mode: shell-script -*-
# $Id: 08-laser.01-ground_state.inp 11695 2014-01-31 10:48:23Z micael $

CalculationMode = gs
FromScratch = yes

bondlength = 1.7/0.529177

%Coordinates
"Na" | 0.0 | 0.0 |  bondlength 
"Na" | 0.0 | 0.0 | -bondlength 
%

BoxShape = sphere
Radius  = 8.0/0.529177
Spacing = 0.3/0.529177

ExcessCharge = 1
TheoryLevel = independent_particles

ConvRelDens = 5.0e-4

EigenSolverTolerance = 1e-7
EigenSolverMaxIter = 200

ParallelizationStrategy = par_domains
