CalculationMode = gs

ExperimentalFeatures = yes
ComplexScaling = space

ComplexScalingTheta = 0.4

Dimensions = 1
BoxShape = sphere
fromScratch = yes
Spacing = 0.1
Radius = 6.5
ExtraStates = 8
XCFunctional=lda_xc_cmplx

ComplexScalingLocalizationRadius = Radius * 0.6

# recommended 2 * nstates + 1 or more
EigenSolverArnoldiVectors = 50
EigensolverTolerance = 1e-15
ArpackInitialTolerance = 1

Eigensolver = arpack

eith = exp(i * ComplexScalingTheta)

%Species
 'HARMONIC' | species_user_defined | potential_formula | "2*(r*eith)^2" | valence | 2
%

%Coordinates
 'HARMONIC' | 0
%
