\relax 
\providecommand\hyper@newdestlabel[2]{}
\@writefile{toc}{\contentsline {chapter}{\numberline {4}Theoretical fundamentals of light-matter coupling}{77}{chapter.4}}
\@writefile{lof}{\addvspace {10\p@ }}
\@writefile{lot}{\addvspace {10\p@ }}
\newlabel{chap_QED_for_many_body_systems}{{4}{77}{Theoretical fundamentals of light-matter coupling}{chapter.4}{}}
\@writefile{toc}{\contentsline {section}{\numberline {4.1}Relativistic covariant notation}{77}{section.4.1}}
\newlabel{sec_relativistic_notation}{{4.1}{77}{Relativistic covariant notation}{section.4.1}{}}
\newlabel{eq_rel_vector}{{4.1.5}{78}{Relativistic covariant notation}{equation.4.1.5}{}}
\newlabel{eq_rel_matrix_vector}{{4.1.6}{78}{Relativistic covariant notation}{equation.4.1.6}{}}
\newlabel{eq_rel_dot_product}{{4.1.7}{78}{Relativistic covariant notation}{equation.4.1.7}{}}
\newlabel{eq_rel_divergence}{{4.1.8}{78}{Relativistic covariant notation}{equation.4.1.8}{}}
\newlabel{eq_rel_low}{{4.1.9}{78}{Relativistic covariant notation}{equation.4.1.9}{}}
\newlabel{eq_rel_curl}{{4.1.10}{78}{Relativistic covariant notation}{equation.4.1.10}{}}
\newlabel{eq_levi_civita}{{4.1.11}{78}{Relativistic covariant notation}{equation.4.1.11}{}}
\citation{weinberg1995quantum}
\citation{weinberg1995quantum}
\@writefile{toc}{\contentsline {section}{\numberline {4.2}Relativistic decomposition of spin particles and derivation of Maxwell's equations}{79}{section.4.2}}
\newlabel{sec_relativistic_wave_equation}{{4.2}{79}{Relativistic decomposition of spin particles and derivation of Maxwell's equations}{section.4.2}{}}
\newlabel{eq_energy_impuls_mass}{{4.2.1}{79}{Relativistic decomposition of spin particles and derivation of Maxwell's equations}{equation.4.2.1}{}}
\newlabel{eq_energy_impuls_massless}{{4.2.2}{79}{Relativistic decomposition of spin particles and derivation of Maxwell's equations}{equation.4.2.2}{}}
\newlabel{eq_rel_spinless_mass}{{4.2.3}{79}{Relativistic decomposition of spin particles and derivation of Maxwell's equations}{equation.4.2.3}{}}
\newlabel{eq_rel_spinless_massless}{{4.2.4}{79}{Relativistic decomposition of spin particles and derivation of Maxwell's equations}{equation.4.2.4}{}}
\newlabel{eq_rel_spinless_mass_decomp}{{4.2.5}{79}{Relativistic decomposition of spin particles and derivation of Maxwell's equations}{equation.4.2.5}{}}
\newlabel{eq_rel_spinless_massless_decomp}{{4.2.6}{79}{Relativistic decomposition of spin particles and derivation of Maxwell's equations}{equation.4.2.6}{}}
\newlabel{eq_RN2}{{4.2.9}{79}{Relativistic decomposition of spin particles and derivation of Maxwell's equations}{equation.4.2.9}{}}
\citation{weinberg1995quantum}
\citation{Pryce62}
\citation{Gersten-1999}
\newlabel{eq_rel_spin_1/2_mass}{{4.2.10}{80}{Relativistic decomposition of spin particles and derivation of Maxwell's equations}{equation.4.2.10}{}}
\newlabel{eq_rel_1/2_mass_decomp}{{4.2.11}{80}{Relativistic decomposition of spin particles and derivation of Maxwell's equations}{equation.4.2.11}{}}
\newlabel{eq_rel_spin_1_massless}{{4.2.12}{80}{Relativistic decomposition of spin particles and derivation of Maxwell's equations}{equation.4.2.12}{}}
\newlabel{eq_Spin-1_cartesian_matrices_covariant}{{4.2}{80}{Relativistic decomposition of spin particles and derivation of Maxwell's equations}{equation.4.2.13}{}}
\newlabel{eq_rel_spin_1_massless_decomp}{{4.2.15}{80}{Relativistic decomposition of spin particles and derivation of Maxwell's equations}{equation.4.2.15}{}}
\newlabel{eq_rel_spin_1_massless_decomp_comp_conj}{{4.2.16}{80}{Relativistic decomposition of spin particles and derivation of Maxwell's equations}{equation.4.2.16}{}}
\citation{Gersten-1999}
\newlabel{eq_rel_spin_1_massless_decomp_6x6}{{4.2.17}{81}{Relativistic decomposition of spin particles and derivation of Maxwell's equations}{equation.4.2.17}{}}
\newlabel{eq_rel_spin_1_massless_decomp_Faraday_Ampere_6x6}{{4.2.18}{81}{Relativistic decomposition of spin particles and derivation of Maxwell's equations}{equation.4.2.18}{}}
\newlabel{eq_rel_spin_1_massless_decomp_Faraday_Ampere_6x6_2}{{4.2.19}{81}{Relativistic decomposition of spin particles and derivation of Maxwell's equations}{equation.4.2.19}{}}
\newlabel{eq_photon_wave_functions}{{4.2.20}{81}{Relativistic decomposition of spin particles and derivation of Maxwell's equations}{equation.4.2.20}{}}
\newlabel{eq_rel_spin_1_massless_decomp_Faraday_Ampere_RS_6x6}{{4.2.21}{81}{Relativistic decomposition of spin particles and derivation of Maxwell's equations}{equation.4.2.21}{}}
\newlabel{eq_rel_spin_1_massless_side_con}{{4.2.22}{81}{Relativistic decomposition of spin particles and derivation of Maxwell's equations}{equation.4.2.22}{}}
\newlabel{eq_rel_spin_1_massless_side_con_comp_conj}{{4.2.23}{81}{Relativistic decomposition of spin particles and derivation of Maxwell's equations}{equation.4.2.23}{}}
\newlabel{eq_rel_spin_1_massless_side_con_6}{{4.2.25}{82}{Relativistic decomposition of spin particles and derivation of Maxwell's equations}{equation.4.2.25}{}}
\newlabel{eq_rel_spin_1_massless_decomp_Gauss_RS_6x6}{{4.2.26}{82}{Relativistic decomposition of spin particles and derivation of Maxwell's equations}{equation.4.2.26}{}}
\@writefile{toc}{\contentsline {section}{\numberline {4.3}Multi-species Hamiltonian}{82}{section.4.3}}
\newlabel{sec_multi_species_hamiltonian}{{4.3}{82}{Multi-species Hamiltonian}{section.4.3}{}}
\newlabel{eq_H_ph_free_RS_2}{{4.3.2}{82}{Multi-species Hamiltonian}{equation.4.3.2}{}}
\newlabel{eq_H_int_mat_trans_2}{{4.3.3}{82}{Multi-species Hamiltonian}{equation.4.3.3}{}}
\newlabel{eq_H_int_mat_3}{{4.3.4}{82}{Multi-species Hamiltonian}{equation.4.3.4}{}}
\citation{tokatly2013}
\citation{flick2018cavity}
\citation{greiner1996}
\citation{Gross90}
\newlabel{eq_Pauli_Fierz_N}{{4.3.5}{83}{Multi-species Hamiltonian}{equation.4.3.5}{}}
\newlabel{eq_Maxwell_vector_potential_operator_scalar}{{4.3.8}{83}{Multi-species Hamiltonian}{equation.4.3.8}{}}
\newlabel{eq_Maxwell_vector_inhomogeneous_operator_total}{{4.3.9}{83}{Multi-species Hamiltonian}{equation.4.3.9}{}}
\newlabel{eq_Maxwell_vector_inhomogeneous_operator_total_2}{{4.3.10}{83}{Multi-species Hamiltonian}{equation.4.3.10}{}}
\newlabel{eq_RS_Faraday_Ampere_pm_operator_total}{{4.3.11}{83}{Multi-species Hamiltonian}{equation.4.3.11}{}}
\newlabel{eq_RS_Gauss_micro_pm_operator_total}{{4.3.12}{83}{Multi-species Hamiltonian}{equation.4.3.12}{}}
\citation{Gross90}
\citation{Marques2006}
\citation{HohenbergKohn}
\citation{Runge_Gross}
\citation{Marques2006}
\citation{Ruggenthaler_2014}
\citation{MPKS_paper}
\@writefile{toc}{\contentsline {section}{\numberline {4.4}Quantum-electrodynamical density-functional theory for multi species}{84}{section.4.4}}
\newlabel{sec_qedft_multi_species}{{4.4}{84}{Quantum-electrodynamical density-functional theory for multi species}{section.4.4}{}}
\newlabel{eq_groundstate_observable}{{4.4.4}{84}{Quantum-electrodynamical density-functional theory for multi species}{equation.4.4.4}{}}
\newlabel{eq_groundstate_observable_KS}{{4.4.5}{84}{Quantum-electrodynamical density-functional theory for multi species}{equation.4.4.5}{}}
\citation{kohn-1965}
\citation{tokatly2005quantum}
\citation{Ruggenthaler_2014}
\citation{Ruggenthaler_review}
\citation{Ruggenthaler_2014}
\citation{MPKS_paper}
\citation{MPKS_paper}
\citation{Ruggenthaler_review}
\@writefile{toc}{\contentsline {section}{\numberline {4.5}Coupled Maxwell-Pauli-Kohn-Sham equations}{85}{section.4.5}}
\newlabel{sec_MPKS_equation}{{4.5}{85}{Coupled Maxwell-Pauli-Kohn-Sham equations}{section.4.5}{}}
\newlabel{eq_KS_one_one_correspondence}{{4.5.1}{85}{Coupled Maxwell-Pauli-Kohn-Sham equations}{equation.4.5.1}{}}
\newlabel{eq_KS_mapping}{{4.5.2}{85}{Coupled Maxwell-Pauli-Kohn-Sham equations}{equation.4.5.2}{}}
\citation{quantum_many_particle}
\citation{quantum_many_particle}
\citation{current_density_functionals_2015}
\newlabel{eq_mxc_potential}{{4.5.5}{86}{Coupled Maxwell-Pauli-Kohn-Sham equations}{equation.4.5.5}{}}
\newlabel{eq_MPKS_equation}{{4.5.7}{86}{Coupled Maxwell-Pauli-Kohn-Sham equations}{equation.4.5.7}{}}
\newlabel{eq_canonical_P}{{4.5.8}{86}{Coupled Maxwell-Pauli-Kohn-Sham equations}{equation.4.5.8}{}}
\citation{spohn2004}
\citation{ruggenthaler2015}
\citation{Marques2006}
\citation{abedi2010exact}
\citation{abedi2012correlated}
\newlabel{eq_Maxwell_vector_potential_scalar}{{4.5.12}{87}{Coupled Maxwell-Pauli-Kohn-Sham equations}{equation.4.5.12}{}}
\newlabel{eq_Maxwell_vector_inhomogeneous_total}{{4.5.13}{87}{Coupled Maxwell-Pauli-Kohn-Sham equations}{equation.4.5.13}{}}
\newlabel{eq_RS_Faraday_Ampere_pm_total}{{4.5.14}{87}{Coupled Maxwell-Pauli-Kohn-Sham equations}{equation.4.5.14}{}}
\newlabel{eq_RS_Gauss_micro_pm_total}{{4.5.15}{87}{Coupled Maxwell-Pauli-Kohn-Sham equations}{equation.4.5.15}{}}
\newlabel{eq_KS_vector_potential_approx_0}{{4.5.16}{87}{Coupled Maxwell-Pauli-Kohn-Sham equations}{equation.4.5.16}{}}
\newlabel{eq_KS_vector_potential_approx_k}{{4.5.17}{87}{Coupled Maxwell-Pauli-Kohn-Sham equations}{equation.4.5.17}{}}
\@writefile{toc}{\contentsline {section}{\numberline {4.6}Classical limit for Nuclei}{87}{section.4.6}}
\newlabel{sec_classical_nuclei}{{4.6}{87}{Classical limit for Nuclei}{section.4.6}{}}
\citation{min2017ab}
\newlabel{eq_CT_MQC_a}{{4.6.1}{88}{Classical limit for Nuclei}{equation.4.6.1}{}}
\newlabel{eq_CT_MQC_S2}{{4.6.2}{88}{Classical limit for Nuclei}{equation.4.6.2}{}}
\newlabel{eq_velocity_field}{{4.6.7}{88}{Classical limit for Nuclei}{equation.4.6.7}{}}
\newlabel{eq_Lorentz_force}{{4.6.8}{88}{Classical limit for Nuclei}{equation.4.6.8}{}}
\@setckpt{./quantum_electrodynamics_for_many_body_systems/quantum_electrodynamics_for_many_body_systems}{
\setcounter{page}{90}
\setcounter{equation}{8}
\setcounter{enumi}{0}
\setcounter{enumii}{0}
\setcounter{enumiii}{0}
\setcounter{enumiv}{0}
\setcounter{footnote}{0}
\setcounter{mpfootnote}{0}
\setcounter{part}{0}
\setcounter{chapter}{4}
\setcounter{section}{6}
\setcounter{subsection}{0}
\setcounter{subsubsection}{0}
\setcounter{paragraph}{0}
\setcounter{subparagraph}{0}
\setcounter{figure}{0}
\setcounter{table}{0}
\setcounter{parentequation}{0}
\setcounter{r@tfl@t}{0}
\setcounter{subfigure}{0}
\setcounter{lofdepth}{1}
\setcounter{subtable}{0}
\setcounter{lotdepth}{1}
\setcounter{su@anzahl}{0}
\setcounter{LT@tables}{0}
\setcounter{LT@chunks}{0}
\setcounter{@pps}{0}
\setcounter{@ppsavesec}{0}
\setcounter{@ppsaveapp}{0}
\setcounter{float@type}{4}
\setcounter{Item}{0}
\setcounter{Hfootnote}{0}
\setcounter{bookmark@seq@number}{48}
\setcounter{section@level}{1}
}
