CalculationMode = gs

%Coordinates
 'Al' | 0.0 | 0.0 | 0.0
%

PseudopotentialSet = hgh_lda

Radius = 6.0
Spacing = 0.5

ExtraStates = 2
Smearing = 0.01
SmearingFunction = fermi_dirac

%StaticMagneticField 
 1.0 | -1.0 | 2.0
%

SpinComponents = non_collinear

FromScratch = yes

LCAOStart = no


