# -*- coding: utf-8 -*-
# $Id: 20-eigensolver.03-cg_new.inp 11695 2014-01-31 10:48:23Z micael $

Units = ev_angstrom

CalculationMode = gs
FromScratch = yes

BoxShape = sphere
Radius = 4
Spacing = 0.25

%Coordinates
 "C"  |  0.000 |  0.000 |  0.000 
 "H"  | -1.213 | -0.852 |  0.000 
 "H"  |  0.000 |  0.852 | -1.213 
 "H"  |  0.000 |  0.852 |  1.213 
 "H"  |  1.213 | -0.852 |  0.000 
%

EigenSolver = cg_new
EigenSolverTolerance = 1e-5

ParallelizationStrategy = par_domains
