   3.2429830e-24   9.2280231e-31   0.0000000e+00   0.0000000e+00
   1.9557683e-24   1.4178565e-30   0.0000000e+00   0.0000000e+00
   1.4597617e-24   8.0329694e-31   0.0000000e+00   0.0000000e+00
   1.4100928e-24   2.3469733e-30   0.0000000e+00   0.0000000e+00
   1.5749232e-24   1.6875085e-30   0.0000000e+00   0.0000000e+00
   1.6720703e-24   3.3551889e-30   0.0000000e+00   0.0000000e+00
   1.5178256e-24   2.4022053e-30   0.0000000e+00   0.0000000e+00
   1.2198631e-24   4.0554388e-30   0.0000000e+00   0.0000000e+00
   1.0260003e-24   5.1924956e-30   0.0000000e+00   0.0000000e+00
   1.0112559e-24   5.3155313e-30   0.0000000e+00   0.0000000e+00
   1.0740501e-24   0.0000000e+00   0.0000000e+00   0.0000000e+00
   1.0946244e-24   5.9610235e-30   0.0000000e+00   0.0000000e+00
   9.8236179e-25   6.3375846e-30   5.5673441e-30   0.0000000e+00
   8.0987821e-25   5.8303629e-30   0.0000000e+00   0.0000000e+00
   5.1054229e-25   6.4184838e-30   0.0000000e+00   0.0000000e+00
   2.2051903e-26   0.0000000e+00   0.0000000e+00   0.0000000e+00
   2.4534022e-23   8.1660393e-30   0.0000000e+00   0.0000000e+00
   8.1607128e-22   5.6377097e-29   8.4863549e-30   0.0000000e+00
   1.8100646e-20   9.7488440e-28   0.0000000e+00   0.0000000e+00
   3.2337558e-19   1.7523994e-26   0.0000000e+00   0.0000000e+00
   4.8133929e-18   2.6065255e-25   7.8020804e-30   0.0000000e+00
   6.0011539e-17   3.2439995e-24   9.1899270e-30   8.6759601e-30
   6.2691206e-16   3.3834277e-23   1.3165832e-29   0.0000000e+00
   5.4820811e-15   2.9550442e-22   2.3985017e-29   0.0000000e+00
   4.0070224e-14   2.1574225e-21   1.3352898e-28   0.0000000e+00
   2.4434961e-13   1.3140014e-20   7.1382632e-28   0.0000000e+00
   1.2400799e-12   6.6604287e-20   3.6477462e-27   0.0000000e+00
   5.2208194e-12   2.8006599e-19   1.5044855e-26   1.0264714e-29
   1.8155172e-11   9.7272675e-19   5.2029608e-26   1.2323112e-29
   5.1835453e-11   2.7738722e-18   1.4869372e-25   1.5203004e-29
   1.2046183e-10   6.4383979e-18   3.4431729e-25   0.0000000e+00
   2.2486815e-10   1.2003984e-17   6.4086599e-25   0.0000000e+00
   3.2997497e-10   1.7593298e-17   9.3791625e-25   1.1365690e-29
   3.6607000e-10   1.9493924e-17   1.0381980e-24   1.2591336e-29
   2.8276867e-10   1.5039567e-17   7.9996867e-25   1.4146090e-29
   1.2083732e-10   6.4190949e-18   3.4079732e-25   1.3419410e-29
   6.8731148e-12   3.6466572e-19   1.9343039e-26   0.0000000e+00
   4.0696131e-11   2.1565684e-18   1.1442400e-25   0.0000000e+00
   1.9169224e-10   1.0145725e-17   5.3702458e-25   1.2588750e-29
   3.3154657e-10   1.7526359e-17   9.2741365e-25   1.5987497e-29
   3.6200246e-10   1.9112926e-17   1.0091684e-24   1.5459079e-29
   2.8745236e-10   1.5158281e-17   7.9887634e-25   0.0000000e+00
   1.7599788e-10   9.2695804e-18   4.8833536e-25   1.5260844e-29
   8.5608303e-11   4.5033635e-18   2.3646860e-25   1.2097857e-29
   3.3660235e-11   1.7685082e-18   9.2726033e-26   0.0000000e+00
   1.0815606e-11   5.6755724e-19   2.9756671e-26   0.0000000e+00
   2.8605917e-12   1.4992806e-19   7.9849717e-27   0.0000000e+00
   6.2575956e-13   3.2757093e-20   1.7833372e-27   1.8524667e-29
   1.1350551e-13   5.9344780e-21   3.4170251e-28   1.8520045e-29
   1.7054590e-14   8.9058392e-22   7.9023112e-29   0.0000000e+00
   2.0998143e-15   1.0951697e-22   2.5620521e-29   0.0000000e+00
   2.0211088e-16   1.0525707e-23   1.9404441e-29   2.0772095e-29
   1.2133219e-17   6.3152651e-25   1.9903658e-29   0.0000000e+00
   1.9430804e-20   1.0560945e-27   1.5010521e-29   0.0000000e+00
   7.0098282e-19   3.6427854e-26   1.9502463e-29   0.0000000e+00
   1.2595921e-18   6.5448634e-26   1.8687960e-29   0.0000000e+00
   1.4888233e-18   7.7168755e-26   1.8895472e-29   1.8087535e-29
   1.6163520e-18   8.3723457e-26   1.6877817e-29   2.2152434e-29
   1.7276094e-18   8.9294788e-26   0.0000000e+00   0.0000000e+00
   1.8451376e-18   9.5292726e-26   2.4105316e-29   0.0000000e+00
   1.9655776e-18   1.0130556e-25   1.7185030e-29   0.0000000e+00
   2.0803764e-18   1.0714836e-25   0.0000000e+00   0.0000000e+00
   2.1883334e-18   1.1203448e-25   0.0000000e+00   0.0000000e+00
   2.2984257e-18   1.1773241e-25   1.9800687e-29   0.0000000e+00
   2.4194830e-18   1.2407700e-25   0.0000000e+00   0.0000000e+00
   2.5495047e-18   1.3042491e-25   0.0000000e+00   0.0000000e+00
   2.6782150e-18   1.3693640e-25   2.2131964e-29   0.0000000e+00
   2.7988761e-18   1.4329065e-25   2.2162860e-29   0.0000000e+00
   2.9146363e-18   1.4903655e-25   0.0000000e+00   0.0000000e+00
   3.0347218e-18   1.5505692e-25   2.5391322e-29   0.0000000e+00
   3.1633957e-18   1.6075392e-25   2.2974825e-29   2.2974825e-29
   3.2943507e-18   1.6704643e-25   2.1548881e-29   0.0000000e+00
   3.4179784e-18   1.7337134e-25   0.0000000e+00   0.0000000e+00
   3.5323631e-18   1.7891841e-25   0.0000000e+00   0.0000000e+00
   3.6452714e-18   1.8509281e-25   0.0000000e+00   0.0000000e+00
   3.7649820e-18   1.9035141e-25   2.3413694e-29   0.0000000e+00
   3.8909561e-18   1.9639180e-25   3.0312144e-29   0.0000000e+00
   4.0151897e-18   2.0274089e-25   2.5635809e-29   0.0000000e+00
   4.1311283e-18   2.0835429e-25   0.0000000e+00   0.0000000e+00
   4.2413842e-18   2.1345852e-25   2.7762207e-29   0.0000000e+00
   4.3541311e-18   2.1916108e-25   2.8753816e-29   0.0000000e+00
   4.4739780e-18   2.2492924e-25   1.1977286e-29   0.0000000e+00
   4.5964386e-18   2.3016888e-25   2.2806908e-29   0.0000000e+00
   4.7131914e-18   2.3629300e-25   2.0508133e-29   0.0000000e+00
   4.8208339e-18   2.4097534e-25   2.6232422e-29   0.0000000e+00
   4.9243519e-18   2.4640130e-25   2.5799077e-29   0.0000000e+00
   5.0311613e-18   2.5125726e-25   2.5708752e-29   2.4320393e-29
   5.1421100e-18   2.5651853e-25   1.5001670e-29   0.0000000e+00
   5.2504973e-18   2.6154336e-25   2.5491458e-29   0.0000000e+00
   5.3493513e-18   2.6584311e-25   2.9339058e-29   0.0000000e+00
   5.4390139e-18   2.7072520e-25   2.3088772e-29   0.0000000e+00
   5.5265402e-18   2.7437151e-25   0.0000000e+00   0.0000000e+00
   5.6168788e-18   2.7832456e-25   3.3380346e-29   0.0000000e+00
   5.7079550e-18   2.8250752e-25   0.0000000e+00   0.0000000e+00
   5.7924116e-18   2.8682707e-25   2.8882849e-29   0.0000000e+00
   5.8666726e-18   2.8950515e-25   0.0000000e+00   0.0000000e+00
   5.9344397e-18   2.9334550e-25   1.6307974e-29   0.0000000e+00
   6.0025299e-18   2.9569074e-25   2.8239121e-29   2.2902523e-29
   6.0731699e-18   2.9903195e-25   0.0000000e+00   0.0000000e+00
   6.1417839e-18   3.0237100e-25   2.6833968e-29   2.6833968e-29
   6.2023956e-18   3.0444981e-25   2.6281140e-29   0.0000000e+00
   6.2548102e-18   3.0636084e-25   2.7730980e-29   0.0000000e+00
   6.3048834e-18   3.0883980e-25   4.1121036e-29   4.3427669e-29
   6.3577052e-18   3.1072632e-25   0.0000000e+00   0.0000000e+00
   6.4120429e-18   3.1279859e-25   3.0216855e-29   0.0000000e+00
   6.4622086e-18   3.1482412e-25   2.0726975e-29   0.0000000e+00
   6.5043902e-18   3.1685085e-25   2.7021765e-29   0.0000000e+00
   6.5413683e-18   3.1842039e-25   3.0838403e-29   0.0000000e+00
   6.5790494e-18   3.2016069e-25   3.0028003e-29   0.0000000e+00
   6.6202742e-18   3.2157756e-25   2.7787864e-29   0.0000000e+00
   6.6615502e-18   3.2259605e-25   2.6721926e-29   0.0000000e+00
   6.6974444e-18   3.2394420e-25   2.2687810e-29   0.0000000e+00
   6.7266740e-18   3.2570132e-25   2.0270143e-29   0.0000000e+00
   6.7532402e-18   3.2553271e-25   2.3881046e-29   0.0000000e+00
   6.7818519e-18   3.2753357e-25   0.0000000e+00   0.0000000e+00
   6.8124819e-18   3.2848041e-25   3.0654504e-29   0.0000000e+00
   6.8407838e-18   3.2942708e-25   2.1379844e-29   2.7248218e-29
   6.8631357e-18   3.3038469e-25   0.0000000e+00   0.0000000e+00
   6.8805909e-18   3.3062855e-25   3.2967249e-29   0.0000000e+00
   6.8976521e-18   3.3095899e-25   3.6268074e-29   0.0000000e+00
   6.9169742e-18   3.3113958e-25   0.0000000e+00   0.0000000e+00
   6.9365173e-18   3.3200028e-25   0.0000000e+00   0.0000000e+00
   6.9517867e-18   3.3246996e-25   0.0000000e+00   0.0000000e+00
   6.9608739e-18   3.3246976e-25   2.4822722e-29   0.0000000e+00
   6.9665198e-18   3.3231975e-25   0.0000000e+00   0.0000000e+00
   6.9725758e-18   3.3190200e-25   0.0000000e+00   0.0000000e+00
   6.9800523e-18   3.3182730e-25   2.7334015e-29   2.3654203e-29
   6.9857071e-18   3.3200581e-25   0.0000000e+00   0.0000000e+00
   6.9864537e-18   3.3215952e-25   0.0000000e+00   0.0000000e+00
   6.9823307e-18   3.3030386e-25   2.2915213e-29   0.0000000e+00
   6.9767746e-18   3.2943218e-25   2.2691412e-29   0.0000000e+00
   6.9723263e-18   3.2951842e-25   1.8520874e-29   0.0000000e+00
   6.9680080e-18   3.2902648e-25   3.1027751e-29   0.0000000e+00
   6.9606470e-18   3.2825683e-25   3.4024449e-29   2.7096865e-29
   6.9483176e-18   3.2711660e-25   1.8386971e-29   0.0000000e+00
   6.9325914e-18   3.2624880e-25   2.4892926e-29   0.0000000e+00
   6.9163810e-18   3.2577100e-25   1.2525203e-29   3.5895849e-29
   6.9006092e-18   3.2370388e-25   2.7309238e-29   0.0000000e+00
   6.8835331e-18   3.2274900e-25   2.3497492e-29   0.0000000e+00
   6.8624868e-18   3.2061916e-25   2.1858405e-29   2.1858405e-29
   6.8375401e-18   3.1998526e-25   2.7238668e-29   2.5854128e-29
   6.8106004e-18   3.1794387e-25   2.7955121e-29   0.0000000e+00
   6.7841263e-18   3.1644570e-25   0.0000000e+00   0.0000000e+00
   6.7578275e-18   3.1466113e-25   2.8264465e-29   0.0000000e+00
   6.7299116e-18   3.1250215e-25   1.6435676e-29   0.0000000e+00
   6.6987128e-18   3.1169177e-25   1.6466691e-29   1.6466691e-29
   6.6647655e-18   3.0952020e-25   0.0000000e+00   0.0000000e+00
   6.6300013e-18   3.0691154e-25   3.8239091e-29   3.8239091e-29
   6.5956195e-18   3.0521392e-25   1.1180402e-29   2.2794723e-29
   6.5610962e-18   3.0344670e-25   1.1331109e-29   1.6815069e-29
   6.5248111e-18   3.0175964e-25   1.0744732e-29   3.2726209e-29
   6.4858102e-18   2.9931514e-25   2.3087409e-29   0.0000000e+00
   6.4445307e-18   2.9743700e-25   0.0000000e+00   0.0000000e+00
   6.4014466e-18   2.9461754e-25   0.0000000e+00   0.0000000e+00
   6.3566776e-18   2.9236400e-25   2.3705623e-29   2.0280304e-29
   6.3089932e-18   2.8980890e-25   2.2190816e-29   0.0000000e+00
   6.2584126e-18   2.8695911e-25   0.0000000e+00   0.0000000e+00
   6.2065270e-18   2.8421849e-25   0.0000000e+00   0.0000000e+00
   6.1571558e-18   2.8154656e-25   2.0919500e-29   0.0000000e+00
   6.1131253e-18   2.7881665e-25   1.9619273e-29   0.0000000e+00
   6.0740101e-18   2.7743197e-25   1.7987055e-29   0.0000000e+00
   6.0354771e-18   2.7568572e-25   1.5013639e-29   1.7015399e-29
   5.9918005e-18   2.7255869e-25   2.3610945e-29   0.0000000e+00
   5.9402803e-18   2.7000892e-25   9.9110617e-30   0.0000000e+00
   5.8830535e-18   2.6696588e-25   2.2530166e-29   0.0000000e+00
   5.8253531e-18   2.6439772e-25   1.1044634e-29   0.0000000e+00
   5.7709889e-18   2.6175430e-25   1.0418958e-29   0.0000000e+00
   5.7190323e-18   2.5898626e-25   2.3086660e-29   0.0000000e+00
   5.6656942e-18   2.5610624e-25   2.3750375e-29   0.0000000e+00
   5.6079325e-18   2.5300010e-25   1.7720148e-29   0.0000000e+00
   5.5474546e-18   2.4992945e-25   1.7495096e-29   1.7531940e-29
   5.4881191e-18   2.4674669e-25   8.9868324e-30   2.1332399e-29
   5.4323511e-18   2.4459496e-25   1.9497350e-29   2.8947475e-29
   5.3777831e-18   2.4178827e-25   1.5669075e-29   0.0000000e+00
   5.3199020e-18   2.3873620e-25   1.9303743e-29   0.0000000e+00
   5.2569287e-18   2.3534353e-25   1.7881943e-29   0.0000000e+00
   5.1917485e-18   2.3223761e-25   0.0000000e+00   0.0000000e+00
   5.1292557e-18   2.2909387e-25   0.0000000e+00   0.0000000e+00
   5.0705396e-18   2.2684108e-25   2.0229231e-29   0.0000000e+00
   5.0119118e-18   2.2365972e-25   0.0000000e+00   0.0000000e+00
   4.9486257e-18   2.2097857e-25   1.9251439e-29   0.0000000e+00
   4.8802417e-18   2.1785270e-25   0.0000000e+00   0.0000000e+00
   4.8115031e-18   2.1378634e-25   0.0000000e+00   0.0000000e+00
   4.7467963e-18   2.1104466e-25   0.0000000e+00   0.0000000e+00
   4.6857439e-18   2.0747626e-25   0.0000000e+00   0.0000000e+00
   4.6229266e-18   2.0536537e-25   1.2057494e-29   0.0000000e+00
   4.5543833e-18   2.0135430e-25   0.0000000e+00   0.0000000e+00
   4.4818091e-18   1.9788622e-25   2.7026376e-29   0.0000000e+00
   4.4110009e-18   1.9461766e-25   2.9631024e-29   0.0000000e+00
   4.3454804e-18   1.9137312e-25   0.0000000e+00   0.0000000e+00
   4.2821785e-18   1.8839867e-25   0.0000000e+00   0.0000000e+00
   4.2152196e-18   1.8541070e-25   0.0000000e+00   0.0000000e+00
   4.1419942e-18   1.8170287e-25   0.0000000e+00   0.0000000e+00
   4.0668203e-18   1.7822808e-25   0.0000000e+00   0.0000000e+00
   3.9957878e-18   1.7525524e-25   0.0000000e+00   0.0000000e+00
   3.9302139e-18   1.7186557e-25   1.2403497e-29   0.0000000e+00
   3.8650236e-18   1.6893906e-25   0.0000000e+00   0.0000000e+00
   3.7942563e-18   1.6530800e-25   0.0000000e+00   0.0000000e+00
   3.7182408e-18   1.6244934e-25   8.4501897e-30   0.0000000e+00
   3.6429785e-18   1.5891545e-25   1.9969270e-29   0.0000000e+00
   3.5739008e-18   1.5555568e-25   1.8748144e-29   0.0000000e+00
   3.5093898e-18   1.5233312e-25   2.2022466e-29   0.0000000e+00
   3.4426888e-18   1.4952316e-25   1.9489909e-29   0.0000000e+00
   3.3695946e-18   1.4598197e-25   2.4413788e-29   2.4413788e-29
   3.2931246e-18   1.4245312e-25   9.7909805e-30   0.0000000e+00
   3.2206578e-18   1.3925904e-25   2.3259769e-29   0.0000000e+00
   3.1551022e-18   1.3585329e-25   0.0000000e+00   0.0000000e+00
   3.0921282e-18   1.3382741e-25   2.8231910e-29   0.0000000e+00
   3.0244949e-18   1.3023095e-25   0.0000000e+00   0.0000000e+00
   2.9507434e-18   1.2727580e-25   1.8620977e-29   1.5915047e-29
   2.8767685e-18   1.2353850e-25   1.7106981e-29   1.7106981e-29
   2.8092730e-18   1.2086216e-25   2.1994486e-29   0.0000000e+00
   2.7482587e-18   1.1797660e-25   2.8823609e-29   1.3697011e-29
   2.6867602e-18   1.1513895e-25   2.5911442e-29   0.0000000e+00
   2.6189854e-18   1.1194520e-25   2.0067915e-29   0.0000000e+00
   2.5467946e-18   1.0889127e-25   1.9030250e-29   2.1552239e-29
   2.4778122e-18   1.0561872e-25   1.8330349e-29   1.8330349e-29
   2.4168021e-18   1.0282378e-25   1.2546825e-29   0.0000000e+00
   2.3600394e-18   1.0035762e-25   1.7711754e-29   0.0000000e+00
   2.2997994e-18   9.7761578e-26   1.8395509e-29   0.0000000e+00
   2.2327695e-18   9.4867290e-26   1.7258239e-29   0.0000000e+00
   2.1644142e-18   9.1976947e-26   2.1249330e-29   2.2178625e-29
   2.1023469e-18   8.9232085e-26   2.0119237e-29   0.0000000e+00
   2.0480291e-18   8.6494445e-26   1.9080437e-29   0.0000000e+00
   1.9947921e-18   8.4625475e-26   0.0000000e+00   0.0000000e+00
   1.9355238e-18   8.1417240e-26   1.4841724e-29   0.0000000e+00
   1.8709148e-18   7.8695438e-26   0.0000000e+00   0.0000000e+00
   1.8086277e-18   7.6524400e-26   2.0977164e-29   0.0000000e+00
   1.7547080e-18   7.3676956e-26   2.5768873e-29   0.0000000e+00
   1.7065031e-18   7.1712722e-26   2.4232792e-29   0.0000000e+00
   1.6557126e-18   6.9293645e-26   2.2594824e-29   0.0000000e+00
   1.5979182e-18   6.6957425e-26   1.9226771e-29   0.0000000e+00
   1.5376594e-18   6.4424862e-26   1.5938879e-29   0.0000000e+00
   1.4834542e-18   6.2340317e-26   0.0000000e+00   0.0000000e+00
   1.4377104e-18   5.9940119e-26   2.4031677e-29   0.0000000e+00
   1.3942845e-18   5.7961733e-26   0.0000000e+00   0.0000000e+00
   1.3451220e-18   5.6061326e-26   0.0000000e+00   0.0000000e+00
   1.2899369e-18   5.3793107e-26   0.0000000e+00   0.0000000e+00
   1.2363785e-18   5.1447463e-26   1.7776261e-29   0.0000000e+00
   1.1913013e-18   4.9518583e-26   2.8934307e-29   0.0000000e+00
   1.1528420e-18   4.7858163e-26   2.0548366e-29   0.0000000e+00
   1.1124598e-18   4.6149289e-26   0.0000000e+00   0.0000000e+00
   1.0649189e-18   4.3951155e-26   1.9179910e-29   0.0000000e+00
   1.0143428e-18   4.2021565e-26   0.0000000e+00   0.0000000e+00
   9.6949384e-19   3.9811367e-26   0.0000000e+00   0.0000000e+00
   9.3355010e-19   3.8540681e-26   0.0000000e+00   0.0000000e+00
   9.0039069e-19   3.6845418e-26   3.0378059e-29   0.0000000e+00
   8.6176018e-19   3.5251089e-26   2.2360273e-29   0.0000000e+00
   8.1677803e-19   3.3479986e-26   1.9114590e-29   0.0000000e+00
   7.7321576e-19   3.1820187e-26   2.0373098e-29   2.0716705e-29
   7.3808506e-19   3.0205390e-26   1.5105059e-29   0.0000000e+00
   7.0970367e-19   2.9035855e-26   0.0000000e+00   0.0000000e+00
   6.7950624e-19   2.7794813e-26   1.9076957e-29   0.0000000e+00
   6.4216962e-19   2.6103161e-26   0.0000000e+00   0.0000000e+00
   6.0197284e-19   2.4717643e-26   2.0002152e-29   1.4984720e-29
   5.6755305e-19   2.3022868e-26   0.0000000e+00   0.0000000e+00
   5.4177371e-19   2.2061964e-26   1.0175409e-29   0.0000000e+00
   5.1834320e-19   2.1042041e-26   0.0000000e+00   0.0000000e+00
   4.8930458e-19   1.9870631e-26   2.1115316e-29   0.0000000e+00
   4.5449434e-19   1.8432529e-26   0.0000000e+00   0.0000000e+00
   4.2163724e-19   1.7197279e-26   1.9635868e-29   0.0000000e+00
   3.9694067e-19   1.6004005e-26   0.0000000e+00   0.0000000e+00
   3.7781330e-19   1.5301565e-26   0.0000000e+00   0.0000000e+00
   3.5620324e-19   1.4268774e-26   0.0000000e+00   0.0000000e+00
   3.2814517e-19   1.3258541e-26   0.0000000e+00   0.0000000e+00
   2.9853404e-19   1.2066659e-26   0.0000000e+00   0.0000000e+00
   2.7454377e-19   1.1009628e-26   0.0000000e+00   0.0000000e+00
   2.5671786e-19   1.0273167e-26   0.0000000e+00   0.0000000e+00
   2.3803068e-19   9.5720327e-27   1.8146310e-29   0.0000000e+00
   2.1150002e-19   8.5132596e-27   1.7075726e-29   0.0000000e+00
   1.7764684e-19   7.0657697e-27   1.6632176e-29   1.9321301e-29
   1.4234101e-19   5.6854222e-27   1.4549351e-29   0.0000000e+00
   1.0934904e-19   4.4454053e-27   1.8431148e-29   2.3502242e-29
   7.8486536e-20   3.2089735e-27   1.3220102e-29   0.0000000e+00
   5.0731591e-20   2.0587281e-27   2.3388886e-29   0.0000000e+00
   3.0690129e-20   1.2214528e-27   0.0000000e+00   0.0000000e+00
   2.1994843e-20   9.3691618e-28   2.1115429e-29   0.0000000e+00
   2.5432720e-20   1.0235190e-27   1.5367251e-29   2.7489812e-29
   4.2775175e-20   1.7636396e-27   1.7005828e-29   0.0000000e+00
   7.3432891e-20   2.9569319e-27   2.3234832e-29   2.3234832e-29
   1.0711210e-19   4.2944057e-27   2.3781102e-29   0.0000000e+00
   1.2900611e-19   5.1701179e-27   2.6043456e-29   0.0000000e+00
   1.3115704e-19   5.1897462e-27   1.7641161e-29   0.0000000e+00
   1.1481209e-19   4.5192210e-27   0.0000000e+00   0.0000000e+00
   8.6594598e-20   3.3989502e-27   0.0000000e+00   0.0000000e+00
   5.5649627e-20   2.2859209e-27   1.4952943e-29   1.4952943e-29
   3.0569974e-20   1.2277938e-27   2.2856839e-29   0.0000000e+00
   1.5003744e-20   6.3247161e-28   1.6132930e-29   0.0000000e+00
   7.0817078e-21   3.2742577e-28   0.0000000e+00   0.0000000e+00
   3.1694652e-21   1.5634930e-28   0.0000000e+00   0.0000000e+00
   9.7029629e-22   6.1093948e-29   0.0000000e+00   0.0000000e+00
   1.8292186e-23   1.1440467e-29   2.0630379e-29   0.0000000e+00
   5.1227193e-22   4.5366179e-29   0.0000000e+00   0.0000000e+00
   2.0944921e-21   1.1538325e-28   2.4395414e-29   1.8659088e-29
   4.2029047e-21   1.9037621e-28   2.0337953e-29   0.0000000e+00
   7.0155284e-21   3.1287767e-28   1.4878843e-29   0.0000000e+00
   1.1290076e-20   4.6957299e-28   2.1215824e-29   0.0000000e+00
   1.7363089e-20   7.0040960e-28   0.0000000e+00   0.0000000e+00
   2.4458745e-20   9.8196511e-28   0.0000000e+00   0.0000000e+00
   3.1533763e-20   1.2370768e-27   2.0278129e-29   2.0278129e-29
   3.8751092e-20   1.5493758e-27   1.8597487e-29   0.0000000e+00
   4.7486682e-20   1.8517138e-27   0.0000000e+00   0.0000000e+00
   5.8702081e-20   2.2988287e-27   1.4836947e-29   0.0000000e+00
   7.1691237e-20   2.8412130e-27   1.9805539e-29   0.0000000e+00
   8.4727622e-20   3.2795504e-27   0.0000000e+00   0.0000000e+00
   9.7140155e-20   3.7718184e-27   0.0000000e+00   0.0000000e+00
   1.1031010e-19   4.2240404e-27   1.3453533e-29   1.3453533e-29
   1.2609923e-19   4.8419198e-27   1.5320034e-29   1.7120753e-29
   1.4467502e-19   5.5175154e-27   1.5261670e-29   0.0000000e+00
   1.6416716e-19   6.3237203e-27   1.5686958e-29   0.0000000e+00
   1.8276379e-19   7.0085266e-27   0.0000000e+00   0.0000000e+00
   2.0095919e-19   7.6283783e-27   2.1511891e-29   0.0000000e+00
   2.2103794e-19   8.4737023e-27   1.8351730e-29   1.8351730e-29
   2.4450134e-19   9.3457590e-27   2.2822549e-29   0.0000000e+00
   2.7021209e-19   1.0288000e-26   2.2041547e-29   0.0000000e+00
   2.9565654e-19   1.1257895e-26   1.8780638e-29   1.4779977e-29
   3.1981955e-19   1.2157033e-26   1.5486836e-29   0.0000000e+00
   3.4447267e-19   1.2902622e-26   1.6768301e-29   0.0000000e+00
   3.7217534e-19   1.3993163e-26   1.9863279e-29   1.6262996e-29
   4.0328234e-19   1.5146490e-26   2.3535167e-29   0.0000000e+00
   4.3550847e-19   1.6274101e-26   0.0000000e+00   0.0000000e+00
   4.6644655e-19   1.7427014e-26   0.0000000e+00   0.0000000e+00
   4.9643216e-19   1.8590394e-26   0.0000000e+00   0.0000000e+00
   5.2817503e-19   1.9897653e-26   2.4466476e-29   0.0000000e+00
   5.6364868e-19   2.1162116e-26   2.0250181e-29   0.0000000e+00
   6.0181901e-19   2.2474702e-26   1.7512200e-29   0.0000000e+00
   6.3970170e-19   2.3923119e-26   2.6078795e-29   0.0000000e+00
   6.7585540e-19   2.5188622e-26   1.5009047e-29   1.8620897e-29
   7.1198161e-19   2.6572116e-26   0.0000000e+00   0.0000000e+00
   7.5105518e-19   2.7858643e-26   1.9641716e-29   0.0000000e+00
   7.9383237e-19   2.9388705e-26   0.0000000e+00   0.0000000e+00
   8.3796787e-19   3.0889821e-26   2.2014623e-29   0.0000000e+00
   8.8066170e-19   3.2638892e-26   0.0000000e+00   0.0000000e+00
   9.2182069e-19   3.4030632e-26   0.0000000e+00   0.0000000e+00
   9.6424236e-19   3.5712285e-26   0.0000000e+00   0.0000000e+00
   1.0102856e-18   3.7292898e-26   0.0000000e+00   0.0000000e+00
   1.0592314e-18   3.8968488e-26   0.0000000e+00   0.0000000e+00
   1.1079964e-18   4.0947705e-26   1.1867133e-29   0.0000000e+00
   1.1546479e-18   4.2478174e-26   1.8759431e-29   0.0000000e+00
   1.2006334e-18   4.4202561e-26   0.0000000e+00   0.0000000e+00
   1.2490063e-18   4.5774642e-26   1.8140616e-29   0.0000000e+00
   1.3009970e-18   4.7509701e-26   2.0205413e-29   0.0000000e+00
   1.3544610e-18   4.9641544e-26   1.5886355e-29   0.0000000e+00
   1.4063936e-18   5.1353287e-26   0.0000000e+00   0.0000000e+00
   1.4562581e-18   5.2977101e-26   1.8699513e-29   0.0000000e+00
   1.5065894e-18   5.4848849e-26   0.0000000e+00   0.0000000e+00
   1.5600347e-18   5.6659629e-26   2.0400051e-29   0.0000000e+00
   1.6162376e-18   5.8730304e-26   2.0243630e-29   0.0000000e+00
   1.6723172e-18   6.0747970e-26   0.0000000e+00   0.0000000e+00
   1.7260009e-18   6.2234370e-26   1.4372614e-29   1.4372614e-29
   1.7782873e-18   6.4252410e-26   1.9484144e-29   2.1650779e-29
   1.8321267e-18   6.6169242e-26   1.4505696e-29   0.0000000e+00
   1.8890360e-18   6.8282072e-26   1.0229164e-29   1.5041012e-29
   1.9473449e-18   7.0166966e-26   0.0000000e+00   0.0000000e+00
   2.0040324e-18   7.2185110e-26   0.0000000e+00   0.0000000e+00
   2.0582227e-18   7.4046291e-26   1.9971592e-29   0.0000000e+00
   2.1119755e-18   7.5481875e-26   0.0000000e+00   0.0000000e+00
   2.1679508e-18   7.7839610e-26   1.3839550e-29   0.0000000e+00
   2.2262367e-18   7.9717670e-26   0.0000000e+00   0.0000000e+00
   2.2842986e-18   8.1566533e-26   1.6941312e-29   0.0000000e+00
   2.3398536e-18   8.3818015e-26   2.5151730e-29   0.0000000e+00
   2.3933254e-18   8.5587354e-26   1.6805040e-29   1.6998552e-29
   2.4473612e-18   8.7114351e-26   1.1820419e-29   0.0000000e+00
   2.5035806e-18   8.8962509e-26   0.0000000e+00   0.0000000e+00
   2.5608621e-18   9.0955846e-26   0.0000000e+00   0.0000000e+00
   2.6165173e-18   9.2981022e-26   0.0000000e+00   0.0000000e+00
   2.6693862e-18   9.4946441e-26   0.0000000e+00   0.0000000e+00
   2.7210087e-18   9.6357612e-26   0.0000000e+00   0.0000000e+00
   2.7737223e-18   9.7887611e-26   0.0000000e+00   0.0000000e+00
   2.8280263e-18   9.9674665e-26   1.3833227e-29   0.0000000e+00
   2.8819342e-18   1.0162155e-25   1.7104391e-29   1.9709461e-29
   2.9333549e-18   1.0326278e-25   1.6920918e-29   0.0000000e+00
   2.9822949e-18   1.0510362e-25   0.0000000e+00   0.0000000e+00
   3.0307482e-18   1.0628184e-25   2.8481162e-29   0.0000000e+00
   3.0803388e-18   1.0824461e-25   0.0000000e+00   0.0000000e+00
   3.1304246e-18   1.0961710e-25   2.5560825e-29   0.0000000e+00
   3.1789890e-18   1.1110282e-25   1.6214323e-29   0.0000000e+00
   3.2247467e-18   1.1258587e-25   0.0000000e+00   0.0000000e+00
   3.2686435e-18   1.1436578e-25   1.7997684e-29   0.0000000e+00
   3.3124870e-18   1.1592186e-25   1.6664857e-29   0.0000000e+00
   3.3569631e-18   1.1692007e-25   1.5688988e-29   0.0000000e+00
   3.4008883e-18   1.1797411e-25   2.1805994e-29   1.7803788e-29
   3.4425496e-18   1.1989058e-25   1.3471739e-29   0.0000000e+00
   3.4816429e-18   1.2065993e-25   1.6987632e-29   0.0000000e+00
   3.5193541e-18   1.2206913e-25   1.5011664e-29   0.0000000e+00
   3.5570496e-18   1.2328655e-25   1.9385377e-29   0.0000000e+00
   3.5946514e-18   1.2450909e-25   1.2675752e-29   0.0000000e+00
   3.6308810e-18   1.2519590e-25   1.4835567e-29   0.0000000e+00
   3.6646652e-18   1.2647891e-25   9.2999359e-30   0.0000000e+00
   3.6961840e-18   1.2747253e-25   1.5932911e-29   0.0000000e+00
   3.7266297e-18   1.2826794e-25   0.0000000e+00   0.0000000e+00
   3.7567148e-18   1.2911907e-25   0.0000000e+00   0.0000000e+00
   3.7861050e-18   1.2992157e-25   1.8434857e-29   0.0000000e+00
   3.8137001e-18   1.3082053e-25   1.7294487e-29   0.0000000e+00
   3.8389055e-18   1.3162251e-25   0.0000000e+00   0.0000000e+00
   3.8621204e-18   1.3188691e-25   0.0000000e+00   0.0000000e+00
   3.8842128e-18   1.3279097e-25   1.4733045e-29   1.4733045e-29
   3.9056600e-18   1.3361224e-25   1.3985885e-29   0.0000000e+00
   3.9259984e-18   1.3350574e-25   1.9501531e-29   0.0000000e+00
   3.9444639e-18   1.3426628e-25   2.1217100e-29   0.0000000e+00
   3.9606178e-18   1.3452769e-25   0.0000000e+00   0.0000000e+00
   3.9748370e-18   1.3559095e-25   2.1571580e-29   0.0000000e+00
   3.9878576e-18   1.3503817e-25   0.0000000e+00   0.0000000e+00
   4.0000348e-18   1.3559860e-25   2.0377974e-29   2.0377974e-29
   4.0110583e-18   1.3565729e-25   1.7662739e-29   1.7662739e-29
   4.0201288e-18   1.3584747e-25   1.6955886e-29   0.0000000e+00
   4.0268933e-18   1.3600384e-25   0.0000000e+00   0.0000000e+00
   4.0316745e-18   1.3600703e-25   0.0000000e+00   0.0000000e+00
   4.0352783e-18   1.3594701e-25   1.8015743e-29   0.0000000e+00
   4.0381417e-18   1.3565130e-25   1.9091945e-29   0.0000000e+00
   4.0398234e-18   1.3560180e-25   1.5340303e-29   0.0000000e+00
   4.0394733e-18   1.3544348e-25   1.8433391e-29   0.0000000e+00
   4.0366383e-18   1.3534342e-25   0.0000000e+00   0.0000000e+00
   4.0319025e-18   1.3498226e-25   1.8925647e-29   0.0000000e+00
   4.0262472e-18   1.3457442e-25   1.6047171e-29   1.5280918e-29
   4.0200680e-18   1.3422530e-25   0.0000000e+00   0.0000000e+00
   4.0126545e-18   1.3365957e-25   0.0000000e+00   0.0000000e+00
   4.0029006e-18   1.3356236e-25   1.1096428e-29   2.0339856e-29
   3.9905865e-18   1.3289226e-25   1.5649564e-29   0.0000000e+00
   3.9766482e-18   1.3203079e-25   0.0000000e+00   0.0000000e+00
   3.9623074e-18   1.3182806e-25   2.4469782e-29   1.4685229e-29
   3.9476050e-18   1.3087056e-25   2.4017187e-29   0.0000000e+00
   3.9313759e-18   1.3006690e-25   0.0000000e+00   0.0000000e+00
   3.9124663e-18   1.2932131e-25   0.0000000e+00   0.0000000e+00
   3.8910931e-18   1.2841522e-25   1.6583922e-29   0.0000000e+00
   3.8687501e-18   1.2753492e-25   2.2263023e-29   0.0000000e+00
   3.8465203e-18   1.2667703e-25   1.8715527e-29   1.8715527e-29
   3.8238931e-18   1.2555476e-25   1.3549049e-29   0.0000000e+00
   3.7992171e-18   1.2475416e-25   0.0000000e+00   0.0000000e+00
   3.7716146e-18   1.2367213e-25   0.0000000e+00   0.0000000e+00
   3.7420633e-18   1.2251566e-25   9.2002775e-30   0.0000000e+00
   3.7123783e-18   1.2144904e-25   0.0000000e+00   0.0000000e+00
   3.6832137e-18   1.2031792e-25   0.0000000e+00   0.0000000e+00
   3.6532120e-18   1.1945452e-25   1.5034368e-29   0.0000000e+00
   3.6205764e-18   1.1806031e-25   1.1354185e-29   0.0000000e+00
   3.5851177e-18   1.1677467e-25   1.9127050e-29   0.0000000e+00
   3.5486235e-18   1.1559472e-25   0.0000000e+00   0.0000000e+00
   3.5128818e-18   1.1408156e-25   0.0000000e+00   0.0000000e+00
   3.4776241e-18   1.1315429e-25   1.3352105e-29   2.0975395e-29
   3.4408134e-18   1.1160653e-25   0.0000000e+00   0.0000000e+00
   3.4009281e-18   1.1017681e-25   1.6658062e-29   0.0000000e+00
   3.3588611e-18   1.0837785e-25   1.5602053e-29   0.0000000e+00
   3.3169480e-18   1.0718861e-25   1.5927733e-29   0.0000000e+00
   3.2763744e-18   1.0582954e-25   2.2704923e-29   0.0000000e+00
   3.2357657e-18   1.0429906e-25   0.0000000e+00   0.0000000e+00
   3.1927468e-18   1.0328200e-25   1.6906106e-29   1.7418711e-29
   3.1467237e-18   1.0122204e-25   0.0000000e+00   0.0000000e+00
   3.0996634e-18   9.9984659e-26   0.0000000e+00   0.0000000e+00
   3.0539314e-18   9.7919728e-26   0.0000000e+00   0.0000000e+00
   3.0095693e-18   9.6749783e-26   1.5065007e-29   0.0000000e+00
   2.9642209e-18   9.4473722e-26   1.6120083e-29   1.6120083e-29
   2.9158689e-18   9.3203739e-26   1.8179090e-29   0.0000000e+00
   2.8652173e-18   9.1546471e-26   1.2774456e-29   0.0000000e+00
   2.8150225e-18   8.9615675e-26   0.0000000e+00   0.0000000e+00
   2.7669174e-18   8.8040236e-26   1.7407855e-29   0.0000000e+00
   2.7195564e-18   8.6395231e-26   1.5791455e-29   0.0000000e+00
   2.6701369e-18   8.4946449e-26   0.0000000e+00   0.0000000e+00
   2.6176993e-18   8.2924463e-26   1.5575702e-29   0.0000000e+00
   2.5643392e-18   8.1212341e-26   0.0000000e+00   0.0000000e+00
   2.5128350e-18   7.9543195e-26   1.6824583e-29   0.0000000e+00
   2.4634867e-18   7.8138749e-26   0.0000000e+00   0.0000000e+00
   2.4137177e-18   7.6097585e-26   1.6245350e-29   2.3440867e-29
   2.3611374e-18   7.4540064e-26   1.7134422e-29   0.0000000e+00
   2.3063500e-18   7.2838554e-26   0.0000000e+00   0.0000000e+00
   2.2523518e-18   7.0818373e-26   0.0000000e+00   0.0000000e+00
   2.2010944e-18   6.9206438e-26   0.0000000e+00   0.0000000e+00
   2.1512145e-18   6.7669679e-26   1.2473997e-29   0.0000000e+00
   2.0996674e-18   6.6058293e-26   1.4155360e-29   0.0000000e+00
   2.0452820e-18   6.3849358e-26   1.6496594e-29   1.4763331e-29
   1.9902443e-18   6.2276286e-26   0.0000000e+00   0.0000000e+00
   1.9375512e-18   6.0562769e-26   1.6126104e-29   0.0000000e+00
   1.8875723e-18   5.9230337e-26   1.4287980e-29   0.0000000e+00
   1.8376440e-18   5.7351560e-26   1.0656006e-29   0.0000000e+00
   1.7852119e-18   5.5643454e-26   1.7602937e-29   0.0000000e+00
   1.7308946e-18   5.3971964e-26   1.5903912e-29   0.0000000e+00
   1.6777738e-18   5.2106500e-26   0.0000000e+00   0.0000000e+00
   1.6278361e-18   5.0354176e-26   7.5000497e-30   0.0000000e+00
   1.5796744e-18   4.8861134e-26   1.5884442e-29   0.0000000e+00
   1.5301960e-18   4.7177188e-26   0.0000000e+00   0.0000000e+00
   1.4783122e-18   4.5589645e-26   0.0000000e+00   0.0000000e+00
   1.4262218e-18   4.4187970e-26   1.1782574e-29   0.0000000e+00
   1.3768542e-18   4.2223681e-26   1.5597960e-29   0.0000000e+00
   1.3304452e-18   4.0974106e-26   0.0000000e+00   0.0000000e+00
   1.2843571e-18   3.9570652e-26   1.4314351e-29   0.0000000e+00
   1.2362293e-18   3.8133647e-26   1.2657748e-29   0.0000000e+00
   1.1867940e-18   3.6457835e-26   0.0000000e+00   0.0000000e+00
   1.1389904e-18   3.4980123e-26   0.0000000e+00   0.0000000e+00
   1.0944841e-18   3.3388026e-26   0.0000000e+00   0.0000000e+00
   1.0518225e-18   3.2244412e-26   0.0000000e+00   0.0000000e+00
   1.0082110e-18   3.1000324e-26   0.0000000e+00   0.0000000e+00
   9.6288017e-19   2.9445737e-26   1.5859798e-29   0.0000000e+00
   9.1794220e-19   2.7922128e-26   0.0000000e+00   0.0000000e+00
   8.7584417e-19   2.6765451e-26   0.0000000e+00   0.0000000e+00
   8.3654990e-19   2.5479406e-26   1.8810200e-29   0.0000000e+00
   7.9769032e-19   2.4375865e-26   0.0000000e+00   0.0000000e+00
   7.5746518e-19   2.2898448e-26   1.6567418e-29   0.0000000e+00
   7.1672616e-19   2.1745545e-26   1.7688227e-29   1.7688227e-29
   6.7788773e-19   2.0533460e-26   1.8320845e-29   0.0000000e+00
   6.4206280e-19   1.9473599e-26   1.3131697e-29   0.0000000e+00
   6.0787294e-19   1.8436038e-26   0.0000000e+00   0.0000000e+00
