\relax 
\@writefile{toc}{\contentsline {chapter}{\numberline {1}Maxwell-Kohn-Sham coupling with multipole expansion}{1}}
\@writefile{lof}{\addvspace {10\p@ }}
\@writefile{lot}{\addvspace {10\p@ }}
\@writefile{toc}{\contentsline {section}{\numberline {1.1}Quantum electrodynamics Hamiltonian in Fock space}{1}}
\@writefile{toc}{\contentsline {section}{\numberline {1.2}Quantum electrodynamics Hamiltonian in 1st quantization}{2}}
\@writefile{toc}{\contentsline {section}{\numberline {1.3}Quantum electrodynamics Hamiltonian of Maxwell-Kohn-Sham systems}{2}}
\@writefile{toc}{\contentsline {section}{\numberline {1.4}Maxwells' equations in Coulomb gauge}{2}}
\newlabel{eq_MKS_Maxwells_equation_vacuum_Gauss_E}{{1.4.1}{2}}
\newlabel{eq_MKS_Maxwells_equation_vacuum_Gauss_B}{{1.4.2}{2}}
\newlabel{eq_MKS_Maxwells_equation_vacuum_Faraday}{{1.4.3}{2}}
\newlabel{eq_MKS_Maxwells_equation_vacuum_Ampere}{{1.4.4}{2}}
\newlabel{eq_MKS_magnetic_field_with_A}{{1.4.5}{3}}
\newlabel{eq_MKS_curl_E_+_curl_part_t_A}{{1.4.6}{3}}
\newlabel{eq_MKS_electric_field_with_A_and_Phi}{{1.4.7}{3}}
\newlabel{eq_MKS_rot_div_id}{{1.4.8}{3}}
\newlabel{eq_MKS_Phi_gauge}{{1.4.11}{3}}
\newlabel{eq_MKS_vec_A_gauge}{{1.4.12}{3}}
\@writefile{toc}{\contentsline {subsection}{\numberline {1.4.1}Four-vector formulation}{3}}
\@writefile{toc}{\contentsline {section}{\numberline {1.5}Longitudinal interaction}{4}}
\@writefile{toc}{\contentsline {section}{\numberline {1.6}Coupled Maxwell-Schr\"odinger Lagrangian in Coulomb gauge}{5}}
\newlabel{eq_MKS_L_0}{{1.6.1}{5}}
\newlabel{eq_MKS_variational_condition_L0}{{1.6.3}{5}}
\newlabel{eq_MKS_tot_time_der_f}{{1.6.4}{5}}
\newlabel{eq_MKS_L_EM}{{1.6.5}{6}}
\@writefile{toc}{\contentsline {section}{\numberline {1.7}Interaction of the quantized field with atoms}{7}}
\@writefile{toc}{\contentsline {subsection}{\numberline {1.7.1}Atomic multipole moments}{7}}
\@writefile{toc}{\contentsline {section}{\numberline {1.8}transverse interaction Hamiltonian}{7}}
\@writefile{toc}{\contentsline {section}{\numberline {1.9}The Hamiltonian of the coupled electromagnetic fields with matter particles}{7}}
\@writefile{toc}{\contentsline {subsection}{\numberline {1.9.1}The particle Hamiltonian without any interaction}{8}}
\@writefile{toc}{\contentsline {subsection}{\numberline {1.9.2}The Hamiltonian of the electromagnetic field}{8}}
\@writefile{toc}{\contentsline {subsection}{\numberline {1.9.3}The interaction Hamiltonian of elcetromagnetic fields with particels }{8}}
\@writefile{toc}{\contentsline {section}{\numberline {1.10}Calculation of the transverse electric field}{9}}
\@writefile{toc}{\contentsline {subsection}{\numberline {1.10.1}Reference calculation}{10}}
\@writefile{toc}{\contentsline {section}{\numberline {1.11}Diamagnetic current calculation}{11}}
