# -*- coding: utf-8 mode: shell-script -*-
# $Id: 04-oep.01-jellium-lsda.inp 13307 2015-03-09 06:55:02Z xavier $
#
# This input files reproduces results from:
# [M. Payami and T. Mahmoodi, J. Phys.: Condens. Matter 18, 75 (2006)].
# All numbers from Table I may be obtained by properly choosing
# r_s and N_electrons.
#
# However, they are not reproduced exactly, probably due to differences
# in the numerical representation. This is a bit of a problem, since the
# differences between KLI and full EXX are smaller than this (hopefully
# only) numerical error.
#
# Figure 4 can also be obtained, although for some reason only if 
# the density is divided by 2. I think that in the paper they slipped
# some factor of 2.


# First, we reproduce the LSDA results for Li, 8 electrons.

CalculationMode = gs

FromScratch = yes

r_s = 3.28
N_electrons = 8
jradius = r_s * (N_electrons)^(1.0/3.0)

%Species
"jellium" | species_jellium | jellium_radius | jradius | valence | N_electrons
%

%Coordinates
"jellium" | 0 | 0 | 0
%

BoxShape = sphere
Radius  = 13.0
Spacing = 0.35

XCFunctional = lda_x + lda_c_pw

LCAOStart = lcao_states
EigensolverMaxIter = 300
ConvRelDens = 1e-6

Preconditioner = no

MixField = potential

ParallelizationStrategy=par_domains
