\relax 
\bibdata{project-nameNotes,project-name}
\bibstyle{apsrev4-1}
\citation{REVTEX41Control}
\citation{apsrev41Control}
\newlabel{FirstPage}{{}{1}{}{}{}}
\@writefile{toc}{\contentsline {title}{Paper title}{1}{}}
\@writefile{toc}{\contentsline {abstract}{Abstract}{1}{}}
\@writefile{toc}{\contentsline {section}{\numberline {I}Introduction}{1}{}}
\newlabel{sec:Intro}{{I}{1}{}{}{}}
\@writefile{toc}{\contentsline {section}{\numberline {II}Section}{1}{}}
\@writefile{toc}{\contentsline {section}{\numberline {}References}{1}{}}
\newlabel{LastBibItem}{{0}{1}{}{}{}}
\newlabel{LastPage}{{}{1}{}{}{}}
