\relax 
\@writefile{toc}{\contentsline {chapter}{\numberline {1}Riemann-Silberstein formalism of Maxwell's equations}{1}}
\@writefile{lof}{\addvspace {10\p@ }}
\@writefile{lot}{\addvspace {10\p@ }}
\@writefile{toc}{\contentsline {section}{\numberline {1.1}Maxwell-Lorentz electrodynamics in space-time}{1}}
\@writefile{toc}{\contentsline {subsection}{\numberline {1.1.1}Maxwell-Lorentz Equations}{1}}
\@writefile{toc}{\contentsline {subsection}{\numberline {1.1.2}Vector and scalar potentials: Gauge invariance}{1}}
\@writefile{toc}{\contentsline {subsection}{\numberline {1.1.3}Point particles}{2}}
\@writefile{toc}{\contentsline {section}{\numberline {1.2}Relativistic Hamiltonian for spinless particles in an electromagnetic field}{2}}
\@writefile{toc}{\contentsline {section}{\numberline {1.3}Dirac equation for spin-1/2 particle in an electromagnetic field}{2}}
\@writefile{toc}{\contentsline {section}{\numberline {1.4}Electromagnetic field Hamiltonian coupled to external charge and current densities}{2}}
\@writefile{toc}{\contentsline {section}{\numberline {1.5}Riemann-Silberstein Maxwell's equation via Dirac decomposition}{4}}
\@writefile{toc}{\contentsline {section}{\numberline {1.6}Spin matrices transformation}{5}}
\@writefile{toc}{\contentsline {section}{\numberline {1.7}Riemann-Silberstein formalism of Maxwell's equations in vacuum}{6}}
\newlabel{eq_RSf_Maxwells_equation_vacuum_Gauss_E}{{1.7.1}{6}}
\newlabel{eq_RSf_Maxwells_equation_vacuum_Gauss_B}{{1.7.2}{6}}
\newlabel{eq_RSf_Maxwells_equation_vacuum_Faraday}{{1.7.3}{6}}
\newlabel{eq_RSf_Maxwells_equation_vacuum_Ampere}{{1.7.4}{6}}
\newlabel{eq_RSf_Riemann-Silberstein_vector_vacuum}{{1.7.5}{7}}
\newlabel{eq_RSf_RS_energy_density_vacuum}{{1.7.6}{7}}
\newlabel{eq_RSf_RS_E_back_transformation_vacuum}{{1.7.7}{7}}
\newlabel{eq_RSf_RS_B_back_transformation_vacuum}{{1.7.8}{7}}
\newlabel{eq_RSf_Maxwells_equation_vacuum_Ampere}{{1.7}{7}}
\newlabel{eq_RSf_Gauss_vacuum_Riemann-Silberstein}{{1.7.9}{7}}
\newlabel{eq_RSf_Faraday_Ampere_vacuum_Riemann-Silberstein}{{1.7.10}{7}}
\newlabel{eq_RSf_curl_identity_Spin-1_matrices}{{1.7.11}{7}}
\newlabel{eq_RSf_Spin-1_matrices_vector}{{1.7}{7}}
\newlabel{eq_RSf_Spin-1_xyz_matrices}{{1.7}{7}}
\@writefile{toc}{\contentsline {section}{\numberline {1.8}Riemann-Silberstein formalism of Maxwell's equations in linear medium}{9}}
\newlabel{eq_RSf_Maxwells_equation_medium_Gauss_D}{{1.8.1}{9}}
\newlabel{eq_RSf_Maxwells_equation_medium_Gauss_B}{{1.8.2}{9}}
\newlabel{eq_RSf_Maxwells_equation_medium_Faraday}{{1.8.3}{9}}
\newlabel{eq_RSf_Maxwells_equation_medium_Ampere}{{1.8.4}{9}}
\newlabel{eq_RSf_linear_medium_D}{{1.8.5}{9}}
\newlabel{eq_RSf_linear_medium_B}{{1.8.6}{9}}
\@writefile{toc}{\contentsline {section}{\numberline {1.9}Riemann-Silberstein formalism with lossy layer in linear medium}{16}}
\@writefile{toc}{\contentsline {section}{\numberline {1.10}Riemann Silberstein vector formalism in terms of $ \mathaccentV {vec}17E{H} $ with lossy layer in linear medium }{18}}
\@writefile{toc}{\contentsline {section}{\numberline {1.11}Perfectly matched layer in Riemann-Silberstein representation}{19}}
\@writefile{toc}{\contentsline {subsection}{\numberline {1.11.1}PML via Berenger}{21}}
\@writefile{toc}{\contentsline {subsection}{\numberline {1.11.2}Alternative PML for RS Propagation}{26}}
\@writefile{toc}{\contentsline {section}{\numberline {1.12}Riemann-Silberstein formalism for a lossy layer in linear medium}{41}}
\@writefile{toc}{\contentsline {subsection}{\numberline {1.12.1}uniaxial perfectly matched layer}{45}}
\@writefile{toc}{\contentsline {section}{\numberline {1.13}Photon and antiphoton relation}{49}}
\@writefile{toc}{\contentsline {section}{\numberline {1.14}Maxwell Riemann-Silberstein equations combined in a 4$\times $4 matrix representation}{51}}
