\relax 
\providecommand\hyper@newdestlabel[2]{}
\@writefile{toc}{\contentsline {chapter}{\numberline {6}Small molecular Maxwell-Kohn-Sham systems}{147}{chapter.6}}
\@writefile{lof}{\addvspace {10\p@ }}
\@writefile{lot}{\addvspace {10\p@ }}
\@writefile{toc}{\contentsline {section}{\numberline {6.1}Na$_2$ molecule}{147}{section.6.1}}
\@writefile{toc}{\contentsline {section}{\numberline {6.2}Azulene molecule}{147}{section.6.2}}
\@writefile{toc}{\contentsline {section}{\numberline {6.3}Coreonene molecule}{147}{section.6.3}}
\@writefile{lof}{\contentsline {figure}{\numberline {6.1}{\ignorespaces test}}{148}{figure.6.1}}
\@writefile{lof}{\contentsline {figure}{\numberline {6.2}{\ignorespaces test}}{149}{figure.6.2}}
\@setckpt{./small_molecular_Maxwell_Pauli_Kohn_Sham_systems/small_molecular_Maxwell_Pauli_Kohn_Sham_systems}{
\setcounter{page}{150}
\setcounter{equation}{3}
\setcounter{enumi}{0}
\setcounter{enumii}{0}
\setcounter{enumiii}{0}
\setcounter{enumiv}{0}
\setcounter{footnote}{0}
\setcounter{mpfootnote}{0}
\setcounter{part}{0}
\setcounter{chapter}{6}
\setcounter{section}{3}
\setcounter{subsection}{0}
\setcounter{subsubsection}{0}
\setcounter{paragraph}{0}
\setcounter{subparagraph}{0}
\setcounter{figure}{2}
\setcounter{table}{0}
\setcounter{parentequation}{0}
\setcounter{r@tfl@t}{0}
\setcounter{subfigure}{0}
\setcounter{lofdepth}{1}
\setcounter{subtable}{0}
\setcounter{lotdepth}{1}
\setcounter{su@anzahl}{0}
\setcounter{LT@tables}{0}
\setcounter{LT@chunks}{0}
\setcounter{@pps}{0}
\setcounter{@ppsavesec}{0}
\setcounter{@ppsaveapp}{0}
\setcounter{float@type}{4}
\setcounter{Item}{0}
\setcounter{Hfootnote}{2}
\setcounter{bookmark@seq@number}{0}
\setcounter{lips@count}{0}
\setcounter{section@level}{1}
}
