\relax 
\providecommand\hyper@newdestlabel[2]{}
\citation{jackson1998classical}
\citation{greiner1998}
\citation{jackson1998classical}
\citation{greiner1998}
\citation{jackson1998classical}
\citation{greiner1998}
\@writefile{toc}{\contentsline {chapter}{\numberline {A}Non-relativistic Pauli Hamiltonian in Coulomb gauge}{191}{Appendix.a.A}}
\@writefile{lof}{\addvspace {10\p@ }}
\@writefile{lot}{\addvspace {10\p@ }}
\newlabel{chap_appendix_hamiltonian_for_quantum_electrodynamics}{{A}{191}{Non-relativistic Pauli Hamiltonian in Coulomb gauge}{Appendix.a.A}{}}
\@writefile{toc}{\contentsline {section}{\numberline {A.1}Vector potential and Coulomb gauge}{191}{section.a.A.1}}
\newlabel{sec_appendix_vector_potential_Coulomb_gauge}{{A.1}{191}{Vector potential and Coulomb gauge}{section.a.A.1}{}}
\newlabel{eq_four_vector_current_density_appendix}{{A.1.3}{191}{Vector potential and Coulomb gauge}{equation.a.A.1.3}{}}
\citation{jackson1998classical}
\citation{greiner1998}
\citation{jackson1998classical}
\citation{greiner1998}
\citation{jackson1998classical}
\citation{jackson1998classical}
\citation{greiner1998}
\citation{greiner1996}
\newlabel{eq_inhom_Maxwells_equations_electromagnetic_tensor_appendix}{{A.1.4}{192}{Vector potential and Coulomb gauge}{equation.a.A.1.4}{}}
\newlabel{eq_Maxwell_electromagnetic_tensor_appendix}{{A.1.5}{192}{Vector potential and Coulomb gauge}{equation.a.A.1.5}{}}
\newlabel{eq_inhomogeneous_maxwells_equations_via_vector_potential_appendix}{{A.1.6}{192}{Vector potential and Coulomb gauge}{equation.a.A.1.6}{}}
\newlabel{eq_homogeneous_maxwells_equations_via_vector_potential_appendix}{{A.1.8}{192}{Vector potential and Coulomb gauge}{equation.a.A.1.8}{}}
\newlabel{eq_electric_field_via_vector_potential_appendix}{{A.1.9}{192}{Vector potential and Coulomb gauge}{equation.a.A.1.9}{}}
\newlabel{eq_magnetic_field_via_vector_potential_appendix}{{A.1.10}{192}{Vector potential and Coulomb gauge}{equation.a.A.1.10}{}}
\newlabel{eq_electric_field_via_vector_potential_appendix_appendix_homogeneous_appendix}{{A.1.13}{192}{Vector potential and Coulomb gauge}{equation.a.A.1.13}{}}
\citation{greiner1996}
\newlabel{eq_Coulomb_condition}{{A.1.14}{193}{Vector potential and Coulomb gauge}{equation.a.A.1.14}{}}
\newlabel{eq_long_electric_field_via_A_in_Coulomb}{{A.1.15}{193}{Vector potential and Coulomb gauge}{equation.a.A.1.15}{}}
\newlabel{eq_trans_electric_field_via_A_in_Coulomb}{{A.1.16}{193}{Vector potential and Coulomb gauge}{equation.a.A.1.16}{}}
\newlabel{eq_inhomogeneous_maxwells_equations_via_vector_potential_Coulomb_appendix}{{A.1.17}{193}{Vector potential and Coulomb gauge}{equation.a.A.1.17}{}}
\newlabel{eq_inhomogeneous_maxwells_equations_via_vector_potential_Coulomb_0_component_appendix}{{A.1.18}{193}{Vector potential and Coulomb gauge}{equation.a.A.1.18}{}}
\newlabel{eq_greens_function_appendix}{{A.1.20}{193}{Vector potential and Coulomb gauge}{equation.a.A.1.20}{}}
\newlabel{eq_vector_potential_component_0_appendix}{{A.1.21}{193}{Vector potential and Coulomb gauge}{equation.a.A.1.21}{}}
\newlabel{eq_continuity_equation_appendix}{{A.1.22}{193}{Vector potential and Coulomb gauge}{equation.a.A.1.22}{}}
\citation{jackson1998classical}
\citation{greiner1998}
\citation{jackson1998classical}
\citation{thaller2013}
\citation{spohn2004}
\citation{Komech:1493301}
\newlabel{eq_current_density_decomposition_appendix}{{A.1.24}{194}{Vector potential and Coulomb gauge}{equation.a.A.1.24}{}}
\newlabel{eq_Maxwell_equations_with_A_Coulomb_appendix}{{A.1.26}{194}{Vector potential and Coulomb gauge}{equation.a.A.1.26}{}}
\@writefile{toc}{\contentsline {section}{\numberline {A.2}Pauli-equation as non-relativistic limit of coupled light-matter systems}{194}{section.a.A.2}}
\newlabel{sec_appendix_Pauli_equation}{{A.2}{194}{Pauli-equation as non-relativistic limit of coupled light-matter systems}{section.a.A.2}{}}
\citation{spohn2004}
\citation{miyao2009}
\citation{konenberg2011}
\citation{hiroshima2014}
\citation{greiner1996}
\citation{thirring2013}
\citation{greiner1996}
\newlabel{eq_minimal_coupling_momentum}{{A.2.1}{195}{Pauli-equation as non-relativistic limit of coupled light-matter systems}{equation.a.A.2.1}{}}
\newlabel{eq_Pauli_equation_appendix}{{A.2.2}{195}{Pauli-equation as non-relativistic limit of coupled light-matter systems}{equation.a.A.2.2}{}}
\@writefile{toc}{\contentsline {section}{\numberline {A.3}Free matter Hamiltonians}{195}{section.a.A.3}}
\newlabel{sec_appendix_free_matter_hamiltonian}{{A.3}{195}{Free matter Hamiltonians}{section.a.A.3}{}}
\newlabel{eq_QED_anticommutator_appendix}{{A.3.1}{196}{Free matter Hamiltonians}{equation.a.A.3.1}{}}
\newlabel{eq_Pauli_Hamiltonian_N_appendix}{{A.3.2}{196}{Free matter Hamiltonians}{equation.a.A.3.2}{}}
\newlabel{eq_mat_kin_ext_appendix}{{A.3.4}{196}{Free matter Hamiltonians}{equation.a.A.3.4}{}}
\citation{greiner1996}
\citation{Keller}
\citation{greiner1996}
\citation{greiner1996}
\newlabel{eq_field_operators_appendix}{{A.3.7}{197}{Free matter Hamiltonians}{equation.a.A.3.7}{}}
\@writefile{toc}{\contentsline {section}{\numberline {A.4}Photon Hamiltonian}{197}{section.a.A.4}}
\newlabel{sec_appendix_photon_hamiltonian}{{A.4}{197}{Photon Hamiltonian}{section.a.A.4}{}}
\newlabel{eq_electromagnetic_field_commutation}{{A.4.1}{197}{Photon Hamiltonian}{equation.a.A.4.1}{}}
\citation{greiner1996}
\citation{greiner1996}
\citation{greiner1996}
\citation{greiner1996}
\citation{greiner1996}
\newlabel{ep_vector_potential_operator_appendix}{{A.4.3}{198}{Photon Hamiltonian}{equation.a.A.4.3}{}}
\newlabel{eq_E_field_operator_appendix}{{A.4.4}{198}{Photon Hamiltonian}{equation.a.A.4.4}{}}
\newlabel{eq_B_field_operator_appendix}{{A.4.5}{198}{Photon Hamiltonian}{equation.a.A.4.5}{}}
\newlabel{eq_photon_hamiltonian_appendix}{{A.4.6}{198}{Photon Hamiltonian}{equation.a.A.4.6}{}}
\newlabel{eq_vector_potential_component_0_operator_appendix}{{A.4.7}{198}{Photon Hamiltonian}{equation.a.A.4.7}{}}
\citation{jackson1998classical}
\citation{greiner1996}
\newlabel{eq_photon_hamiltonian_2_appendix}{{A.4.9}{199}{Photon Hamiltonian}{equation.a.A.4.9}{}}
\newlabel{eq_H_ph_free_appendix}{{A.4.10}{199}{Photon Hamiltonian}{equation.a.A.4.10}{}}
\newlabel{eq_photon_hamiltonian_3_appendix}{{A.4.11}{199}{Photon Hamiltonian}{equation.a.A.4.11}{}}
\citation{greiner1996}
\citation{jackson1998classical}
\newlabel{eq_photon_hamiltonian_2_appendix}{{A.4.12}{200}{Photon Hamiltonian}{equation.a.A.4.12}{}}
\newlabel{eq_photon_long_int_hamiltonian_appendix}{{A.4.13}{200}{Photon Hamiltonian}{equation.a.A.4.13}{}}
\newlabel{eq_H_int_ext_trans_appendix}{{A.4.14}{200}{Photon Hamiltonian}{equation.a.A.4.14}{}}
\newlabel{eq_H_int_ext_long_appendix}{{A.4.15}{200}{Photon Hamiltonian}{equation.a.A.4.15}{}}
\newlabel{eq_Maxwell_vector_inhomogeneous_appendix}{{A.4.16}{200}{Photon Hamiltonian}{equation.a.A.4.16}{}}
\citation{Keller}
\newlabel{eq_zero_j_ext}{{A.4.17}{201}{Photon Hamiltonian}{equation.a.A.4.17}{}}
\newlabel{eq_Maxwell_vector_inhomogeneous_2_appendix}{{A.4.18}{201}{Photon Hamiltonian}{equation.a.A.4.18}{}}
\newlabel{eq_RS_QED_operator_pm_appendix}{{A.4.19}{201}{Photon Hamiltonian}{equation.a.A.4.19}{}}
\newlabel{eq_H_ph_free_RS_appendix}{{A.4.20}{201}{Photon Hamiltonian}{equation.a.A.4.20}{}}
\newlabel{eq_RS_Faraday_Ampere_operator_trans_ext_appendix}{{A.4.21}{201}{Photon Hamiltonian}{equation.a.A.4.21}{}}
\newlabel{eq_RS_Gauss_operator_trans_ext_appendix}{{A.4.22}{201}{Photon Hamiltonian}{equation.a.A.4.22}{}}
\newlabel{eq_RS_Faraday_Ampere_classical_long_ext_appendix}{{A.4.23}{201}{Photon Hamiltonian}{equation.a.A.4.23}{}}
\citation{Keller}
\citation{Keller}
\citation{Keller}
\citation{Keller}
\newlabel{eq_RS_Gauss_classical_long_ext_appendix}{{A.4.24}{202}{Photon Hamiltonian}{equation.a.A.4.24}{}}
\newlabel{eq_RS_QED_operator_pm_2_appendix}{{A.4.25}{202}{Photon Hamiltonian}{equation.a.A.4.25}{}}
\newlabel{eq_spin_helicity_identity_creation}{{A.4.26}{202}{Photon Hamiltonian}{equation.a.A.4.26}{}}
\newlabel{eq_spin_helicity_identity_annihilation_appendix}{{A.4.27}{202}{Photon Hamiltonian}{equation.a.A.4.27}{}}
\newlabel{eq_creation_spin_appendix}{{A.4.28}{202}{Photon Hamiltonian}{equation.a.A.4.28}{}}
\newlabel{eq_annihilation_spin_appendix}{{A.4.29}{202}{Photon Hamiltonian}{equation.a.A.4.29}{}}
\newlabel{eq_RS_QED_operator_pm_3_appendix}{{A.4.30}{202}{Photon Hamiltonian}{equation.a.A.4.30}{}}
\citation{Keller}
\citation{greiner1996}
\citation{Ruggenthaler_2014}
\citation{greiner1996}
\citation{Keller}
\newlabel{eq_RS_QED_operator_pm_positive_appendix}{{A.4.31}{203}{Photon Hamiltonian}{equation.a.A.4.31}{}}
\newlabel{eq_RS_QED_operator_pm_negative_appendix}{{A.4.32}{203}{Photon Hamiltonian}{equation.a.A.4.32}{}}
\@writefile{toc}{\contentsline {section}{\numberline {A.5}Interaction Hamiltonians}{203}{section.a.A.5}}
\newlabel{sec_appendix_QED_interaction_hamiltonian}{{A.5}{203}{Interaction Hamiltonians}{section.a.A.5}{}}
\@writefile{toc}{\contentsline {subsection}{\numberline {A.5.1}Longitudinal (Coulomb) interactions}{203}{subsection.a.A.5.1}}
\newlabel{subsec_appendix_Coulomb_interaction}{{A.5.1}{203}{Longitudinal (Coulomb) interactions}{subsection.a.A.5.1}{}}
\newlabel{eq_H_int_ext_long_2_appendix}{{A.5.1}{203}{Longitudinal (Coulomb) interactions}{equation.a.A.5.1}{}}
\newlabel{eq_H_int_mat_long_2_appendix}{{A.5.2}{203}{Longitudinal (Coulomb) interactions}{equation.a.A.5.2}{}}
\newlabel{eq_charge_density_operator_appendix}{{A.5.3}{203}{Longitudinal (Coulomb) interactions}{equation.a.A.5.3}{}}
\newlabel{eq_rho_mat_appendix}{{A.5.4}{204}{Longitudinal (Coulomb) interactions}{equation.a.A.5.4}{}}
\newlabel{eq_j_0_mat_appendix}{{A.5.5}{204}{Longitudinal (Coulomb) interactions}{equation.a.A.5.5}{}}
\newlabel{ep_H_int_mat_appendix}{{A.5.6}{204}{Longitudinal (Coulomb) interactions}{equation.a.A.5.6}{}}
\newlabel{ep_H_int_mat_2_appendix}{{A.5.7}{204}{Longitudinal (Coulomb) interactions}{equation.a.A.5.7}{}}
\newlabel{eq_mat_scalar_potential_operator_n_appendix}{{A.5.8}{204}{Longitudinal (Coulomb) interactions}{equation.a.A.5.8}{}}
\newlabel{ep_H_int_mat_2_appendix}{{A.5.9}{204}{Longitudinal (Coulomb) interactions}{equation.a.A.5.9}{}}
\newlabel{eq_mat_scalar_potential_operator_appendix}{{A.5.10}{205}{Longitudinal (Coulomb) interactions}{equation.a.A.5.10}{}}
\newlabel{eq_vector_potential_component_0_operator_ext_appendix}{{A.5.12}{205}{Longitudinal (Coulomb) interactions}{equation.a.A.5.12}{}}
\newlabel{eq_vector_potential_component_0_operator_ext_appendix}{{A.5.13}{205}{Longitudinal (Coulomb) interactions}{equation.a.A.5.13}{}}
\newlabel{eq_vector_potential_component_0_operator_3_appendix}{{A.5.14}{205}{Longitudinal (Coulomb) interactions}{equation.a.A.5.14}{}}
\newlabel{eq_H_int_tot_long_appendix}{{A.5.15}{205}{Longitudinal (Coulomb) interactions}{equation.a.A.5.15}{}}
\citation{Atkins_Friedman_2011}
\citation{magnetization_current_1999}
\newlabel{eq_H_int_tot_long_2_appendix}{{A.5.16}{206}{Longitudinal (Coulomb) interactions}{equation.a.A.5.16}{}}
\newlabel{eq_H_int_tot_long_3_appendix}{{A.5.17}{206}{Longitudinal (Coulomb) interactions}{equation.a.A.5.17}{}}
\@writefile{toc}{\contentsline {subsection}{\numberline {A.5.2}Transverse interactions}{206}{subsection.a.A.5.2}}
\newlabel{subsec_appendix_transverse_interaction}{{A.5.2}{206}{Transverse interactions}{subsection.a.A.5.2}{}}
\newlabel{eq_total_vector_potential_appendix}{{A.5.18}{206}{Transverse interactions}{equation.a.A.5.18}{}}
\newlabel{eq_matter_current_appendix}{{A.5.19}{206}{Transverse interactions}{equation.a.A.5.19}{}}
\newlabel{eq_paramagnetic_current_appendix}{{A.5.20}{206}{Transverse interactions}{equation.a.A.5.20}{}}
\citation{Ruggenthaler_2014}
\newlabel{eq_diamagnetic_current_appendix}{{A.5.21}{207}{Transverse interactions}{equation.a.A.5.21}{}}
\newlabel{eq_magnetization_current_appendix}{{A.5.22}{207}{Transverse interactions}{equation.a.A.5.22}{}}
\newlabel{eq_current_mat_ext_appendix}{{A.5.23}{207}{Transverse interactions}{equation.a.A.5.23}{}}
\newlabel{eq_H_int_ext_trans_2_appendix}{{A.5.24}{207}{Transverse interactions}{equation.a.A.5.24}{}}
\newlabel{ep_H_int_mat_trans_appendix}{{A.5.25}{207}{Transverse interactions}{equation.a.A.5.25}{}}
\newlabel{ep_H_int_mat_appendix_trans_2_appendix}{{A.5.26}{207}{Transverse interactions}{equation.a.A.5.26}{}}
\newlabel{eq_H_kin_mat_0_appendix}{{A.5.28}{208}{Transverse interactions}{equation.a.A.5.28}{}}
\newlabel{ep_H_kin_mat_appendix}{{A.5.29}{208}{Transverse interactions}{equation.a.A.5.29}{}}
\newlabel{ep_H_kin_mat_2_appendix}{{A.5.31}{208}{Transverse interactions}{equation.a.A.5.31}{}}
\@setckpt{./appendix/appendix}{
\setcounter{page}{210}
\setcounter{equation}{32}
\setcounter{enumi}{0}
\setcounter{enumii}{0}
\setcounter{enumiii}{0}
\setcounter{enumiv}{0}
\setcounter{footnote}{0}
\setcounter{mpfootnote}{0}
\setcounter{part}{0}
\setcounter{chapter}{1}
\setcounter{section}{5}
\setcounter{subsection}{2}
\setcounter{subsubsection}{0}
\setcounter{paragraph}{0}
\setcounter{subparagraph}{0}
\setcounter{figure}{0}
\setcounter{table}{0}
\setcounter{parentequation}{0}
\setcounter{r@tfl@t}{0}
\setcounter{subfigure}{0}
\setcounter{lofdepth}{1}
\setcounter{subtable}{0}
\setcounter{lotdepth}{1}
\setcounter{su@anzahl}{0}
\setcounter{LT@tables}{0}
\setcounter{LT@chunks}{0}
\setcounter{@pps}{1}
\setcounter{@ppsavesec}{6}
\setcounter{@ppsaveapp}{0}
\setcounter{float@type}{4}
\setcounter{Item}{0}
\setcounter{Hfootnote}{2}
\setcounter{bookmark@seq@number}{0}
\setcounter{lips@count}{0}
\setcounter{section@level}{2}
}
