%!PS-Adobe-3.0 EPSF-3.0
%%Title: Multiscale_system.fig
%%Creator: fig2dev Version 3.2 Patchlevel 5e
%%CreationDate: Wed Jun 24 07:18:05 2015
%%BoundingBox: 0 0 742 599
%Magnification: 1.0000
%%EndComments
%%BeginProlog
/$F2psDict 200 dict def
$F2psDict begin
$F2psDict /mtrx matrix put
/col-1 {0 setgray} bind def
/col0 {0.000 0.000 0.000 srgb} bind def
/col1 {0.000 0.000 1.000 srgb} bind def
/col2 {0.000 1.000 0.000 srgb} bind def
/col3 {0.000 1.000 1.000 srgb} bind def
/col4 {1.000 0.000 0.000 srgb} bind def
/col5 {1.000 0.000 1.000 srgb} bind def
/col6 {1.000 1.000 0.000 srgb} bind def
/col7 {1.000 1.000 1.000 srgb} bind def
/col8 {0.000 0.000 0.560 srgb} bind def
/col9 {0.000 0.000 0.690 srgb} bind def
/col10 {0.000 0.000 0.820 srgb} bind def
/col11 {0.530 0.810 1.000 srgb} bind def
/col12 {0.000 0.560 0.000 srgb} bind def
/col13 {0.000 0.690 0.000 srgb} bind def
/col14 {0.000 0.820 0.000 srgb} bind def
/col15 {0.000 0.560 0.560 srgb} bind def
/col16 {0.000 0.690 0.690 srgb} bind def
/col17 {0.000 0.820 0.820 srgb} bind def
/col18 {0.560 0.000 0.000 srgb} bind def
/col19 {0.690 0.000 0.000 srgb} bind def
/col20 {0.820 0.000 0.000 srgb} bind def
/col21 {0.560 0.000 0.560 srgb} bind def
/col22 {0.690 0.000 0.690 srgb} bind def
/col23 {0.820 0.000 0.820 srgb} bind def
/col24 {0.500 0.190 0.000 srgb} bind def
/col25 {0.630 0.250 0.000 srgb} bind def
/col26 {0.750 0.380 0.000 srgb} bind def
/col27 {1.000 0.500 0.500 srgb} bind def
/col28 {1.000 0.630 0.630 srgb} bind def
/col29 {1.000 0.750 0.750 srgb} bind def
/col30 {1.000 0.880 0.880 srgb} bind def
/col31 {1.000 0.840 0.000 srgb} bind def

end

/cp {closepath} bind def
/ef {eofill} bind def
/gr {grestore} bind def
/gs {gsave} bind def
/sa {save} bind def
/rs {restore} bind def
/l {lineto} bind def
/m {moveto} bind def
/rm {rmoveto} bind def
/n {newpath} bind def
/s {stroke} bind def
/sh {show} bind def
/slc {setlinecap} bind def
/slj {setlinejoin} bind def
/slw {setlinewidth} bind def
/srgb {setrgbcolor} bind def
/rot {rotate} bind def
/sc {scale} bind def
/sd {setdash} bind def
/ff {findfont} bind def
/sf {setfont} bind def
/scf {scalefont} bind def
/sw {stringwidth} bind def
/tr {translate} bind def
/tnt {dup dup currentrgbcolor
  4 -2 roll dup 1 exch sub 3 -1 roll mul add
  4 -2 roll dup 1 exch sub 3 -1 roll mul add
  4 -2 roll dup 1 exch sub 3 -1 roll mul add srgb}
  bind def
/shd {dup dup currentrgbcolor 4 -2 roll mul 4 -2 roll mul
  4 -2 roll mul srgb} bind def
 /DrawEllipse {
	/endangle exch def
	/startangle exch def
	/yrad exch def
	/xrad exch def
	/y exch def
	/x exch def
	/savematrix mtrx currentmatrix def
	x y tr xrad yrad sc 0 0 1 startangle endangle arc
	closepath
	savematrix setmatrix
	} def

/$F2psBegin {$F2psDict begin /$F2psEnteredState save def} def
/$F2psEnd {$F2psEnteredState restore end} def

/pageheader {
save
newpath 0 599 moveto 0 0 lineto 742 0 lineto 742 599 lineto closepath clip newpath
-97.8 596.7 translate
1 -1 scale
$F2psBegin
10 setmiterlimit
0 slj 0 slc
 0.06299 0.06299 sc
} bind def
/pagefooter {
$F2psEnd
restore
} bind def
%%EndProlog
pageheader
%
% Fig objects follow
%
% 
% here starts figure with depth 50
% Ellipse
7.500 slw
n 5400 225 68 68 0 360 DrawEllipse gs col1 1.00 shd ef gr gs col1 s gr

% Ellipse
n 5400 2025 68 68 0 360 DrawEllipse gs col1 1.00 shd ef gr gs col1 s gr

% Ellipse
n 5400 3825 68 68 0 360 DrawEllipse gs col1 1.00 shd ef gr gs col1 s gr

% Ellipse
n 5400 5625 68 68 0 360 DrawEllipse gs col1 1.00 shd ef gr gs col1 s gr

% Ellipse
n 5400 7425 68 68 0 360 DrawEllipse gs col1 1.00 shd ef gr gs col1 s gr

% Ellipse
n 5400 9225 68 68 0 360 DrawEllipse gs col1 1.00 shd ef gr gs col1 s gr

% Ellipse
n 3600 9225 68 68 0 360 DrawEllipse gs col1 1.00 shd ef gr gs col1 s gr

% Ellipse
n 3600 225 68 68 0 360 DrawEllipse gs col1 1.00 shd ef gr gs col1 s gr

% Ellipse
n 3645 2025 68 68 0 360 DrawEllipse gs col1 1.00 shd ef gr gs col1 s gr

% Ellipse
n 3600 3825 68 68 0 360 DrawEllipse gs col1 1.00 shd ef gr gs col1 s gr

% Ellipse
n 3645 5625 68 68 0 360 DrawEllipse gs col1 1.00 shd ef gr gs col1 s gr

% Ellipse
n 3690 7425 68 68 0 360 DrawEllipse gs col1 1.00 shd ef gr gs col1 s gr

% Ellipse
n 1800 225 68 68 0 360 DrawEllipse gs col1 1.00 shd ef gr gs col1 s gr

% Ellipse
n 1800 2025 68 68 0 360 DrawEllipse gs col1 1.00 shd ef gr gs col1 s gr

% Ellipse
n 1800 3825 68 68 0 360 DrawEllipse gs col1 1.00 shd ef gr gs col1 s gr

% Ellipse
n 1800 5625 68 68 0 360 DrawEllipse gs col1 1.00 shd ef gr gs col1 s gr

% Ellipse
n 1800 7425 68 68 0 360 DrawEllipse gs col1 1.00 shd ef gr gs col1 s gr

% Ellipse
n 1800 9225 68 68 0 360 DrawEllipse gs col1 1.00 shd ef gr gs col1 s gr

% Ellipse
n 7200 225 68 68 0 360 DrawEllipse gs col1 1.00 shd ef gr gs col1 s gr

% Ellipse
n 7200 2025 68 68 0 360 DrawEllipse gs col1 1.00 shd ef gr gs col1 s gr

% Ellipse
n 7200 3825 68 68 0 360 DrawEllipse gs col1 1.00 shd ef gr gs col1 s gr

% Ellipse
n 7200 5625 68 68 0 360 DrawEllipse gs col1 1.00 shd ef gr gs col1 s gr

% Ellipse
n 7200 7380 68 68 0 360 DrawEllipse gs col1 1.00 shd ef gr gs col1 s gr

% Ellipse
n 7200 9225 68 68 0 360 DrawEllipse gs col1 1.00 shd ef gr gs col1 s gr

% Ellipse
n 9000 9225 68 68 0 360 DrawEllipse gs col1 1.00 shd ef gr gs col1 s gr

% Ellipse
n 9000 7425 68 68 0 360 DrawEllipse gs col1 1.00 shd ef gr gs col1 s gr

% Ellipse
n 9000 5625 68 68 0 360 DrawEllipse gs col1 1.00 shd ef gr gs col1 s gr

% Ellipse
n 9000 3825 68 68 0 360 DrawEllipse gs col1 1.00 shd ef gr gs col1 s gr

% Ellipse
n 9000 2025 68 68 0 360 DrawEllipse gs col1 1.00 shd ef gr gs col1 s gr

% Ellipse
n 9000 225 68 68 0 360 DrawEllipse gs col1 1.00 shd ef gr gs col1 s gr

% Ellipse
n 10800 225 68 68 0 360 DrawEllipse gs col1 1.00 shd ef gr gs col1 s gr

% Ellipse
n 10800 2025 68 68 0 360 DrawEllipse gs col1 1.00 shd ef gr gs col1 s gr

% Ellipse
n 10800 3825 68 68 0 360 DrawEllipse gs col1 1.00 shd ef gr gs col1 s gr

% Ellipse
n 10800 5625 68 68 0 360 DrawEllipse gs col1 1.00 shd ef gr gs col1 s gr

% Ellipse
n 10800 7380 68 68 0 360 DrawEllipse gs col1 1.00 shd ef gr gs col1 s gr

% Ellipse
n 10800 9225 68 68 0 360 DrawEllipse gs col1 1.00 shd ef gr gs col1 s gr

% Ellipse
n 6300 5175 36 36 0 360 DrawEllipse gs col4 1.00 shd ef gr gs col4 s gr

% Ellipse
n 6300 6075 36 36 0 360 DrawEllipse gs col4 1.00 shd ef gr gs col4 s gr

% Ellipse
n 8100 2925 36 36 0 360 DrawEllipse gs col4 1.00 shd ef gr gs col4 s gr

% Ellipse
n 7875 2925 36 36 0 360 DrawEllipse gs col4 1.00 shd ef gr gs col4 s gr

% Ellipse
n 7650 2925 36 36 0 360 DrawEllipse gs col4 1.00 shd ef gr gs col4 s gr

% Ellipse
n 7425 2925 36 36 0 360 DrawEllipse gs col4 1.00 shd ef gr gs col4 s gr

% Ellipse
n 7200 2925 36 36 0 360 DrawEllipse gs col4 1.00 shd ef gr gs col4 s gr

% Ellipse
n 6975 2925 36 36 0 360 DrawEllipse gs col4 1.00 shd ef gr gs col4 s gr

% Ellipse
n 6750 2925 36 36 0 360 DrawEllipse gs col4 1.00 shd ef gr gs col4 s gr

% Ellipse
n 6525 2925 36 36 0 360 DrawEllipse gs col4 1.00 shd ef gr gs col4 s gr

% Ellipse
n 6075 2925 36 36 0 360 DrawEllipse gs col4 1.00 shd ef gr gs col4 s gr

% Ellipse
n 6300 3150 36 36 0 360 DrawEllipse gs col4 1.00 shd ef gr gs col4 s gr

% Ellipse
n 6525 3150 36 36 0 360 DrawEllipse gs col4 1.00 shd ef gr gs col4 s gr

% Ellipse
n 6750 3150 36 36 0 360 DrawEllipse gs col4 1.00 shd ef gr gs col4 s gr

% Ellipse
n 6975 3150 36 36 0 360 DrawEllipse gs col4 1.00 shd ef gr gs col4 s gr

% Ellipse
n 7200 3150 36 36 0 360 DrawEllipse gs col4 1.00 shd ef gr gs col4 s gr

% Ellipse
n 7425 3150 36 36 0 360 DrawEllipse gs col4 1.00 shd ef gr gs col4 s gr

% Ellipse
n 7650 3150 36 36 0 360 DrawEllipse gs col4 1.00 shd ef gr gs col4 s gr

% Ellipse
n 7875 3150 36 36 0 360 DrawEllipse gs col4 1.00 shd ef gr gs col4 s gr

% Ellipse
n 8100 3150 36 36 0 360 DrawEllipse gs col4 1.00 shd ef gr gs col4 s gr

% Ellipse
n 6300 3375 36 36 0 360 DrawEllipse gs col4 1.00 shd ef gr gs col4 s gr

% Ellipse
n 6075 3150 36 36 0 360 DrawEllipse gs col4 1.00 shd ef gr gs col4 s gr

% Ellipse
n 6075 3375 36 36 0 360 DrawEllipse gs col4 1.00 shd ef gr gs col4 s gr

% Ellipse
n 6300 2925 36 36 0 360 DrawEllipse gs col4 1.00 shd ef gr gs col4 s gr

% Ellipse
n 6525 3375 36 36 0 360 DrawEllipse gs col4 1.00 shd ef gr gs col4 s gr

% Ellipse
n 6750 3375 36 36 0 360 DrawEllipse gs col4 1.00 shd ef gr gs col4 s gr

% Ellipse
n 6975 3375 36 36 0 360 DrawEllipse gs col4 1.00 shd ef gr gs col4 s gr

% Ellipse
n 7200 3375 36 36 0 360 DrawEllipse gs col4 1.00 shd ef gr gs col4 s gr

% Ellipse
n 7425 3375 36 36 0 360 DrawEllipse gs col4 1.00 shd ef gr gs col4 s gr

% Ellipse
n 7650 3375 36 36 0 360 DrawEllipse gs col4 1.00 shd ef gr gs col4 s gr

% Ellipse
n 7875 3375 36 36 0 360 DrawEllipse gs col4 1.00 shd ef gr gs col4 s gr

% Ellipse
n 8100 3375 36 36 0 360 DrawEllipse gs col4 1.00 shd ef gr gs col4 s gr

% Ellipse
n 6300 3600 36 36 0 360 DrawEllipse gs col4 1.00 shd ef gr gs col4 s gr

% Ellipse
n 6525 3600 36 36 0 360 DrawEllipse gs col4 1.00 shd ef gr gs col4 s gr

% Ellipse
n 6750 3600 36 36 0 360 DrawEllipse gs col4 1.00 shd ef gr gs col4 s gr

% Ellipse
n 6975 3600 36 36 0 360 DrawEllipse gs col4 1.00 shd ef gr gs col4 s gr

% Ellipse
n 7200 3600 36 36 0 360 DrawEllipse gs col4 1.00 shd ef gr gs col4 s gr

% Ellipse
n 7425 3600 36 36 0 360 DrawEllipse gs col4 1.00 shd ef gr gs col4 s gr

% Ellipse
n 7650 3600 36 36 0 360 DrawEllipse gs col4 1.00 shd ef gr gs col4 s gr

% Ellipse
n 7875 3600 36 36 0 360 DrawEllipse gs col4 1.00 shd ef gr gs col4 s gr

% Ellipse
n 8100 3600 36 36 0 360 DrawEllipse gs col4 1.00 shd ef gr gs col4 s gr

% Ellipse
n 6300 3825 36 36 0 360 DrawEllipse gs col4 1.00 shd ef gr gs col4 s gr

% Ellipse
n 6300 4050 36 36 0 360 DrawEllipse gs col4 1.00 shd ef gr gs col4 s gr

% Ellipse
n 6300 4275 36 36 0 360 DrawEllipse gs col4 1.00 shd ef gr gs col4 s gr

% Ellipse
n 6525 3825 36 36 0 360 DrawEllipse gs col4 1.00 shd ef gr gs col4 s gr

% Ellipse
n 6750 3825 36 36 0 360 DrawEllipse gs col4 1.00 shd ef gr gs col4 s gr

% Ellipse
n 6975 3825 36 36 0 360 DrawEllipse gs col4 1.00 shd ef gr gs col4 s gr

% Ellipse
n 7425 3825 36 36 0 360 DrawEllipse gs col4 1.00 shd ef gr gs col4 s gr

% Ellipse
n 7650 3825 36 36 0 360 DrawEllipse gs col4 1.00 shd ef gr gs col4 s gr

% Ellipse
n 7875 3825 36 36 0 360 DrawEllipse gs col4 1.00 shd ef gr gs col4 s gr

% Ellipse
n 8100 3825 36 36 0 360 DrawEllipse gs col4 1.00 shd ef gr gs col4 s gr

% Ellipse
n 6525 4050 36 36 0 360 DrawEllipse gs col4 1.00 shd ef gr gs col4 s gr

% Ellipse
n 6750 4050 36 36 0 360 DrawEllipse gs col4 1.00 shd ef gr gs col4 s gr

% Ellipse
n 6975 4050 36 36 0 360 DrawEllipse gs col4 1.00 shd ef gr gs col4 s gr

% Ellipse
n 7200 4050 36 36 0 360 DrawEllipse gs col4 1.00 shd ef gr gs col4 s gr

% Ellipse
n 7425 4050 36 36 0 360 DrawEllipse gs col4 1.00 shd ef gr gs col4 s gr

% Ellipse
n 7650 4050 36 36 0 360 DrawEllipse gs col4 1.00 shd ef gr gs col4 s gr

% Ellipse
n 7875 4050 36 36 0 360 DrawEllipse gs col4 1.00 shd ef gr gs col4 s gr

% Ellipse
n 8100 4050 36 36 0 360 DrawEllipse gs col4 1.00 shd ef gr gs col4 s gr

% Ellipse
n 6525 4500 36 36 0 360 DrawEllipse gs col4 1.00 shd ef gr gs col4 s gr

% Ellipse
n 6750 4275 36 36 0 360 DrawEllipse gs col4 1.00 shd ef gr gs col4 s gr

% Ellipse
n 6975 4275 36 36 0 360 DrawEllipse gs col4 1.00 shd ef gr gs col4 s gr

% Ellipse
n 6975 4500 36 36 0 360 DrawEllipse gs col4 1.00 shd ef gr gs col4 s gr

% Ellipse
n 7200 4275 36 36 0 360 DrawEllipse gs col4 1.00 shd ef gr gs col4 s gr

% Ellipse
n 7200 4500 36 36 0 360 DrawEllipse gs col4 1.00 shd ef gr gs col4 s gr

% Ellipse
n 7425 4500 36 36 0 360 DrawEllipse gs col4 1.00 shd ef gr gs col4 s gr

% Ellipse
n 7425 4275 36 36 0 360 DrawEllipse gs col4 1.00 shd ef gr gs col4 s gr

% Ellipse
n 7650 4275 36 36 0 360 DrawEllipse gs col4 1.00 shd ef gr gs col4 s gr

% Ellipse
n 7650 4500 36 36 0 360 DrawEllipse gs col4 1.00 shd ef gr gs col4 s gr

% Ellipse
n 7875 4275 36 36 0 360 DrawEllipse gs col4 1.00 shd ef gr gs col4 s gr

% Ellipse
n 8100 4275 36 36 0 360 DrawEllipse gs col4 1.00 shd ef gr gs col4 s gr

% Ellipse
n 8100 4500 36 36 0 360 DrawEllipse gs col4 1.00 shd ef gr gs col4 s gr

% Ellipse
n 7875 4500 36 36 0 360 DrawEllipse gs col4 1.00 shd ef gr gs col4 s gr

% Ellipse
n 8100 4725 36 36 0 360 DrawEllipse gs col4 1.00 shd ef gr gs col4 s gr

% Ellipse
n 7875 4725 36 36 0 360 DrawEllipse gs col4 1.00 shd ef gr gs col4 s gr

% Ellipse
n 7650 4725 36 36 0 360 DrawEllipse gs col4 1.00 shd ef gr gs col4 s gr

% Ellipse
n 7425 4725 36 36 0 360 DrawEllipse gs col4 1.00 shd ef gr gs col4 s gr

% Ellipse
n 7200 4725 36 36 0 360 DrawEllipse gs col4 1.00 shd ef gr gs col4 s gr

% Ellipse
n 6975 4725 36 36 0 360 DrawEllipse gs col4 1.00 shd ef gr gs col4 s gr

% Ellipse
n 6750 4725 36 36 0 360 DrawEllipse gs col4 1.00 shd ef gr gs col4 s gr

% Ellipse
n 6525 4725 36 36 0 360 DrawEllipse gs col4 1.00 shd ef gr gs col4 s gr

% Ellipse
n 6300 4500 36 36 0 360 DrawEllipse gs col4 1.00 shd ef gr gs col4 s gr

% Ellipse
n 6075 3600 36 36 0 360 DrawEllipse gs col4 1.00 shd ef gr gs col4 s gr

% Ellipse
n 6075 3825 36 36 0 360 DrawEllipse gs col4 1.00 shd ef gr gs col4 s gr

% Ellipse
n 6075 4050 36 36 0 360 DrawEllipse gs col4 1.00 shd ef gr gs col4 s gr

% Ellipse
n 6075 4500 36 36 0 360 DrawEllipse gs col4 1.00 shd ef gr gs col4 s gr

% Ellipse
n 4500 2925 36 36 0 360 DrawEllipse gs col4 1.00 shd ef gr gs col4 s gr

% Ellipse
n 4725 2925 36 36 0 360 DrawEllipse gs col4 1.00 shd ef gr gs col4 s gr

% Ellipse
n 4950 2925 36 36 0 360 DrawEllipse gs col4 1.00 shd ef gr gs col4 s gr

% Ellipse
n 5175 2925 36 36 0 360 DrawEllipse gs col4 1.00 shd ef gr gs col4 s gr

% Ellipse
n 5400 2925 36 36 0 360 DrawEllipse gs col4 1.00 shd ef gr gs col4 s gr

% Ellipse
n 5625 2925 36 36 0 360 DrawEllipse gs col4 1.00 shd ef gr gs col4 s gr

% Ellipse
n 5850 2925 36 36 0 360 DrawEllipse gs col4 1.00 shd ef gr gs col4 s gr

% Ellipse
n 4500 3150 36 36 0 360 DrawEllipse gs col4 1.00 shd ef gr gs col4 s gr

% Ellipse
n 4500 3375 36 36 0 360 DrawEllipse gs col4 1.00 shd ef gr gs col4 s gr

% Ellipse
n 4725 3150 36 36 0 360 DrawEllipse gs col4 1.00 shd ef gr gs col4 s gr

% Ellipse
n 4950 3150 36 36 0 360 DrawEllipse gs col4 1.00 shd ef gr gs col4 s gr

% Ellipse
n 5175 3150 36 36 0 360 DrawEllipse gs col4 1.00 shd ef gr gs col4 s gr

% Ellipse
n 5400 3150 36 36 0 360 DrawEllipse gs col4 1.00 shd ef gr gs col4 s gr

% Ellipse
n 5625 3150 36 36 0 360 DrawEllipse gs col4 1.00 shd ef gr gs col4 s gr

% Ellipse
n 5850 3150 36 36 0 360 DrawEllipse gs col4 1.00 shd ef gr gs col4 s gr

% Ellipse
n 4500 3600 36 36 0 360 DrawEllipse gs col4 1.00 shd ef gr gs col4 s gr

% Ellipse
n 4500 3825 36 36 0 360 DrawEllipse gs col4 1.00 shd ef gr gs col4 s gr

% Ellipse
n 4500 4050 36 36 0 360 DrawEllipse gs col4 1.00 shd ef gr gs col4 s gr

% Ellipse
n 4500 4275 36 36 0 360 DrawEllipse gs col4 1.00 shd ef gr gs col4 s gr

% Ellipse
n 4500 4500 36 36 0 360 DrawEllipse gs col4 1.00 shd ef gr gs col4 s gr

% Ellipse
n 4500 4725 36 36 0 360 DrawEllipse gs col4 1.00 shd ef gr gs col4 s gr

% Ellipse
n 4500 4950 36 36 0 360 DrawEllipse gs col4 1.00 shd ef gr gs col4 s gr

% Ellipse
n 4725 3375 36 36 0 360 DrawEllipse gs col4 1.00 shd ef gr gs col4 s gr

% Ellipse
n 4725 3600 36 36 0 360 DrawEllipse gs col4 1.00 shd ef gr gs col4 s gr

% Ellipse
n 4725 3825 36 36 0 360 DrawEllipse gs col4 1.00 shd ef gr gs col4 s gr

% Ellipse
n 4725 4050 36 36 0 360 DrawEllipse gs col4 1.00 shd ef gr gs col4 s gr

% Ellipse
n 4725 4275 36 36 0 360 DrawEllipse gs col4 1.00 shd ef gr gs col4 s gr

% Ellipse
n 4725 4500 36 36 0 360 DrawEllipse gs col4 1.00 shd ef gr gs col4 s gr

% Ellipse
n 4950 3375 36 36 0 360 DrawEllipse gs col4 1.00 shd ef gr gs col4 s gr

% Ellipse
n 5175 3375 36 36 0 360 DrawEllipse gs col4 1.00 shd ef gr gs col4 s gr

% Ellipse
n 5400 3375 36 36 0 360 DrawEllipse gs col4 1.00 shd ef gr gs col4 s gr

% Ellipse
n 5625 3375 36 36 0 360 DrawEllipse gs col4 1.00 shd ef gr gs col4 s gr

% Ellipse
n 5850 3375 36 36 0 360 DrawEllipse gs col4 1.00 shd ef gr gs col4 s gr

% Ellipse
n 4950 3600 36 36 0 360 DrawEllipse gs col4 1.00 shd ef gr gs col4 s gr

% Ellipse
n 4950 3825 36 36 0 360 DrawEllipse gs col4 1.00 shd ef gr gs col4 s gr

% Ellipse
n 4950 4050 36 36 0 360 DrawEllipse gs col4 1.00 shd ef gr gs col4 s gr

% Ellipse
n 4950 4275 36 36 0 360 DrawEllipse gs col4 1.00 shd ef gr gs col4 s gr

% Ellipse
n 4950 4500 36 36 0 360 DrawEllipse gs col4 1.00 shd ef gr gs col4 s gr

% Ellipse
n 5175 3600 36 36 0 360 DrawEllipse gs col4 1.00 shd ef gr gs col4 s gr

% Ellipse
n 5400 3600 36 36 0 360 DrawEllipse gs col4 1.00 shd ef gr gs col4 s gr

% Ellipse
n 5175 3825 36 36 0 360 DrawEllipse gs col4 1.00 shd ef gr gs col4 s gr

% Ellipse
n 5625 3600 36 36 0 360 DrawEllipse gs col4 1.00 shd ef gr gs col4 s gr

% Ellipse
n 5850 3600 36 36 0 360 DrawEllipse gs col4 1.00 shd ef gr gs col4 s gr

% Ellipse
n 5625 3825 36 36 0 360 DrawEllipse gs col4 1.00 shd ef gr gs col4 s gr

% Ellipse
n 5850 3825 36 36 0 360 DrawEllipse gs col4 1.00 shd ef gr gs col4 s gr

% Ellipse
n 5175 4050 36 36 0 360 DrawEllipse gs col4 1.00 shd ef gr gs col4 s gr

% Ellipse
n 5175 4275 36 36 0 360 DrawEllipse gs col4 1.00 shd ef gr gs col4 s gr

% Ellipse
n 5175 4500 36 36 0 360 DrawEllipse gs col4 1.00 shd ef gr gs col4 s gr

% Ellipse
n 5400 4050 36 36 0 360 DrawEllipse gs col4 1.00 shd ef gr gs col4 s gr

% Ellipse
n 5625 4050 36 36 0 360 DrawEllipse gs col4 1.00 shd ef gr gs col4 s gr

% Ellipse
n 5850 4050 36 36 0 360 DrawEllipse gs col4 1.00 shd ef gr gs col4 s gr

% Ellipse
n 5400 4275 36 36 0 360 DrawEllipse gs col4 1.00 shd ef gr gs col4 s gr

% Ellipse
n 5625 4275 36 36 0 360 DrawEllipse gs col4 1.00 shd ef gr gs col4 s gr

% Ellipse
n 5850 4275 36 36 0 360 DrawEllipse gs col4 1.00 shd ef gr gs col4 s gr

% Ellipse
n 5400 4500 36 36 0 360 DrawEllipse gs col4 1.00 shd ef gr gs col4 s gr

% Ellipse
n 5625 4500 36 36 0 360 DrawEllipse gs col4 1.00 shd ef gr gs col4 s gr

% Ellipse
n 4725 4725 36 36 0 360 DrawEllipse gs col4 1.00 shd ef gr gs col4 s gr

% Ellipse
n 4950 4725 36 36 0 360 DrawEllipse gs col4 1.00 shd ef gr gs col4 s gr

% Ellipse
n 5175 4725 36 36 0 360 DrawEllipse gs col4 1.00 shd ef gr gs col4 s gr

% Ellipse
n 5400 4725 36 36 0 360 DrawEllipse gs col4 1.00 shd ef gr gs col4 s gr

% Ellipse
n 6075 4725 36 36 0 360 DrawEllipse gs col4 1.00 shd ef gr gs col4 s gr

% Ellipse
n 6300 4950 36 36 0 360 DrawEllipse gs col4 1.00 shd ef gr gs col4 s gr

% Ellipse
n 6300 5400 36 36 0 360 DrawEllipse gs col4 1.00 shd ef gr gs col4 s gr

% Ellipse
n 6300 5625 36 36 0 360 DrawEllipse gs col4 1.00 shd ef gr gs col4 s gr

% Ellipse
n 6300 5850 36 36 0 360 DrawEllipse gs col4 1.00 shd ef gr gs col4 s gr

% Ellipse
n 6300 6300 36 36 0 360 DrawEllipse gs col4 1.00 shd ef gr gs col4 s gr

% Ellipse
n 6300 6525 36 36 0 360 DrawEllipse gs col4 1.00 shd ef gr gs col4 s gr

% Ellipse
n 4500 5175 36 36 0 360 DrawEllipse gs col4 1.00 shd ef gr gs col4 s gr

% Ellipse
n 4500 5400 36 36 0 360 DrawEllipse gs col4 1.00 shd ef gr gs col4 s gr

% Ellipse
n 4500 5625 36 36 0 360 DrawEllipse gs col4 1.00 shd ef gr gs col4 s gr

% Ellipse
n 4500 5850 36 36 0 360 DrawEllipse gs col4 1.00 shd ef gr gs col4 s gr

% Ellipse
n 4500 6075 36 36 0 360 DrawEllipse gs col4 1.00 shd ef gr gs col4 s gr

% Ellipse
n 4500 6300 36 36 0 360 DrawEllipse gs col4 1.00 shd ef gr gs col4 s gr

% Ellipse
n 4500 6525 36 36 0 360 DrawEllipse gs col4 1.00 shd ef gr gs col4 s gr

% Ellipse
n 4725 4950 36 36 0 360 DrawEllipse gs col4 1.00 shd ef gr gs col4 s gr

% Ellipse
n 4725 5175 36 36 0 360 DrawEllipse gs col4 1.00 shd ef gr gs col4 s gr

% Ellipse
n 4725 5400 36 36 0 360 DrawEllipse gs col4 1.00 shd ef gr gs col4 s gr

% Ellipse
n 4725 5625 36 36 0 360 DrawEllipse gs col4 1.00 shd ef gr gs col4 s gr

% Ellipse
n 4725 5850 36 36 0 360 DrawEllipse gs col4 1.00 shd ef gr gs col4 s gr

% Ellipse
n 4725 6075 36 36 0 360 DrawEllipse gs col4 1.00 shd ef gr gs col4 s gr

% Ellipse
n 4725 6300 36 36 0 360 DrawEllipse gs col4 1.00 shd ef gr gs col4 s gr

% Ellipse
n 4725 6525 36 36 0 360 DrawEllipse gs col4 1.00 shd ef gr gs col4 s gr

% Ellipse
n 4950 6525 36 36 0 360 DrawEllipse gs col4 1.00 shd ef gr gs col4 s gr

% Ellipse
n 4950 6300 36 36 0 360 DrawEllipse gs col4 1.00 shd ef gr gs col4 s gr

% Ellipse
n 4950 6075 36 36 0 360 DrawEllipse gs col4 1.00 shd ef gr gs col4 s gr

% Ellipse
n 4950 5850 36 36 0 360 DrawEllipse gs col4 1.00 shd ef gr gs col4 s gr

% Ellipse
n 4950 5625 36 36 0 360 DrawEllipse gs col4 1.00 shd ef gr gs col4 s gr

% Ellipse
n 4950 5400 36 36 0 360 DrawEllipse gs col4 1.00 shd ef gr gs col4 s gr

% Ellipse
n 4950 5175 36 36 0 360 DrawEllipse gs col4 1.00 shd ef gr gs col4 s gr

% Ellipse
n 4950 4950 36 36 0 360 DrawEllipse gs col4 1.00 shd ef gr gs col4 s gr

% Ellipse
n 5175 4950 36 36 0 360 DrawEllipse gs col4 1.00 shd ef gr gs col4 s gr

% Ellipse
n 5175 5175 36 36 0 360 DrawEllipse gs col4 1.00 shd ef gr gs col4 s gr

% Ellipse
n 5175 5400 36 36 0 360 DrawEllipse gs col4 1.00 shd ef gr gs col4 s gr

% Ellipse
n 5175 5625 36 36 0 360 DrawEllipse gs col4 1.00 shd ef gr gs col4 s gr

% Ellipse
n 5175 5850 36 36 0 360 DrawEllipse gs col4 1.00 shd ef gr gs col4 s gr

% Ellipse
n 5175 6075 36 36 0 360 DrawEllipse gs col4 1.00 shd ef gr gs col4 s gr

% Ellipse
n 5175 6300 36 36 0 360 DrawEllipse gs col4 1.00 shd ef gr gs col4 s gr

% Ellipse
n 5175 6525 36 36 0 360 DrawEllipse gs col4 1.00 shd ef gr gs col4 s gr

% Ellipse
n 5400 4950 36 36 0 360 DrawEllipse gs col4 1.00 shd ef gr gs col4 s gr

% Ellipse
n 5400 5175 36 36 0 360 DrawEllipse gs col4 1.00 shd ef gr gs col4 s gr

% Ellipse
n 5400 5400 36 36 0 360 DrawEllipse gs col4 1.00 shd ef gr gs col4 s gr

% Ellipse
n 5400 5850 36 36 0 360 DrawEllipse gs col4 1.00 shd ef gr gs col4 s gr

% Ellipse
n 5400 6075 36 36 0 360 DrawEllipse gs col4 1.00 shd ef gr gs col4 s gr

% Ellipse
n 5400 6300 36 36 0 360 DrawEllipse gs col4 1.00 shd ef gr gs col4 s gr

% Ellipse
n 5400 6525 36 36 0 360 DrawEllipse gs col4 1.00 shd ef gr gs col4 s gr

% Ellipse
n 8100 6525 36 36 0 360 DrawEllipse gs col4 1.00 shd ef gr gs col4 s gr

% Ellipse
n 8100 6300 36 36 0 360 DrawEllipse gs col4 1.00 shd ef gr gs col4 s gr

% Ellipse
n 8100 6075 36 36 0 360 DrawEllipse gs col4 1.00 shd ef gr gs col4 s gr

% Ellipse
n 8100 5850 36 36 0 360 DrawEllipse gs col4 1.00 shd ef gr gs col4 s gr

% Ellipse
n 8100 5625 36 36 0 360 DrawEllipse gs col4 1.00 shd ef gr gs col4 s gr

% Ellipse
n 8100 5400 36 36 0 360 DrawEllipse gs col4 1.00 shd ef gr gs col4 s gr

% Ellipse
n 8100 5175 36 36 0 360 DrawEllipse gs col4 1.00 shd ef gr gs col4 s gr

% Ellipse
n 8100 4950 36 36 0 360 DrawEllipse gs col4 1.00 shd ef gr gs col4 s gr

% Ellipse
n 5625 5175 36 36 0 360 DrawEllipse gs col4 1.00 shd ef gr gs col4 s gr

% Ellipse
n 5625 5400 36 36 0 360 DrawEllipse gs col4 1.00 shd ef gr gs col4 s gr

% Ellipse
n 5625 5625 36 36 0 360 DrawEllipse gs col4 1.00 shd ef gr gs col4 s gr

% Ellipse
n 6075 4950 36 36 0 360 DrawEllipse gs col4 1.00 shd ef gr gs col4 s gr

% Ellipse
n 6525 4950 36 36 0 360 DrawEllipse gs col4 1.00 shd ef gr gs col4 s gr

% Ellipse
n 5850 5175 36 36 0 360 DrawEllipse gs col4 1.00 shd ef gr gs col4 s gr

% Ellipse
n 5625 5850 36 36 0 360 DrawEllipse gs col4 1.00 shd ef gr gs col4 s gr

% Ellipse
n 5625 6075 36 36 0 360 DrawEllipse gs col4 1.00 shd ef gr gs col4 s gr

% Ellipse
n 5625 6300 36 36 0 360 DrawEllipse gs col4 1.00 shd ef gr gs col4 s gr

% Ellipse
n 5625 6525 36 36 0 360 DrawEllipse gs col4 1.00 shd ef gr gs col4 s gr

% Ellipse
n 5850 5400 36 36 0 360 DrawEllipse gs col4 1.00 shd ef gr gs col4 s gr

% Ellipse
n 5850 5625 36 36 0 360 DrawEllipse gs col4 1.00 shd ef gr gs col4 s gr

% Ellipse
n 5850 5850 36 36 0 360 DrawEllipse gs col4 1.00 shd ef gr gs col4 s gr

% Ellipse
n 5850 6075 36 36 0 360 DrawEllipse gs col4 1.00 shd ef gr gs col4 s gr

% Ellipse
n 5850 6300 36 36 0 360 DrawEllipse gs col4 1.00 shd ef gr gs col4 s gr

% Ellipse
n 5850 6525 36 36 0 360 DrawEllipse gs col4 1.00 shd ef gr gs col4 s gr

% Ellipse
n 6075 5400 36 36 0 360 DrawEllipse gs col4 1.00 shd ef gr gs col4 s gr

% Ellipse
n 6075 5625 36 36 0 360 DrawEllipse gs col4 1.00 shd ef gr gs col4 s gr

% Ellipse
n 6075 5850 36 36 0 360 DrawEllipse gs col4 1.00 shd ef gr gs col4 s gr

% Ellipse
n 6075 6075 36 36 0 360 DrawEllipse gs col4 1.00 shd ef gr gs col4 s gr

% Ellipse
n 6075 6300 36 36 0 360 DrawEllipse gs col4 1.00 shd ef gr gs col4 s gr

% Ellipse
n 6075 6525 36 36 0 360 DrawEllipse gs col4 1.00 shd ef gr gs col4 s gr

% Ellipse
n 6525 5400 36 36 0 360 DrawEllipse gs col4 1.00 shd ef gr gs col4 s gr

% Ellipse
n 6525 5625 36 36 0 360 DrawEllipse gs col4 1.00 shd ef gr gs col4 s gr

% Ellipse
n 6525 5850 36 36 0 360 DrawEllipse gs col4 1.00 shd ef gr gs col4 s gr

% Ellipse
n 6525 6075 36 36 0 360 DrawEllipse gs col4 1.00 shd ef gr gs col4 s gr

% Ellipse
n 6525 6300 36 36 0 360 DrawEllipse gs col4 1.00 shd ef gr gs col4 s gr

% Ellipse
n 6525 6525 36 36 0 360 DrawEllipse gs col4 1.00 shd ef gr gs col4 s gr

% Ellipse
n 6750 6525 36 36 0 360 DrawEllipse gs col4 1.00 shd ef gr gs col4 s gr

% Ellipse
n 6750 6300 36 36 0 360 DrawEllipse gs col4 1.00 shd ef gr gs col4 s gr

% Ellipse
n 6750 6075 36 36 0 360 DrawEllipse gs col4 1.00 shd ef gr gs col4 s gr

% Ellipse
n 6750 5850 36 36 0 360 DrawEllipse gs col4 1.00 shd ef gr gs col4 s gr

% Ellipse
n 6750 5625 36 36 0 360 DrawEllipse gs col4 1.00 shd ef gr gs col4 s gr

% Ellipse
n 6750 5400 36 36 0 360 DrawEllipse gs col4 1.00 shd ef gr gs col4 s gr

% Ellipse
n 6750 5175 36 36 0 360 DrawEllipse gs col4 1.00 shd ef gr gs col4 s gr

% Ellipse
n 6975 4950 36 36 0 360 DrawEllipse gs col4 1.00 shd ef gr gs col4 s gr

% Ellipse
n 6975 5175 36 36 0 360 DrawEllipse gs col4 1.00 shd ef gr gs col4 s gr

% Ellipse
n 6975 5400 36 36 0 360 DrawEllipse gs col4 1.00 shd ef gr gs col4 s gr

% Ellipse
n 6975 5625 36 36 0 360 DrawEllipse gs col4 1.00 shd ef gr gs col4 s gr

% Ellipse
n 6975 5850 36 36 0 360 DrawEllipse gs col4 1.00 shd ef gr gs col4 s gr

% Ellipse
n 6975 6075 36 36 0 360 DrawEllipse gs col4 1.00 shd ef gr gs col4 s gr

% Ellipse
n 6975 6300 36 36 0 360 DrawEllipse gs col4 1.00 shd ef gr gs col4 s gr

% Ellipse
n 6975 6525 36 36 0 360 DrawEllipse gs col4 1.00 shd ef gr gs col4 s gr

% Ellipse
n 7200 4950 36 36 0 360 DrawEllipse gs col4 1.00 shd ef gr gs col4 s gr

% Ellipse
n 7200 5850 36 36 0 360 DrawEllipse gs col4 1.00 shd ef gr gs col4 s gr

% Ellipse
n 7200 6075 36 36 0 360 DrawEllipse gs col4 1.00 shd ef gr gs col4 s gr

% Ellipse
n 7875 6525 36 36 0 360 DrawEllipse gs col4 1.00 shd ef gr gs col4 s gr

% Ellipse
n 7200 6525 36 36 0 360 DrawEllipse gs col4 1.00 shd ef gr gs col4 s gr

% Ellipse
n 7425 6525 36 36 0 360 DrawEllipse gs col4 1.00 shd ef gr gs col4 s gr

% Ellipse
n 7650 6525 36 36 0 360 DrawEllipse gs col4 1.00 shd ef gr gs col4 s gr

% Ellipse
n 7200 5175 36 36 0 360 DrawEllipse gs col4 1.00 shd ef gr gs col4 s gr

% Ellipse
n 7200 5400 36 36 0 360 DrawEllipse gs col4 1.00 shd ef gr gs col4 s gr

% Ellipse
n 7200 6300 36 36 0 360 DrawEllipse gs col4 1.00 shd ef gr gs col4 s gr

% Ellipse
n 7425 4950 36 36 0 360 DrawEllipse gs col4 1.00 shd ef gr gs col4 s gr

% Ellipse
n 7425 6300 36 36 0 360 DrawEllipse gs col4 1.00 shd ef gr gs col4 s gr

% Ellipse
n 7425 6075 36 36 0 360 DrawEllipse gs col4 1.00 shd ef gr gs col4 s gr

% Ellipse
n 7425 5850 36 36 0 360 DrawEllipse gs col4 1.00 shd ef gr gs col4 s gr

% Ellipse
n 7425 5625 36 36 0 360 DrawEllipse gs col4 1.00 shd ef gr gs col4 s gr

% Ellipse
n 7425 5400 36 36 0 360 DrawEllipse gs col4 1.00 shd ef gr gs col4 s gr

% Ellipse
n 7425 5175 36 36 0 360 DrawEllipse gs col4 1.00 shd ef gr gs col4 s gr

% Ellipse
n 7650 4950 36 36 0 360 DrawEllipse gs col4 1.00 shd ef gr gs col4 s gr

% Ellipse
n 7875 4950 36 36 0 360 DrawEllipse gs col4 1.00 shd ef gr gs col4 s gr

% Ellipse
n 7650 5175 36 36 0 360 DrawEllipse gs col4 1.00 shd ef gr gs col4 s gr

% Ellipse
n 7650 6300 36 36 0 360 DrawEllipse gs col4 1.00 shd ef gr gs col4 s gr

% Ellipse
n 7875 6300 36 36 0 360 DrawEllipse gs col4 1.00 shd ef gr gs col4 s gr

% Ellipse
n 7650 6075 36 36 0 360 DrawEllipse gs col4 1.00 shd ef gr gs col4 s gr

% Ellipse
n 7875 6075 36 36 0 360 DrawEllipse gs col4 1.00 shd ef gr gs col4 s gr

% Ellipse
n 7650 5850 36 36 0 360 DrawEllipse gs col4 1.00 shd ef gr gs col4 s gr

% Ellipse
n 7875 5850 36 36 0 360 DrawEllipse gs col4 1.00 shd ef gr gs col4 s gr

% Ellipse
n 7875 5625 36 36 0 360 DrawEllipse gs col4 1.00 shd ef gr gs col4 s gr

% Ellipse
n 7650 5625 36 36 0 360 DrawEllipse gs col4 1.00 shd ef gr gs col4 s gr

% Ellipse
n 7875 5175 36 36 0 360 DrawEllipse gs col4 1.00 shd ef gr gs col4 s gr

% Ellipse
n 7650 5400 36 36 0 360 DrawEllipse gs col4 1.00 shd ef gr gs col4 s gr

% Ellipse
n 7875 5400 36 36 0 360 DrawEllipse gs col4 1.00 shd ef gr gs col4 s gr

% Ellipse
n 7605 1125 68 68 0 360 DrawEllipse gs col1 1.00 shd ef gr gs col1 s gr

% Ellipse
n 6300 4725 36 36 0 360 DrawEllipse gs col4 1.00 shd ef gr gs col4 s gr

% Ellipse
n 7595 665 142 142 0 360 DrawEllipse gs col13 1.00 shd ef gr gs col13 s gr

% Ellipse
n 7605 1620 68 68 0 360 DrawEllipse gs col4 1.00 shd ef gr gs col4 s gr

% Ellipse
n 5850 4725 36 36 0 360 DrawEllipse gs col4 1.00 shd ef gr gs col4 s gr

% Ellipse
n 5625 4725 36 36 0 360 DrawEllipse gs col4 1.00 shd ef gr gs col4 s gr

% Ellipse
n 5625 4950 36 36 0 360 DrawEllipse gs col4 1.00 shd ef gr gs col4 s gr

% Ellipse
n 6300 4725 484 484 0 360 DrawEllipse gs col13 1.00 shd ef gr gs col13 s gr

% Ellipse
n 6075 5175 36 36 0 360 DrawEllipse gs col4 1.00 shd ef gr gs col4 s gr

% Ellipse
n 5850 4950 36 36 0 360 DrawEllipse gs col4 1.00 shd ef gr gs col4 s gr

% Ellipse
n 5850 4500 36 36 0 360 DrawEllipse gs col4 1.00 shd ef gr gs col4 s gr

% Ellipse
n 6750 4500 36 36 0 360 DrawEllipse gs col4 1.00 shd ef gr gs col4 s gr

% Ellipse
n 6750 4950 36 36 0 360 DrawEllipse gs col4 1.00 shd ef gr gs col4 s gr

% Ellipse
n 6525 5175 36 36 0 360 DrawEllipse gs col4 1.00 shd ef gr gs col4 s gr

% Ellipse
n 6075 4275 36 36 0 360 DrawEllipse gs col4 1.00 shd ef gr gs col4 s gr

% Ellipse
n 6525 4275 36 36 0 360 DrawEllipse gs col4 1.00 shd ef gr gs col4 s gr

% Ellipse
n 6075 4500 36 36 0 360 DrawEllipse gs col4 1.00 shd ef gr gs col4 s gr

% Ellipse
n 5850 4725 36 36 0 360 DrawEllipse gs col4 1.00 shd ef gr gs col4 s gr

% Ellipse
n 6075 4725 36 36 0 360 DrawEllipse gs col4 1.00 shd ef gr gs col4 s gr

% Ellipse
n 6750 4725 36 36 0 360 DrawEllipse gs col4 1.00 shd ef gr gs col4 s gr

% Ellipse
n 6525 4950 36 36 0 360 DrawEllipse gs col4 1.00 shd ef gr gs col4 s gr

% Ellipse
n 6075 4950 36 36 0 360 DrawEllipse gs col4 1.00 shd ef gr gs col4 s gr

% Ellipse
n 6300 5175 36 36 0 360 DrawEllipse gs col4 1.00 shd ef gr gs col4 s gr

% Ellipse
n 6300 4950 36 36 0 360 DrawEllipse gs col4 1.00 shd ef gr gs col4 s gr

% Ellipse
n 6309 4725 36 36 0 360 DrawEllipse gs col4 1.00 shd ef gr gs col4 s gr

% Ellipse
n 6534 4725 36 36 0 360 DrawEllipse gs col4 1.00 shd ef gr gs col4 s gr

% Ellipse
n 6525 4500 36 36 0 360 DrawEllipse gs col4 1.00 shd ef gr gs col4 s gr

% Ellipse
n 6300 4500 36 36 0 360 DrawEllipse gs col4 1.00 shd ef gr gs col4 s gr

% Ellipse
n 6309 4275 36 36 0 360 DrawEllipse gs col4 1.00 shd ef gr gs col4 s gr

% Polyline
0 slj
0 slc
15.000 slw
gs  clippath
6330 310 m 6330 -15 l 6270 -15 l 6270 310 l 6270 310 l 6300 160 l 6330 310 l cp
eoclip
n 6300 0 m
 6300 9450 l gs col0 s gr gr

% arrowhead
60.000 slw
n 6330 310 m 6300 160 l 6270 310 l 6330 310 l  cp gs 0.00 setgray ef gr  col0 s
% Polyline
15.000 slw
gs  clippath
10715 4755 m 11040 4755 l 11040 4695 l 10715 4695 l 10715 4695 l 10865 4725 l 10715 4755 l cp
eoclip
n 1575 4725 m
 11025 4725 l gs col0 s gr gr

% arrowhead
60.000 slw
n 10715 4755 m 10865 4725 l 10715 4695 l 10715 4755 l  cp gs 0.00 setgray ef gr  col0 s
% Polyline
7.500 slw
n 7245 405 m 13320 405 l 13320 1890 l 7245 1890 l
 cp gs col0 s gr 
/Times-Bold ff 476.25 scf sf
6525 405 m
gs 1 -1 sc (y) col0 sh gr
/Times-Bold ff 476.25 scf sf
10620 4500 m
gs 1 -1 sc (x) col0 sh gr
/Times-Bold ff 349.25 scf sf
7965 1710 m
gs 1 -1 sc (atomic wave function grid points) col0 sh gr
/Times-Bold ff 349.25 scf sf
7965 1215 m
gs 1 -1 sc (electromagnetic field grid points) col0 sh gr
/Times-Bold ff 349.25 scf sf
7965 720 m
gs 1 -1 sc (Jellium sphere) col0 sh gr
% here ends figure;
pagefooter
showpage
%%Trailer
%EOF
