169
generated a
H         -6.000000       -6.000000         0.000000 
H         -6.000000       -5.000000         0.000000 
H         -6.000000       -4.000000         0.000000 
H         -6.000000       -3.000000         0.000000 
H         -6.000000       -2.000000         0.000000 
H         -6.000000       -1.000000         0.000000 
H         -6.000000        0.000000         0.000000 
H         -6.000000        1.000000         0.000000 
H         -6.000000        2.000000         0.000000 
H         -6.000000        3.000000         0.000000 
H         -6.000000        4.000000         0.000000 
H         -6.000000        5.000000         0.000000 
H         -6.000000        6.000000         0.000000 
H         -5.000000       -6.000000         0.000000 
H         -5.000000       -5.000000         0.000000 
H         -5.000000       -4.000000         0.000000 
H         -5.000000       -3.000000         0.000000 
H         -5.000000       -2.000000         0.000000 
H         -5.000000       -1.000000         0.000000 
H         -5.000000        0.000000         0.000000 
H         -5.000000        1.000000         0.000000 
H         -5.000000        2.000000         0.000000 
H         -5.000000        3.000000         0.000000 
H         -5.000000        4.000000         0.000000 
H         -5.000000        5.000000         0.000000 
H         -5.000000        6.000000         0.000000 
H         -4.000000       -6.000000         0.000000 
H         -4.000000       -5.000000         0.000000 
H         -4.000000       -4.000000         0.000000 
H         -4.000000       -3.000000         0.000000 
H         -4.000000       -2.000000         0.000000 
H         -4.000000       -1.000000         0.000000 
H         -4.000000        0.000000         0.000000 
H         -4.000000        1.000000         0.000000 
H         -4.000000        2.000000         0.000000 
H         -4.000000        3.000000         0.000000 
H         -4.000000        4.000000         0.000000 
H         -4.000000        5.000000         0.000000 
H         -4.000000        6.000000         0.000000 
H         -3.000000       -6.000000         0.000000 
H         -3.000000       -5.000000         0.000000 
H         -3.000000       -4.000000         0.000000 
H         -3.000000       -3.000000         0.000000 
H         -3.000000       -2.000000         0.000000 
H         -3.000000       -1.000000         0.000000 
H         -3.000000        0.000000         0.000000 
H         -3.000000        1.000000         0.000000 
H         -3.000000        2.000000         0.000000 
H         -3.000000        3.000000         0.000000 
H         -3.000000        4.000000         0.000000 
H         -3.000000        5.000000         0.000000 
H         -3.000000        6.000000         0.000000 
H         -2.000000       -6.000000         0.000000 
H         -2.000000       -5.000000         0.000000 
H         -2.000000       -4.000000         0.000000 
H         -2.000000       -3.000000         0.000000 
H         -2.000000       -2.000000         0.000000 
H         -2.000000       -1.000000         0.000000 
H         -2.000000        0.000000         0.000000 
H         -2.000000        1.000000         0.000000 
H         -2.000000        2.000000         0.000000 
H         -2.000000        3.000000         0.000000 
H         -2.000000        4.000000         0.000000 
H         -2.000000        5.000000         0.000000 
H         -2.000000        6.000000         0.000000 
H         -1.000000       -6.000000         0.000000 
H         -1.000000       -5.000000         0.000000 
H         -1.000000       -4.000000         0.000000 
H         -1.000000       -3.000000         0.000000 
H         -1.000000       -2.000000         0.000000 
H         -1.000000       -1.000000         0.000000 
H         -1.000000        0.000000         0.000000 
H         -1.000000        1.000000         0.000000 
H         -1.000000        2.000000         0.000000 
H         -1.000000        3.000000         0.000000 
H         -1.000000        4.000000         0.000000 
H         -1.000000        5.000000         0.000000 
H         -1.000000        6.000000         0.000000 
H          0.000000       -6.000000         0.000000 
H          0.000000       -5.000000         0.000000 
H          0.000000       -4.000000         0.000000 
H          0.000000       -3.000000         0.000000 
H          0.000000       -2.000000         0.000000 
H          0.000000       -1.000000         0.000000 
H          0.000000        0.000000         0.000000 
H          0.000000        1.000000         0.000000 
H          0.000000        2.000000         0.000000 
H          0.000000        3.000000         0.000000 
H          0.000000        4.000000         0.000000 
H          0.000000        5.000000         0.000000 
H          0.000000        6.000000         0.000000 
H          1.000000       -6.000000         0.000000 
H          1.000000       -5.000000         0.000000 
H          1.000000       -4.000000         0.000000 
H          1.000000       -3.000000         0.000000 
H          1.000000       -2.000000         0.000000 
H          1.000000       -1.000000         0.000000 
H          1.000000        0.000000         0.000000 
H          1.000000        1.000000         0.000000 
H          1.000000        2.000000         0.000000 
H          1.000000        3.000000         0.000000 
H          1.000000        4.000000         0.000000 
H          1.000000        5.000000         0.000000 
H          1.000000        6.000000         0.000000 
H          2.000000       -6.000000         0.000000 
H          2.000000       -5.000000         0.000000 
H          2.000000       -4.000000         0.000000 
H          2.000000       -3.000000         0.000000 
H          2.000000       -2.000000         0.000000 
H          2.000000       -1.000000         0.000000 
H          2.000000        0.000000         0.000000 
H          2.000000        1.000000         0.000000 
H          2.000000        2.000000         0.000000 
H          2.000000        3.000000         0.000000 
H          2.000000        4.000000         0.000000 
H          2.000000        5.000000         0.000000 
H          2.000000        6.000000         0.000000 
H          3.000000       -6.000000         0.000000 
H          3.000000       -5.000000         0.000000 
H          3.000000       -4.000000         0.000000 
H          3.000000       -3.000000         0.000000 
H          3.000000       -2.000000         0.000000 
H          3.000000       -1.000000         0.000000 
H          3.000000        0.000000         0.000000 
H          3.000000        1.000000         0.000000 
H          3.000000        2.000000         0.000000 
H          3.000000        3.000000         0.000000 
H          3.000000        4.000000         0.000000 
H          3.000000        5.000000         0.000000 
H          3.000000        6.000000         0.000000 
H          4.000000       -6.000000         0.000000 
H          4.000000       -5.000000         0.000000 
H          4.000000       -4.000000         0.000000 
H          4.000000       -3.000000         0.000000 
H          4.000000       -2.000000         0.000000 
H          4.000000       -1.000000         0.000000 
H          4.000000        0.000000         0.000000 
H          4.000000        1.000000         0.000000 
H          4.000000        2.000000         0.000000 
H          4.000000        3.000000         0.000000 
H          4.000000        4.000000         0.000000 
H          4.000000        5.000000         0.000000 
H          4.000000        6.000000         0.000000 
H          5.000000       -6.000000         0.000000 
H          5.000000       -5.000000         0.000000 
H          5.000000       -4.000000         0.000000 
H          5.000000       -3.000000         0.000000 
H          5.000000       -2.000000         0.000000 
H          5.000000       -1.000000         0.000000 
H          5.000000        0.000000         0.000000 
H          5.000000        1.000000         0.000000 
H          5.000000        2.000000         0.000000 
H          5.000000        3.000000         0.000000 
H          5.000000        4.000000         0.000000 
H          5.000000        5.000000         0.000000 
H          5.000000        6.000000         0.000000 
H          6.000000       -6.000000         0.000000 
H          6.000000       -5.000000         0.000000 
H          6.000000       -4.000000         0.000000 
H          6.000000       -3.000000         0.000000 
H          6.000000       -2.000000         0.000000 
H          6.000000       -1.000000         0.000000 
H          6.000000        0.000000         0.000000 
H          6.000000        1.000000         0.000000 
H          6.000000        2.000000         0.000000 
H          6.000000        3.000000         0.000000 
H          6.000000        4.000000         0.000000 
H          6.000000        5.000000         0.000000 
H          6.000000        6.000000         0.000000 
