\relax 
\providecommand\hyper@newdestlabel[2]{}
\citation{jackson1998classical}
\@writefile{toc}{\contentsline {chapter}{\numberline {A}Appendix}{128}{Appendix.a.A}}
\@writefile{lof}{\addvspace {10\p@ }}
\@writefile{lot}{\addvspace {10\p@ }}
\@writefile{toc}{\contentsline {section}{\numberline {A.1}Riemann-Silberstein Maxwell's equations in vacuum}{128}{section.a.A.1}}
\newlabel{appendix_chap_Mx_equation_in_RS}{{A.1}{128}{Riemann-Silberstein Maxwell's equations in vacuum}{section.a.A.1}{}}
\@writefile{toc}{\contentsline {subsection}{\numberline {A.1.1}Maxwell divergence condition in Riemann-Silberstein representation}{128}{subsection.a.A.1.1}}
\newlabel{appendix_subsec_Maxwell_Gauss_micro}{{A.1.1}{128}{Maxwell divergence condition in Riemann-Silberstein representation}{subsection.a.A.1.1}{}}
\newlabel{eq_Appendix_Maxwell_equations_micro_Gauss_E}{{A.1}{128}{Maxwell divergence condition in Riemann-Silberstein representation}{equation.a.A.1}{}}
\newlabel{eq_Appendix_Maxwell_equations_micro_Gauss_B}{{A.2}{128}{Maxwell divergence condition in Riemann-Silberstein representation}{equation.a.A.2}{}}
\newlabel{eq_Appendix_RS_Gauss_vacuum_transform_1}{{A.3}{128}{Maxwell divergence condition in Riemann-Silberstein representation}{equation.a.A.3}{}}
\newlabel{eq_Appendix_RS_Gauss_vacuum_transform_2}{{A.4}{128}{Maxwell divergence condition in Riemann-Silberstein representation}{equation.a.A.4}{}}
\newlabel{eq_Appendix_RS_vector_pm}{{A.5}{128}{Maxwell divergence condition in Riemann-Silberstein representation}{equation.a.A.5}{}}
\newlabel{eq_Appendix_RS_Gauss_vacuum_pm}{{A.6}{128}{Maxwell divergence condition in Riemann-Silberstein representation}{equation.a.A.6}{}}
\@writefile{toc}{\contentsline {subsection}{\numberline {A.1.2}Maxwell Amp\`ere's and Faraday's law in Riemann-Silberstein representation}{128}{subsection.a.A.1.2}}
\newlabel{appendix_subsec_Ampere_Faraday_micro}{{A.1.2}{128}{Maxwell Amp\`ere's and Faraday's law in Riemann-Silberstein representation}{subsection.a.A.1.2}{}}
\newlabel{eq_Appendix_Maxwell_equations_micro_Ampere}{{A.7}{129}{Maxwell Amp\`ere's and Faraday's law in Riemann-Silberstein representation}{equation.a.A.7}{}}
\newlabel{eq_Appendix_Maxwell_equations_micro_Faraday}{{A.8}{129}{Maxwell Amp\`ere's and Faraday's law in Riemann-Silberstein representation}{equation.a.A.8}{}}
\newlabel{eq_Appendix_RS_Faraday_Ampere_vacuum_transform_1}{{A.9}{129}{Maxwell Amp\`ere's and Faraday's law in Riemann-Silberstein representation}{equation.a.A.9}{}}
\newlabel{eq_Appendix_RS_Faraday_Ampere_vacuum_transform_2}{{A.10}{129}{Maxwell Amp\`ere's and Faraday's law in Riemann-Silberstein representation}{equation.a.A.10}{}}
\newlabel{eq_Appendix_speed_of_light_vacuum}{{A.11}{129}{Maxwell Amp\`ere's and Faraday's law in Riemann-Silberstein representation}{equation.a.A.11}{}}
\newlabel{eq_Appendix_RS_Faraday_Ampere_vacuum_transform_3}{{A.12}{129}{Maxwell Amp\`ere's and Faraday's law in Riemann-Silberstein representation}{equation.a.A.12}{}}
\newlabel{eq_Appendix_RS_Faraday_Ampere_vacuum_transform_}{{A.13}{129}{Maxwell Amp\`ere's and Faraday's law in Riemann-Silberstein representation}{equation.a.A.13}{}}
\@writefile{toc}{\contentsline {section}{\numberline {A.2}Riemann-Silberstein Maxwell's equations in a linear medium}{129}{section.a.A.2}}
\newlabel{appendix_chapter_01.2}{{A.2}{129}{Riemann-Silberstein Maxwell's equations in a linear medium}{section.a.A.2}{}}
\newlabel{eq_Appendix_RS_Gauss_medium_transform_1}{{A.14}{129}{Riemann-Silberstein Maxwell's equations in a linear medium}{equation.a.A.14}{}}
\newlabel{eq_Appendix_RS_Gauss_medium_transform_2}{{A.16}{129}{Riemann-Silberstein Maxwell's equations in a linear medium}{equation.a.A.16}{}}
\citation{taflove2005computational}
\newlabel{Appendix_eq_RS_Gauss_medium_pm}{{A.18}{130}{Riemann-Silberstein Maxwell's equations in a linear medium}{equation.a.A.18}{}}
\newlabel{eq_Appendix_Maxwells_equation_medium_Faraday_lossy_layer}{{A.19}{130}{Riemann-Silberstein Maxwell's equations in a linear medium}{equation.a.A.19}{}}
\newlabel{eq_Appendix_Maxwells_equation_medium_Ampere_lossy_layer}{{A.20}{130}{Riemann-Silberstein Maxwell's equations in a linear medium}{equation.a.A.20}{}}
\newlabel{eq_Appendix_RS_Faraday_Ampere_medium_transform_1}{{A.21}{130}{Riemann-Silberstein Maxwell's equations in a linear medium}{equation.a.A.21}{}}
\newlabel{eq_Appendix_RS_Faraday_Ampere_medium_transform_2}{{A.22}{130}{Riemann-Silberstein Maxwell's equations in a linear medium}{equation.a.A.22}{}}
\@setckpt{./Riemann_Silberstein_Maxwell_equations/Riemann_Silberstein_Maxwell_equations_appendix}{
\setcounter{page}{131}
\setcounter{equation}{22}
\setcounter{enumi}{0}
\setcounter{enumii}{0}
\setcounter{enumiii}{0}
\setcounter{enumiv}{0}
\setcounter{footnote}{0}
\setcounter{mpfootnote}{0}
\setcounter{part}{0}
\setcounter{chapter}{1}
\setcounter{section}{2}
\setcounter{subsection}{0}
\setcounter{subsubsection}{0}
\setcounter{paragraph}{0}
\setcounter{subparagraph}{0}
\setcounter{figure}{0}
\setcounter{table}{0}
\setcounter{parentequation}{0}
\setcounter{r@tfl@t}{0}
\setcounter{subfigure}{0}
\setcounter{lofdepth}{1}
\setcounter{subtable}{0}
\setcounter{lotdepth}{1}
\setcounter{su@anzahl}{0}
\setcounter{LT@tables}{0}
\setcounter{LT@chunks}{0}
\setcounter{@pps}{1}
\setcounter{@ppsavesec}{6}
\setcounter{@ppsaveapp}{0}
\setcounter{float@type}{4}
\setcounter{Item}{0}
\setcounter{Hfootnote}{0}
\setcounter{bookmark@seq@number}{96}
\setcounter{section@level}{1}
}
