\relax 
\providecommand\hyper@newdestlabel[2]{}
\citation{Silberstein_1907}
\citation{Pryce62}
\citation{Gersten-1999}
\citation{MOHR_2010}
\citation{Silberstein_1907}
\citation{Bialynicki-Birula_1994}
\citation{Bialynicki-Birula_1996}
\citation{Bialynicki-Birula_1994}
\citation{Bialynicki-Birula_1996}
\@writefile{toc}{\contentsline {chapter}{\numberline {1}Maxwell's equations in Riemann-Silberstein formalism}{5}{chapter.1}}
\@writefile{lof}{\addvspace {10\p@ }}
\@writefile{lot}{\addvspace {10\p@ }}
\newlabel{chap_Mx_equation_in_RS}{{1}{5}{Maxwell's equations in Riemann-Silberstein formalism}{chapter.1}{}}
\@writefile{toc}{\contentsline {section}{\numberline {1.1}Riemann-Silberstein microscopic Maxwell's equations}{5}{section.1.1}}
\newlabel{sec_RS_Mx_equations_microscopic}{{1.1}{5}{Riemann-Silberstein microscopic Maxwell's equations}{section.1.1}{}}
\citation{Silberstein_1907}
\citation{Bialynicki-Birula_1996}
\citation{Sameen_Ahmed_Khan_2005}
\@writefile{toc}{\contentsline {subsection}{\numberline {1.1.1}Definition of the microscopic Riemann-Silberstein vectors}{6}{subsection.1.1.1}}
\newlabel{subsec_RS_vectors_micro}{{1.1.1}{6}{Definition of the microscopic Riemann-Silberstein vectors}{subsection.1.1.1}{}}
\newlabel{eq_RS_vector_micro_plus}{{1.1.1}{6}{Definition of the microscopic Riemann-Silberstein vectors}{equation.1.1.1}{}}
\newlabel{eq_RS_vector_micro_minus}{{1.1.2}{6}{Definition of the microscopic Riemann-Silberstein vectors}{equation.1.1.2}{}}
\newlabel{eq_RS_energy_density}{{1.1.4}{6}{Definition of the microscopic Riemann-Silberstein vectors}{equation.1.1.4}{}}
\citation{jackson1998classical}
\newlabel{eq_RS_energy_density_micro}{{1.1.5}{7}{Definition of the microscopic Riemann-Silberstein vectors}{equation.1.1.5}{}}
\newlabel{eq_RS_E_back_transformation_micro}{{1.1.6}{7}{Definition of the microscopic Riemann-Silberstein vectors}{equation.1.1.6}{}}
\newlabel{eq_RS_B_back_transformation_micro}{{1.1.7}{7}{Definition of the microscopic Riemann-Silberstein vectors}{equation.1.1.7}{}}
\@writefile{toc}{\contentsline {subsection}{\numberline {1.1.2}Microscopic Maxwell's equations}{7}{subsection.1.1.2}}
\newlabel{subsec_Maxwell_equations_micro}{{1.1.2}{7}{Microscopic Maxwell's equations}{subsection.1.1.2}{}}
\newlabel{eq_Maxwell_equations_micro_Gauss_E}{{1.1.8}{7}{Microscopic Maxwell's equations}{equation.1.1.8}{}}
\newlabel{eq_Maxwell_equations_micro_Gauss_B}{{1.1.9}{7}{Microscopic Maxwell's equations}{equation.1.1.9}{}}
\newlabel{eq_Maxwell_equations_micro_Faraday}{{1.1.10}{7}{Microscopic Maxwell's equations}{equation.1.1.10}{}}
\newlabel{eq_Maxwell_equations_micro_Ampere}{{1.1.11}{7}{Microscopic Maxwell's equations}{equation.1.1.11}{}}
\newlabel{eq_RS_Gauss_micro_pm}{{1.1.12}{7}{Microscopic Maxwell's equations}{equation.1.1.12}{}}
\citation{Bialynicki-Birula_1996}
\citation{MOHR_2010}
\newlabel{eq_RS_Faraday_Ampere_micro_curl_plus_minus}{{1.1.13}{8}{Microscopic Maxwell's equations}{equation.1.1.13}{}}
\@writefile{toc}{\contentsline {subsection}{\numberline {1.1.3}Curl operation in representation of Spin-1 matrices }{8}{subsection.1.1.3}}
\newlabel{subsec_curl_with_spin_matrices}{{1.1.3}{8}{Curl operation in representation of Spin-1 matrices}{subsection.1.1.3}{}}
\newlabel{eq_cross_product_Spin-1_matrices}{{1.1.14}{8}{Curl operation in representation of Spin-1 matrices}{equation.1.1.14}{}}
\newlabel{eq_Spin-1_matrices_vector}{{1.1.15}{8}{Curl operation in representation of Spin-1 matrices}{equation.1.1.15}{}}
\newlabel{eq_Spin-1_cartesian_matrices}{{1.1.3}{8}{Curl operation in representation of Spin-1 matrices}{equation.1.1.16}{}}
\newlabel{eq_cartesian_Spin_1_basis}{{1.1.17}{8}{Curl operation in representation of Spin-1 matrices}{equation.1.1.17}{}}
\newlabel{eq_a_vector}{{1.1.18}{8}{Curl operation in representation of Spin-1 matrices}{equation.1.1.18}{}}
\citation{wigner1959group}
\citation{MOHR_2010}
\newlabel{eq_vector_cartesian}{{1.1.19}{9}{Curl operation in representation of Spin-1 matrices}{equation.1.1.19}{}}
\newlabel{eq_spherical_Spin_1_basis}{{1.1.23}{9}{Curl operation in representation of Spin-1 matrices}{equation.1.1.23}{}}
\newlabel{eq_vector_spherical}{{1.1.24}{9}{Curl operation in representation of Spin-1 matrices}{equation.1.1.24}{}}
\newlabel{eq_curl_operation}{{1.1.25}{9}{Curl operation in representation of Spin-1 matrices}{equation.1.1.25}{}}
\newlabel{eq_RS_Faraday_Ampere_micro_schroedinger}{{1.1.26}{10}{Curl operation in representation of Spin-1 matrices}{equation.1.1.26}{}}
\newlabel{eq_RS_Faraday_Ampere_micro_spin_matrix_pm}{{1.1.27}{10}{Curl operation in representation of Spin-1 matrices}{equation.1.1.27}{}}
\@writefile{toc}{\contentsline {subsection}{\numberline {1.1.4}Riemann-Silberstein Maxwell Hamiltonian and eigensystem}{10}{subsection.1.1.4}}
\newlabel{subsec_RS_Hamiltonian_and_eigensystem}{{1.1.4}{10}{Riemann-Silberstein Maxwell Hamiltonian and eigensystem}{subsection.1.1.4}{}}
\newlabel{eq_momentum_operator}{{1.1.28}{10}{Riemann-Silberstein Maxwell Hamiltonian and eigensystem}{equation.1.1.28}{}}
\newlabel{eq_energy_momentum_photon}{{1.1.29}{10}{Riemann-Silberstein Maxwell Hamiltonian and eigensystem}{equation.1.1.29}{}}
\newlabel{eq_Maxwell_hamiltonian_micro}{{1.1.30}{10}{Riemann-Silberstein Maxwell Hamiltonian and eigensystem}{equation.1.1.30}{}}
\newlabel{eq_RS_Faraday_Ampere_micro_schroedinger_pm}{{1.1.31}{10}{Riemann-Silberstein Maxwell Hamiltonian and eigensystem}{equation.1.1.31}{}}
\newlabel{eq_RS_Faraday_Ampere_micro_homo_schroedinger_pm}{{1.1.32}{10}{Riemann-Silberstein Maxwell Hamiltonian and eigensystem}{equation.1.1.32}{}}
\citation{Bialynicki-Birula_1996}
\citation{Keller_PhysRevA.62}
\newlabel{eq_RS_stationary}{{1.1.33}{11}{Riemann-Silberstein Maxwell Hamiltonian and eigensystem}{equation.1.1.33}{}}
\newlabel{eq_RS_Faraday_Ampere_micro_eigenvalue}{{1.1.34}{11}{Riemann-Silberstein Maxwell Hamiltonian and eigensystem}{equation.1.1.34}{}}
\@writefile{toc}{\contentsline {subsection}{\numberline {1.1.5}Combined six-component helicity Riemann-Silberstein vector}{11}{subsection.1.1.5}}
\newlabel{subsec_combined_RS_state}{{1.1.5}{11}{Combined six-component helicity Riemann-Silberstein vector}{subsection.1.1.5}{}}
\newlabel{eq_RS_state_micro}{{1.1.35}{11}{Combined six-component helicity Riemann-Silberstein vector}{equation.1.1.35}{}}
\newlabel{eq_RS_charge_density_micro_6_dim}{{1.1.36}{11}{Combined six-component helicity Riemann-Silberstein vector}{equation.1.1.36}{}}
\newlabel{eq_RS_divergence_6_dim_micro}{{1.1.37}{11}{Combined six-component helicity Riemann-Silberstein vector}{equation.1.1.37}{}}
\newlabel{eq_RS_Gauss_micro_6_dim}{{1.1.38}{11}{Combined six-component helicity Riemann-Silberstein vector}{equation.1.1.38}{}}
\newlabel{eq_RS_dot_product_definition}{{1.1.39}{12}{Combined six-component helicity Riemann-Silberstein vector}{equation.1.1.39}{}}
\newlabel{eq_RS_Faraday_Ampere_micro_schroedinger_6x6}{{1.1.40}{12}{Combined six-component helicity Riemann-Silberstein vector}{equation.1.1.40}{}}
\newlabel{eq_Maxwell_hamiltonian_micro_6x6}{{1.1.41}{12}{Combined six-component helicity Riemann-Silberstein vector}{equation.1.1.41}{}}
\newlabel{eq_current_density_6_dim}{{1.1.42}{12}{Combined six-component helicity Riemann-Silberstein vector}{equation.1.1.42}{}}
\newlabel{eq_RS_Faraday_Ampere_micro_schroedinger_homo_6x6}{{1.1.43}{12}{Combined six-component helicity Riemann-Silberstein vector}{equation.1.1.43}{}}
\newlabel{eq_operator_splitting}{{1.1.46}{12}{Combined six-component helicity Riemann-Silberstein vector}{equation.1.1.46}{}}
\citation{Bialynicki-Birula_1996}
\citation{Bialynicki-Birula_1994}
\citation{jackson1998classical}
\citation{jackson1998classical}
\@writefile{toc}{\contentsline {subsection}{\numberline {1.1.6}Photon\nobreakspace  {}-\nobreakspace  {}anti-photon relation of the six-component Riemann-Sil-berstein vector}{13}{subsection.1.1.6}}
\newlabel{subsec_photon_anti-photon}{{1.1.6}{13}{Photon~-~anti-photon relation of the six-component Riemann-Sil-berstein vector}{subsection.1.1.6}{}}
\citation{Keller}
\citation{Keller_PhysRevA.62}
\newlabel{eq_plane_wave_k_condition}{{1.1.51}{14}{Photon~-~anti-photon relation of the six-component Riemann-Sil-berstein vector}{equation.1.1.51}{}}
\newlabel{eq_plane_wave_b_field_condition}{{1.1.52}{14}{Photon~-~anti-photon relation of the six-component Riemann-Sil-berstein vector}{equation.1.1.52}{}}
\newlabel{eq_plane_wave_F_plus_positive}{{1.1.53}{14}{Photon~-~anti-photon relation of the six-component Riemann-Sil-berstein vector}{equation.1.1.53}{}}
\newlabel{eq_plane_wave_F_minus_positive}{{1.1.54}{14}{Photon~-~anti-photon relation of the six-component Riemann-Sil-berstein vector}{equation.1.1.54}{}}
\newlabel{eq_plane_wave_F_plus_negative}{{1.1.55}{14}{Photon~-~anti-photon relation of the six-component Riemann-Sil-berstein vector}{equation.1.1.55}{}}
\newlabel{eq_plane_wave_F_minus_negative}{{1.1.56}{14}{Photon~-~anti-photon relation of the six-component Riemann-Sil-berstein vector}{equation.1.1.56}{}}
\newlabel{eq_F_pm_positive_via_plane_waves}{{1.1.57}{14}{Photon~-~anti-photon relation of the six-component Riemann-Sil-berstein vector}{equation.1.1.57}{}}
\newlabel{eq_F_pm_negative_via_plane_waves}{{1.1.58}{14}{Photon~-~anti-photon relation of the six-component Riemann-Sil-berstein vector}{equation.1.1.58}{}}
\newlabel{eq_photon_anti-photon_condition}{{1.1.61}{14}{Photon~-~anti-photon relation of the six-component Riemann-Sil-berstein vector}{equation.1.1.61}{}}
\citation{Bialynicki-Birula_1996}
\citation{Keller_PhysRevA.62}
\citation{Bialynicki-Birula_1996}
\newlabel{eq_photon_anti-photon_plus_minus_condition}{{1.1.63}{15}{Photon~-~anti-photon relation of the six-component Riemann-Sil-berstein vector}{equation.1.1.63}{}}
\@writefile{toc}{\contentsline {subsection}{\numberline {1.1.7}Scalar product of the six-component Riemann-Silberstein vector}{15}{subsection.1.1.7}}
\newlabel{subsec_RS_scalarproduct}{{1.1.7}{15}{Scalar product of the six-component Riemann-Silberstein vector}{subsection.1.1.7}{}}
\newlabel{eq_Operator_O}{{1.1.64}{15}{Scalar product of the six-component Riemann-Silberstein vector}{equation.1.1.64}{}}
\newlabel{eq_RS_scalar_product}{{1.1.65}{15}{Scalar product of the six-component Riemann-Silberstein vector}{equation.1.1.65}{}}
\newlabel{eq_Maxwell_hamiltonian_micro_6x6_inverse}{{1.1.66}{15}{Scalar product of the six-component Riemann-Silberstein vector}{equation.1.1.66}{}}
\citation{Bialynicki-Birula_1996}
\citation{Fox_2006}
\newlabel{eq_RS_energy_density_micro}{{1.1.67}{16}{Scalar product of the six-component Riemann-Silberstein vector}{equation.1.1.67}{}}
\newlabel{eq_Mx_energy_scalar_1}{{1.1.68}{16}{Scalar product of the six-component Riemann-Silberstein vector}{equation.1.1.68}{}}
\newlabel{eq_Mx_energy_scalar_2}{{1.1.69}{16}{Scalar product of the six-component Riemann-Silberstein vector}{equation.1.1.69}{}}
\@writefile{toc}{\contentsline {subsection}{\numberline {1.1.8}Eigenstate expansion of the Riemann-Silberstein six-vector}{16}{subsection.1.1.8}}
\newlabel{subsec_RS_eigenstate_expansion}{{1.1.8}{16}{Eigenstate expansion of the Riemann-Silberstein six-vector}{subsection.1.1.8}{}}
\citation{Bialynicki-Birula_1996}
\citation{Sameen_Ahmed_Khan_2005}
\citation{jackson1998classical}
\citation{Griffiths}
\citation{Griffiths}
\@writefile{toc}{\contentsline {section}{\numberline {1.2}Riemann-Silberstein approach for macroscopic Maxwell's equations}{17}{section.1.2}}
\newlabel{sec_RS_Mx_equations_macroscopic}{{1.2}{17}{Riemann-Silberstein approach for macroscopic Maxwell's equations}{section.1.2}{}}
\@writefile{toc}{\contentsline {subsection}{\numberline {1.2.1}Riemann-Silberstein Maxwell's equations for linear media}{17}{subsection.1.2.1}}
\newlabel{subsec_Maxwell_linear_medium}{{1.2.1}{17}{Riemann-Silberstein Maxwell's equations for linear media}{subsection.1.2.1}{}}
\newlabel{subsec_Maxwell_linear_medium}{{1.2.1}{17}{Riemann-Silberstein Maxwell's equations for linear media}{subsection.1.2.1}{}}
\newlabel{eq_rho_split_medium}{{1.2.1}{17}{Riemann-Silberstein Maxwell's equations for linear media}{equation.1.2.1}{}}
\newlabel{eq_j_split_medium}{{1.2.2}{17}{Riemann-Silberstein Maxwell's equations for linear media}{equation.1.2.2}{}}
\citation{jackson1998classical}
\citation{Griffiths}
\citation{Bialynicki-Birula_1996}
\citation{jackson1998classical}
\newlabel{eq_definition_D}{{1.2.3}{18}{Riemann-Silberstein Maxwell's equations for linear media}{equation.1.2.3}{}}
\newlabel{eq_definition_H}{{1.2.4}{18}{Riemann-Silberstein Maxwell's equations for linear media}{equation.1.2.4}{}}
\newlabel{eq_definition_D_linear_medium}{{1.2.5}{18}{Riemann-Silberstein Maxwell's equations for linear media}{equation.1.2.5}{}}
\newlabel{eq_definition_H_linear_medium}{{1.2.6}{18}{Riemann-Silberstein Maxwell's equations for linear media}{equation.1.2.6}{}}
\newlabel{eq_definition_epsilon_linear_medium}{{1.2.7}{18}{Riemann-Silberstein Maxwell's equations for linear media}{equation.1.2.7}{}}
\newlabel{eq_definition_mu_linear_medium}{{1.2.8}{18}{Riemann-Silberstein Maxwell's equations for linear media}{equation.1.2.8}{}}
\newlabel{eq_definition_P_linear_medium}{{1.2.9}{18}{Riemann-Silberstein Maxwell's equations for linear media}{equation.1.2.9}{}}
\newlabel{eq_definition_M_linear_medium}{{1.2.10}{18}{Riemann-Silberstein Maxwell's equations for linear media}{equation.1.2.10}{}}
\@writefile{toc}{\contentsline {subsection}{\numberline {1.2.2}Definition of the macroscopic Riemann-Silberstein vectors}{18}{subsection.1.2.2}}
\newlabel{subsec_RS_vectors_macro}{{1.2.2}{18}{Definition of the macroscopic Riemann-Silberstein vectors}{subsection.1.2.2}{}}
\newlabel{eq_RS_vector_macro_plus}{{1.2.11}{18}{Definition of the macroscopic Riemann-Silberstein vectors}{equation.1.2.11}{}}
\newlabel{eq_RS_vector_macro_minus}{{1.2.12}{18}{Definition of the macroscopic Riemann-Silberstein vectors}{equation.1.2.12}{}}
\citation{jackson1998classical}
\citation{Griffiths}
\newlabel{eq_RS_energy_density_macro}{{1.2.13}{19}{Definition of the macroscopic Riemann-Silberstein vectors}{equation.1.2.13}{}}
\newlabel{eq_RS_energy_density_macro_2}{{1.2.14}{19}{Definition of the macroscopic Riemann-Silberstein vectors}{equation.1.2.14}{}}
\@writefile{toc}{\contentsline {subsection}{\numberline {1.2.3}Macroscopic Maxwell's equations}{19}{subsection.1.2.3}}
\newlabel{subsec_Maxwell_equations_macro}{{1.2.3}{19}{Macroscopic Maxwell's equations}{subsection.1.2.3}{}}
\newlabel{eq_Maxwell_equations_macro_Gauss_D}{{1.2.19}{19}{Macroscopic Maxwell's equations}{equation.1.2.19}{}}
\newlabel{eq_Maxwell_equations_macro_Gauss_B}{{1.2.20}{19}{Macroscopic Maxwell's equations}{equation.1.2.20}{}}
\newlabel{eq_Maxwell_equations_macro_Faraday}{{1.2.21}{19}{Macroscopic Maxwell's equations}{equation.1.2.21}{}}
\newlabel{eq_Maxwell_equations_macro_Ampere}{{1.2.22}{19}{Macroscopic Maxwell's equations}{equation.1.2.22}{}}
\newlabel{eq_RS_Gauss_medium_transform_1}{{1.2.23}{20}{Macroscopic Maxwell's equations}{equation.1.2.23}{}}
\newlabel{eq_RS_Gauss_macro_pm}{{1.2.24}{20}{Macroscopic Maxwell's equations}{equation.1.2.24}{}}
\newlabel{eq_K_definition}{{1.2.25}{20}{Macroscopic Maxwell's equations}{equation.1.2.25}{}}
\newlabel{eq_Maxwell_equations_macro_Faraday_lossy_layer}{{1.2.26}{20}{Macroscopic Maxwell's equations}{equation.1.2.26}{}}
\newlabel{eq_Maxwell_equations_macro_Ampere_lossy_layer}{{1.2.27}{20}{Macroscopic Maxwell's equations}{equation.1.2.27}{}}
\newlabel{eq_RS_Faraday_Ampere_macro_transform_1}{{1.2.28}{20}{Macroscopic Maxwell's equations}{equation.1.2.28}{}}
\citation{Sameen_Ahmed_Khan_2005}
\citation{Bialynicki-Birula_1996}
\newlabel{eq_RS_Faraday_Ampere_macro_schroedinger_pm}{{1.2.29}{21}{Macroscopic Maxwell's equations}{equation.1.2.29}{}}
\newlabel{eq_sigma_e_m_definition}{{1.2.30}{21}{Macroscopic Maxwell's equations}{equation.1.2.30}{}}
\newlabel{eq_beta_e_m_definition}{{1.2.31}{21}{Macroscopic Maxwell's equations}{equation.1.2.31}{}}
\@writefile{toc}{\contentsline {subsection}{\numberline {1.2.4}Combined helicity Riemann-Silberstein six-vector in linear medium}{21}{subsection.1.2.4}}
\newlabel{subsec_combined_RS_state_macro}{{1.2.4}{21}{Combined helicity Riemann-Silberstein six-vector in linear medium}{subsection.1.2.4}{}}
\newlabel{eq_RS_vector_macro_6_dim}{{1.2.32}{21}{Combined helicity Riemann-Silberstein six-vector in linear medium}{equation.1.2.32}{}}
\newlabel{eq_RS_Gauss_macro_6_dim}{{1.2.33}{21}{Combined helicity Riemann-Silberstein six-vector in linear medium}{equation.1.2.33}{}}
\newlabel{eq_RS_charge_density_macro_6_dim}{{1.2.34}{21}{Combined helicity Riemann-Silberstein six-vector in linear medium}{equation.1.2.34}{}}
\newlabel{eq_RS_divergence_operator_macro}{{1.2.35}{22}{Combined helicity Riemann-Silberstein six-vector in linear medium}{equation.1.2.35}{}}
\newlabel{eq_current_density_macro_6_dim}{{1.2.36}{22}{Combined helicity Riemann-Silberstein six-vector in linear medium}{equation.1.2.36}{}}
\newlabel{eq_Maxwell_hamiltonian_macro}{{1.2.37}{22}{Combined helicity Riemann-Silberstein six-vector in linear medium}{equation.1.2.37}{}}
\newlabel{eq_RS_Faraday_Ampere_macro_schroedinger_6x6}{{1.2.38}{22}{Combined helicity Riemann-Silberstein six-vector in linear medium}{equation.1.2.38}{}}
\newlabel{eq_Maxwell_hamiltonian_macro_6x6}{{1.2.39}{22}{Combined helicity Riemann-Silberstein six-vector in linear medium}{equation.1.2.39}{}}
\newlabel{eq_Maxwell_hamiltonian_macro_6x6_0}{{1.2.40}{22}{Combined helicity Riemann-Silberstein six-vector in linear medium}{equation.1.2.40}{}}
\citation{Bialynicki-Birula_1996}
\newlabel{eq_Maxwell_RS_Hamiltonian_coupling_medium}{{1.2.41}{23}{Combined helicity Riemann-Silberstein six-vector in linear medium}{equation.1.2.41}{}}
\@setckpt{./Riemann_Silberstein_Maxwell_equations/Riemann_Silberstein_Maxwell_equations}{
\setcounter{page}{24}
\setcounter{equation}{41}
\setcounter{enumi}{0}
\setcounter{enumii}{0}
\setcounter{enumiii}{0}
\setcounter{enumiv}{0}
\setcounter{footnote}{0}
\setcounter{mpfootnote}{0}
\setcounter{part}{0}
\setcounter{chapter}{1}
\setcounter{section}{2}
\setcounter{subsection}{4}
\setcounter{subsubsection}{0}
\setcounter{paragraph}{0}
\setcounter{subparagraph}{0}
\setcounter{figure}{0}
\setcounter{table}{0}
\setcounter{parentequation}{0}
\setcounter{r@tfl@t}{0}
\setcounter{subfigure}{0}
\setcounter{lofdepth}{1}
\setcounter{subtable}{0}
\setcounter{lotdepth}{1}
\setcounter{su@anzahl}{0}
\setcounter{LT@tables}{0}
\setcounter{LT@chunks}{0}
\setcounter{@pps}{0}
\setcounter{@ppsavesec}{0}
\setcounter{@ppsaveapp}{0}
\setcounter{float@type}{4}
\setcounter{Item}{0}
\setcounter{Hfootnote}{0}
\setcounter{bookmark@seq@number}{19}
\setcounter{section@level}{2}
}
