# -*- coding: utf-8 mode: shell-script -*-
# $Id: 01-carbon_atom.05-fhi.inp 13353 2015-03-14 21:08:51Z xavier $
#
# The purpose of this test is making sure that spin-polarized
# calculations work.
# It is the calculation of one atom of Carbon, within the LSDA
# calculation.

CalculationMode = gs
fromScratch = yes
units = ev_angstrom

%Coordinates
"C" | 0 | 0 | 0
%

%Species
"C" | species_pseudo | db_file | "FHI/C.fhi" | lmax | 1 | lloc | 1
%

spacing = 0.19
radius = 5.0

SpinComponents = polarized

ExtraStates = 2
%Occupations
2/3 | 2/3 | 2/3
0 | 0 | 0
%

XCFunctional = lda_x + lda_c_pz

PoissonSolver = fft
PoissonFFTKernel = multipole_correction

ConvRelDens = 4e-6

FromScratch = yes
