# -*- coding: utf-8 mode: shell-script -*-
# $Id: 04-jellium.01-ground_state.inp 13307 2015-03-09 06:55:02Z xavier $
#
# This test calculates the ground-state of a Na8 cluster, described by
# the spherical-jellium model. The calculation reproduces one of the 
# first calculation of this kind; namely the plot of the density and of
# the total self-consistent potential reproduces Fig. 1 of
# [W. Ekardt, Phys. Rev. B 29, 1558 (1984)].
# 

CalculationMode = gs

FromScratch = yes

r_s = 4.0
N_electrons = 8
jradius = r_s * (N_electrons)^(1.0/3.0)

%Species
"jellium" | species_jellium | jellium_radius | jradius | valence | N_electrons
%

%Coordinates
"jellium" | 0 | 0 | 0
%

BoxShape = sphere
Radius  = 18.0
Spacing = 0.5

XCFunctional = lda_x + lda_c_gl


ConvRelDens = 8e-6

EigenSolverTolerance = 1e-5

ParallelizationStrategy = par_domains
