# -*- coding: utf-8 mode: shell-script -*-
# $Id: 13-full_potential_hydrogen.02-gs-cg.inp 13305 2015-03-09 05:49:59Z xavier $

%Coordinates
 'H_f' | 0 | 0 | 0
%
 
%Species 
 'H_f' | species_full_delta
%

BoxShape = sphere
Radius = 8.0
Spacing = 0.4
fromScratch = yes

TheoryLevel = independent_particles

EigenSolverMaxIter = 300

PoissonSolver=cg_corrected

