# -*- coding: utf-8 mode: shell-script -*-
# $Id: 17-scfinlcao_alt.01-gs.inp 13353 2015-03-14 21:08:51Z xavier $
#
CalculationMode = gs
FromScratch = yes
Units = ev_angstrom

# Colmont et al
rCCl  = 1.760
rCH   = 1.080
theta = 108.23 * pi / 180

%Coordinates
 "C"  |                          0 |                          0 |        0       
 "H"  |                          0 |                          0 | rCH            
 "Cl" |                          0 |  rCCl*sin(theta)           | rCCl*cos(theta)
 "Cl" |  rCCl*sin(theta)*sin(pi/3) | -rCCl*sin(theta)*cos(pi/3) | rCCl*cos(theta)
 "Cl" | -rCCl*sin(theta)*sin(pi/3) | -rCCl*sin(theta)*cos(pi/3) | rCCl*cos(theta)
%

%Species
 'C'  | species_pseudo | db_file | "PSF/C.psf"  | lmax | 3 | lloc | 0
 'H'  | species_pseudo | db_file | "PSF/H.psf"  | lmax | 3 | lloc | 0
 'Cl' | species_pseudo | db_file | "PSF/Cl.psf" | lmax | 3 | lloc | 0
%

Spacing = 0.25
Radius = 6.0

XCFunctional = gga_x_pbe + gga_c_pbe

SCFinLCAO = yes
LCAOAlternative = yes
ForceComplex = yes
LCAOComplexYlms = yes
ExperimentalFeatures = yes
