\relax 
\providecommand\hyper@newdestlabel[2]{}
\citation{andrade_2009}
\@writefile{toc}{\contentsline {chapter}{\numberline {5}Maxwell-Pauli-Kohn-Sham propagation on a three-dimensional grid}{90}{chapter.5}}
\@writefile{lof}{\addvspace {10\p@ }}
\@writefile{lot}{\addvspace {10\p@ }}
\newlabel{chap_Maxwell_Pauli_Kohn_Sham_propagation}{{5}{90}{Maxwell-Pauli-Kohn-Sham propagation on a three-dimensional grid}{chapter.5}{}}
\@writefile{toc}{\contentsline {section}{\numberline {5.1}Riemann-Silberstein Maxwell's equations with Kohn-Sham current density}{91}{section.5.1}}
\newlabel{sec_Maxwell_equation_RS_Kohn_Sham_current}{{5.1}{91}{Riemann-Silberstein Maxwell's equations with Kohn-Sham current density}{section.5.1}{}}
\newlabel{eq_Kohn_Sham_densities}{{5.1.1}{91}{Riemann-Silberstein Maxwell's equations with Kohn-Sham current density}{equation.5.1.1}{}}
\newlabel{eq_charge_density_KS}{{5.1.2}{91}{Riemann-Silberstein Maxwell's equations with Kohn-Sham current density}{equation.5.1.2}{}}
\newlabel{eq_total_KS_current}{{5.1.4}{91}{Riemann-Silberstein Maxwell's equations with Kohn-Sham current density}{equation.5.1.4}{}}
\citation{jackson1998classical}
\citation{Griffiths}
\citation{arfken2005mathematical}
\newlabel{eq_paramagnetic_current}{{5.1.5}{92}{Riemann-Silberstein Maxwell's equations with Kohn-Sham current density}{equation.5.1.5}{}}
\newlabel{eq_diamagnetic_current}{{5.1.6}{92}{Riemann-Silberstein Maxwell's equations with Kohn-Sham current density}{equation.5.1.6}{}}
\newlabel{eq_magnetization_current}{{5.1.7}{92}{Riemann-Silberstein Maxwell's equations with Kohn-Sham current density}{equation.5.1.7}{}}
\newlabel{eq_vector_potential_from_B}{{5.1.8}{92}{Riemann-Silberstein Maxwell's equations with Kohn-Sham current density}{equation.5.1.8}{}}
\newlabel{eq_vector_potential_from_E_ansatz}{{5.1.9}{92}{Riemann-Silberstein Maxwell's equations with Kohn-Sham current density}{equation.5.1.9}{}}
\newlabel{eq_vector_potential_from_E}{{5.1.10}{92}{Riemann-Silberstein Maxwell's equations with Kohn-Sham current density}{equation.5.1.10}{}}
\newlabel{eq_RS_Faraday_Ampere_schroedinger_J_loc}{{5.1.11}{93}{Riemann-Silberstein Maxwell's equations with Kohn-Sham current density}{equation.5.1.11}{}}
\newlabel{eq_Mx_Hamiltonian_RS_state_dia_current_operation}{{5.1.12}{93}{Riemann-Silberstein Maxwell's equations with Kohn-Sham current density}{equation.5.1.12}{}}
\newlabel{eq_Mx_Hamiltonian_RS_state_dia_current_operation_t0}{{5.1.13}{93}{Riemann-Silberstein Maxwell's equations with Kohn-Sham current density}{equation.5.1.13}{}}
\newlabel{eq_Maxwell_RS_Hamiltonian_dia_current}{{5.1.14}{93}{Riemann-Silberstein Maxwell's equations with Kohn-Sham current density}{equation.5.1.14}{}}
\newlabel{eq_Maxwell_RS_Hamiltonian_0_kernel}{{5.1.15}{93}{Riemann-Silberstein Maxwell's equations with Kohn-Sham current density}{equation.5.1.15}{}}
\newlabel{eq_Maxwell_RS_Hamiltonian_0_2}{{5.1.16}{93}{Riemann-Silberstein Maxwell's equations with Kohn-Sham current density}{equation.5.1.16}{}}
\newlabel{eq_Maxwell_RS_Hamiltonian_dia_current_B}{{5.1.17}{93}{Riemann-Silberstein Maxwell's equations with Kohn-Sham current density}{equation.5.1.17}{}}
\citation{Sakurai1993Modern}
\newlabel{eq_Maxwell_KS_current_loc_dia_current_6_dim}{{5.1.19}{94}{Riemann-Silberstein Maxwell's equations with Kohn-Sham current density}{equation.5.1.19}{}}
\newlabel{eq_Maxwell_KS_current_loc}{{5.1.20}{94}{Riemann-Silberstein Maxwell's equations with Kohn-Sham current density}{equation.5.1.20}{}}
\newlabel{eq_total_KS_current_6_dim}{{5.1.21}{94}{Riemann-Silberstein Maxwell's equations with Kohn-Sham current density}{equation.5.1.21}{}}
\newlabel{eq_RS_Faraday_Ampere_schroedinger}{{5.1.22}{94}{Riemann-Silberstein Maxwell's equations with Kohn-Sham current density}{equation.5.1.22}{}}
\newlabel{eq_RS_Faraday_Ampere_schroedinger_J_loc}{{5.1.23}{94}{Riemann-Silberstein Maxwell's equations with Kohn-Sham current density}{equation.5.1.23}{}}
\@writefile{toc}{\contentsline {section}{\numberline {5.2}Riemann-Silberstein Maxwell propagation coupled to the Kohn-Sham current density}{94}{section.5.2}}
\newlabel{sec_RS_propagation_coupled_to_KS}{{5.2}{94}{Riemann-Silberstein Maxwell propagation coupled to the Kohn-Sham current density}{section.5.2}{}}
\newlabel{eq_RS_time_evolution_operator_inhomo_J_loc}{{5.2.1}{94}{Riemann-Silberstein Maxwell propagation coupled to the Kohn-Sham current density}{equation.5.2.1}{}}
\newlabel{eq_RS_Faraday_Ampere_schroedinger_J_loc_homo}{{5.2.2}{95}{Riemann-Silberstein Maxwell propagation coupled to the Kohn-Sham current density}{equation.5.2.2}{}}
\newlabel{eq_RS_time_evolution_properties}{{5.2.3}{95}{Riemann-Silberstein Maxwell propagation coupled to the Kohn-Sham current density}{equation.5.2.3}{}}
\newlabel{eq_RS_time_evolution_dia_current_ansatz}{{5.2.5}{95}{Riemann-Silberstein Maxwell propagation coupled to the Kohn-Sham current density}{equation.5.2.5}{}}
\newlabel{eq_RS_time_evolution_homogen_diamagnetic_current}{{5.2.6}{95}{Riemann-Silberstein Maxwell propagation coupled to the Kohn-Sham current density}{equation.5.2.6}{}}
\newlabel{eq_RS_homogeneous_time_evolution_2}{{5.2.8}{95}{Riemann-Silberstein Maxwell propagation coupled to the Kohn-Sham current density}{equation.5.2.8}{}}
\newlabel{eq_RS_homogeneous_time_evolution_operator_2}{{5.2.9}{95}{Riemann-Silberstein Maxwell propagation coupled to the Kohn-Sham current density}{equation.5.2.9}{}}
\citation{Castro2004}
\newlabel{eq_RS_Faraday_Ampere_schroedinger_inhomogen}{{5.2.10}{96}{Riemann-Silberstein Maxwell propagation coupled to the Kohn-Sham current density}{equation.5.2.10}{}}
\newlabel{eq_RS_time_evolution_equation_diamagnetic_current}{{5.2.11}{96}{Riemann-Silberstein Maxwell propagation coupled to the Kohn-Sham current density}{equation.5.2.11}{}}
\newlabel{eq_RS_time_evolution_equation_diamagnetic_current_2}{{5.2.12}{96}{Riemann-Silberstein Maxwell propagation coupled to the Kohn-Sham current density}{equation.5.2.12}{}}
\newlabel{eq_RS_time_evolution_equation_diamagnetic_current_2}{{5.2.13}{96}{Riemann-Silberstein Maxwell propagation coupled to the Kohn-Sham current density}{equation.5.2.13}{}}
\newlabel{eq_RS_time_evolution_equation_diamagnetic_current_div}{{5.2.14}{96}{Riemann-Silberstein Maxwell propagation coupled to the Kohn-Sham current density}{equation.5.2.14}{}}
\@writefile{toc}{\contentsline {section}{\numberline {5.3}Discretized time-evolution and Time-reversal symmetry of the Maxwell system}{96}{section.5.3}}
\newlabel{sec_discretized_time_evolution_Maxwell_fields}{{5.3}{96}{Discretized time-evolution and Time-reversal symmetry of the Maxwell system}{section.5.3}{}}
\newlabel{eq_RS_time_evolution_equation_recursive_KS}{{5.3.1}{96}{Discretized time-evolution and Time-reversal symmetry of the Maxwell system}{equation.5.3.1}{}}
\citation{Castro2004}
\citation{Pueyo2018}
\newlabel{eq_RS_time_evolution_equation_recursive_etrs}{{5.3.2}{97}{Discretized time-evolution and Time-reversal symmetry of the Maxwell system}{equation.5.3.2}{}}
\newlabel{eq_RS_time_evolution_equation_recursive_numerical}{{5.3.3}{97}{Discretized time-evolution and Time-reversal symmetry of the Maxwell system}{equation.5.3.3}{}}
\newlabel{eq_RS_time_evolution_equation_recursive_numerical_etrs}{{5.3.4}{97}{Discretized time-evolution and Time-reversal symmetry of the Maxwell system}{equation.5.3.4}{}}
\@writefile{toc}{\contentsline {section}{\numberline {5.4}Discretized time-evolution and Time-reversal symmetry of the matter system}{97}{section.5.4}}
\newlabel{sec_discretized_time_evolution_Kohn_Sham_orbitals}{{5.4}{97}{Discretized time-evolution and Time-reversal symmetry of the matter system}{section.5.4}{}}
\citation{Castro2004}
\newlabel{eq_MPKS_Hamiltonian}{{5.4.1}{98}{Discretized time-evolution and Time-reversal symmetry of the matter system}{equation.5.4.1}{}}
\newlabel{eq_MPKS_hamiltonian}{{5.4.3}{98}{Discretized time-evolution and Time-reversal symmetry of the matter system}{equation.5.4.3}{}}
\newlabel{eq_matter_time_evolution_equation}{{5.4.4}{98}{Discretized time-evolution and Time-reversal symmetry of the matter system}{equation.5.4.4}{}}
\newlabel{eq_matter_time_evolution_operator}{{5.4.5}{98}{Discretized time-evolution and Time-reversal symmetry of the matter system}{equation.5.4.5}{}}
\newlabel{eq_matter_time_evolution_equation_recursive_etrs}{{5.4.8}{98}{Discretized time-evolution and Time-reversal symmetry of the matter system}{equation.5.4.8}{}}
\newlabel{eq_matter_time_evolution_operator_recursive_etrs}{{5.4.9}{98}{Discretized time-evolution and Time-reversal symmetry of the matter system}{equation.5.4.9}{}}
\citation{Loudon}
\@writefile{toc}{\contentsline {section}{\numberline {5.5}Kohn-Sham interaction Hamiltonian}{99}{section.5.5}}
\newlabel{sec_interaction_hamiltonian}{{5.5}{99}{Kohn-Sham interaction Hamiltonian}{section.5.5}{}}
\@writefile{toc}{\contentsline {subsection}{\numberline {5.5.1}Full minimal coupling}{99}{subsection.5.5.1}}
\newlabel{subsec_full_minimal_coupling}{{5.5.1}{99}{Full minimal coupling}{subsection.5.5.1}{}}
\newlabel{eq_MPKS_hamiltonian}{{5.5.1}{99}{Full minimal coupling}{equation.5.5.1}{}}
\newlabel{eq_MPKS_kinetic_hamiltonian}{{5.5.2}{99}{Full minimal coupling}{equation.5.5.2}{}}
\newlabel{eq_MPKS_interaction_hamiltonian}{{5.5.3}{99}{Full minimal coupling}{equation.5.5.3}{}}
\@writefile{toc}{\contentsline {subsection}{\numberline {5.5.2}Multipole expansion}{100}{subsection.5.5.2}}
\newlabel{subsec_multipole_expansion}{{5.5.2}{100}{Multipole expansion}{subsection.5.5.2}{}}
\newlabel{eq_MPKS_hamiltonian_PWZ}{{5.5.9}{100}{Multipole expansion}{equation.5.5.9}{}}
\citation{loudon1988}
\citation{rokaj2018light}
\citation{spohn2004}
\citation{arfken2005mathematical}
\citation{doi:10.1002/pssb.200642067}
\citation{Octopus_2015}
\newlabel{eq_electric_dipole_hamiltonian}{{5.5.11}{101}{Multipole expansion}{equation.5.5.11}{}}
\newlabel{eq_magnetic_dipole_hamiltonian}{{5.5.13}{101}{Multipole expansion}{equation.5.5.13}{}}
\@writefile{toc}{\contentsline {subsection}{\numberline {5.5.3}Transverse Riemann-Silberstein vector calculation}{101}{subsection.5.5.3}}
\newlabel{subsec_trans_vector_calculation}{{5.5.3}{101}{Transverse Riemann-Silberstein vector calculation}{subsection.5.5.3}{}}
\newlabel{eq_helmholtz_decomposition}{{5.5.16}{101}{Transverse Riemann-Silberstein vector calculation}{equation.5.5.16}{}}
\@writefile{toc}{\contentsline {section}{\numberline {5.6}Maxwell-Kohn-Sham multi-scale implementation}{102}{section.5.6}}
\newlabel{sec_Mx_Ks_multi_scale}{{5.6}{102}{Maxwell-Kohn-Sham multi-scale implementation}{section.5.6}{}}
\@writefile{toc}{\contentsline {subsection}{\numberline {5.6.1}Multi-grid types}{102}{subsection.5.6.1}}
\newlabel{sub_sec_multi_grid_types}{{5.6.1}{102}{Multi-grid types}{subsection.5.6.1}{}}
\@writefile{lof}{\contentsline {figure}{\numberline {5.1}{\ignorespaces Multiscale grid types for the Kohn-Sham and Maxwell grid}}{103}{figure.5.1}}
\newlabel{fig_multiscale_grids}{{5.1}{103}{Multiscale grid types for the Kohn-Sham and Maxwell grid}{figure.5.1}{}}
\@writefile{toc}{\contentsline {subsection}{\numberline {5.6.2}Multi-scales in time}{104}{subsection.5.6.2}}
\newlabel{sub_sec_multi_scales_in_time}{{5.6.2}{104}{Multi-scales in time}{subsection.5.6.2}{}}
\citation{ItkinFiniteDifference}
\citation{strikwerda2004finite}
\citation{levy1961finite}
\citation{doi:10.1002/pssb.200642067}
\citation{Octopus_2015}
\citation{Octopus_2015}
\newlabel{eq_RS_time_evolution_equation_recursive_numerical_approx_etrs}{{5.6.3}{105}{Multi-scales in time}{equation.5.6.3}{}}
\@writefile{toc}{\contentsline {subsection}{\numberline {5.6.3}Finite difference operators and parallelization strategy}{105}{subsection.5.6.3}}
\newlabel{sub_sec_parallelization}{{5.6.3}{105}{Finite difference operators and parallelization strategy}{subsection.5.6.3}{}}
\newlabel{fig_multigrid_parallel_matter_maxwell}{{5.6.3}{105}{Finite difference operators and parallelization strategy}{subsection.5.6.3}{}}
\@writefile{lof}{\contentsline {figure}{\numberline {5.2}{\ignorespaces Domain parallelization of matter and Maxwell grid}}{105}{figure.5.2}}
\citation{doi:10.1002/pssb.200642067}
\citation{marques2003}
\@writefile{toc}{\contentsline {subsection}{\numberline {5.6.4}Predictor-corrector method}{106}{subsection.5.6.4}}
\newlabel{subsec_predictor_corrector}{{5.6.4}{106}{Predictor-corrector method}{subsection.5.6.4}{}}
\@writefile{toc}{\contentsline {subsection}{\numberline {5.6.5}Forward coupling}{106}{subsection.5.6.5}}
\newlabel{subsec_forward_coupling}{{5.6.5}{106}{Forward coupling}{subsection.5.6.5}{}}
\@writefile{lof}{\contentsline {figure}{\numberline {5.3}{\ignorespaces Predictor-corrector scheme of a Maxwell-Kohn-Sham propagation step}}{107}{figure.5.3}}
\newlabel{fig_predictor_corrector}{{5.6.4}{107}{Predictor-corrector method}{figure.5.3}{}}
\@writefile{toc}{\contentsline {subsection}{\numberline {5.6.6}Forward and backward coupling}{107}{subsection.5.6.6}}
\newlabel{subsec_forward_and_backward_coupling}{{5.6.6}{107}{Forward and backward coupling}{subsection.5.6.6}{}}
\@writefile{toc}{\contentsline {section}{\numberline {5.7}Simulation of open quantum systems with the Maxwell-Kohn-Sham propagation}{108}{section.5.7}}
\newlabel{sec_open_quantum_systems}{{5.7}{108}{Simulation of open quantum systems with the Maxwell-Kohn-Sham propagation}{section.5.7}{}}
\@writefile{toc}{\contentsline {section}{\numberline {5.8}Electromagnetic detectors}{108}{section.5.8}}
\newlabel{sec_electromagnetic_detectors}{{5.8}{108}{Electromagnetic detectors}{section.5.8}{}}
\citation{Marques2006}
\@writefile{lof}{\contentsline {figure}{\numberline {5.4}{\ignorespaces Electromagnetic detectors at the simulation boundaries}}{109}{figure.5.4}}
\newlabel{fig_plane_wave_and_pml_boundaries_and_detector}{{5.4}{109}{Electromagnetic detectors at the simulation boundaries}{figure.5.4}{}}
\@writefile{toc}{\contentsline {section}{\numberline {5.9}Broken time reversal symmetry}{109}{section.5.9}}
\newlabel{sec_broken_time_reversal_symmetry}{{5.9}{109}{Broken time reversal symmetry}{section.5.9}{}}
\@setckpt{./Maxwell_Pauli_Kohn_Sham_propagation_on_grid/Maxwell_Pauli_Kohn_Sham_propagation_on_grid}{
\setcounter{page}{110}
\setcounter{equation}{0}
\setcounter{enumi}{0}
\setcounter{enumii}{0}
\setcounter{enumiii}{0}
\setcounter{enumiv}{0}
\setcounter{footnote}{0}
\setcounter{mpfootnote}{0}
\setcounter{part}{0}
\setcounter{chapter}{5}
\setcounter{section}{9}
\setcounter{subsection}{0}
\setcounter{subsubsection}{0}
\setcounter{paragraph}{0}
\setcounter{subparagraph}{0}
\setcounter{figure}{4}
\setcounter{table}{0}
\setcounter{parentequation}{0}
\setcounter{r@tfl@t}{0}
\setcounter{subfigure}{0}
\setcounter{lofdepth}{1}
\setcounter{subtable}{0}
\setcounter{lotdepth}{1}
\setcounter{su@anzahl}{0}
\setcounter{LT@tables}{0}
\setcounter{LT@chunks}{0}
\setcounter{@pps}{0}
\setcounter{@ppsavesec}{0}
\setcounter{@ppsaveapp}{0}
\setcounter{float@type}{4}
\setcounter{Item}{0}
\setcounter{Hfootnote}{0}
\setcounter{bookmark@seq@number}{67}
\setcounter{section@level}{1}
}
