CalculationMode = gs

%Coordinates
 'H' |  0.717157 | 0 | 0
 'H' | -0.717157 | 0 | 0
%

MaximumIter = 0

SpinComponents = spin_polarized

ExcessCharge = 1

Spacing = 0.5

TheoryLevel = dft

XCFunctional = hyb_mgga_xc_m05

%Occupations
0.8
0.2
%
