\relax 
\providecommand\hyper@newdestlabel[2]{}
\providecommand\HyperFirstAtBeginDocument{\AtBeginDocument}
\HyperFirstAtBeginDocument{\ifx\hyper@anchor\@undefined
\global\let\oldcontentsline\contentsline
\gdef\contentsline#1#2#3#4{\oldcontentsline{#1}{#2}{#3}}
\global\let\oldnewlabel\newlabel
\gdef\newlabel#1#2{\newlabelxx{#1}#2}
\gdef\newlabelxx#1#2#3#4#5#6{\oldnewlabel{#1}{{#2}{#3}}}
\AtEndDocument{\ifx\hyper@anchor\@undefined
\let\contentsline\oldcontentsline
\let\newlabel\oldnewlabel
\fi}
\fi}
\global\let\hyper@last\relax 
\gdef\HyperFirstAtBeginDocument#1{#1}
\providecommand*\HyPL@Entry[1]{}
\HyPL@Entry{0<</P(1)>>}
\@writefile{toc}{\beamer@endinputifotherversion {3.24pt}}
\@writefile{nav}{\beamer@endinputifotherversion {3.24pt}}
\select@language{english}
\@writefile{toc}{\select@language{english}}
\@writefile{lof}{\select@language{english}}
\@writefile{lot}{\select@language{english}}
\@writefile{snm}{\beamer@slide {MX_v_1}{1}}
\newlabel{MX_v_1}{{1}{1}{}{Doc-Start}{}}
\@writefile{snm}{\beamer@slide {MX_v_2}{1}}
\newlabel{MX_v_2}{{2}{1}{}{Doc-Start}{}}
\@writefile{snm}{\beamer@slide {MX_v_3}{1}}
\newlabel{MX_v_3}{{3}{1}{}{Doc-Start}{}}
\@writefile{snm}{\beamer@slide {MX_v_4}{1}}
\newlabel{MX_v_4}{{4}{1}{}{Doc-Start}{}}
\@writefile{snm}{\beamer@slide {RS_v}{1}}
\newlabel{RS_v}{{5}{1}{}{Doc-Start}{}}
\@writefile{snm}{\beamer@slide {div_F_v}{1}}
\newlabel{div_F_v}{{6}{1}{}{Doc-Start}{}}
\@writefile{nav}{\headcommand {\slideentry {0}{0}{1}{1/1}{}{0}}}
\@writefile{nav}{\headcommand {\beamer@framepages {1}{1}}}
\@writefile{nav}{\headcommand {\beamer@partpages {1}{1}}}
\@writefile{nav}{\headcommand {\beamer@subsectionpages {1}{1}}}
\@writefile{nav}{\headcommand {\beamer@sectionpages {1}{1}}}
\@writefile{nav}{\headcommand {\beamer@documentpages {1}}}
\@writefile{nav}{\headcommand {\def \inserttotalframenumber {1}}}
