\relax 
\providecommand\hyper@newdestlabel[2]{}
\citation{jackson1998classical}
\citation{jackson1998classical}
\citation{greiner1996}
\@writefile{toc}{\contentsline {chapter}{\numberline {A}Non-relativistic Pauli Hamiltonian in Coulomb gauge}{137}{Appendix.a.A}}
\@writefile{lof}{\addvspace {10\p@ }}
\@writefile{lot}{\addvspace {10\p@ }}
\newlabel{chap_appendix_hamiltonian_for_quantum_electrodynamics}{{A}{137}{Non-relativistic Pauli Hamiltonian in Coulomb gauge}{Appendix.a.A}{}}
\@writefile{toc}{\contentsline {section}{\numberline {A.1}Vector potential and Coulomb gauge}{137}{section.a.A.1}}
\newlabel{sec_appendix_vector_potential_Coulomb_gauge}{{A.1}{137}{Vector potential and Coulomb gauge}{section.a.A.1}{}}
\newlabel{eq_Maxwell_equations_vector_potential}{{A.1.1}{137}{Vector potential and Coulomb gauge}{equation.a.A.1.1}{}}
\newlabel{eq_electric_field_via_vector_potential}{{A.1.2}{137}{Vector potential and Coulomb gauge}{equation.a.A.1.2}{}}
\newlabel{eq_magnetic_field_via_vector_potential}{{A.1.3}{137}{Vector potential and Coulomb gauge}{equation.a.A.1.3}{}}
\newlabel{eq_Maxwell_equations_vector_potential_homogeneous}{{A.1.6}{137}{Vector potential and Coulomb gauge}{equation.a.A.1.6}{}}
\citation{jackson1998classical}
\citation{thaller2013}
\citation{spohn2004}
\citation{Komech:1493301}
\citation{spohn2004}
\citation{miyao2009}
\citation{konenberg2011}
\citation{hiroshima2014}
\citation{greiner1996}
\citation{thirring2013}
\citation{greiner1996}
\newlabel{eq_Coulomb_condition}{{A.1.7}{138}{Vector potential and Coulomb gauge}{equation.a.A.1.7}{}}
\newlabel{eq_Maxwell_equations_with_A_Coulomb}{{A.1.8}{138}{Vector potential and Coulomb gauge}{equation.a.A.1.8}{}}
\@writefile{toc}{\contentsline {section}{\numberline {A.2}Pauli-equation as non-relativistic limit of coupled light-matter systems}{138}{section.a.A.2}}
\newlabel{sec_appendix_Pauli_equation}{{A.2}{138}{Pauli-equation as non-relativistic limit of coupled light-matter systems}{section.a.A.2}{}}
\newlabel{eq_minimal_coupling_momentum}{{A.2.1}{138}{Pauli-equation as non-relativistic limit of coupled light-matter systems}{equation.a.A.2.1}{}}
\newlabel{eq_Pauli_equation}{{A.2.2}{138}{Pauli-equation as non-relativistic limit of coupled light-matter systems}{equation.a.A.2.2}{}}
\@writefile{toc}{\contentsline {section}{\numberline {A.3}Free matter Hamiltonians}{139}{section.a.A.3}}
\newlabel{sec_appendix_free_matter_hamiltonian}{{A.3}{139}{Free matter Hamiltonians}{section.a.A.3}{}}
\newlabel{eq_RN7}{{A.3.1}{139}{Free matter Hamiltonians}{equation.a.A.3.1}{}}
\newlabel{eq_Pauli_Hamiltonian}{{A.3.2}{139}{Free matter Hamiltonians}{equation.a.A.3.2}{}}
\newlabel{eq_mat_kin_0}{{A.3.3}{139}{Free matter Hamiltonians}{equation.a.A.3.3}{}}
\citation{greiner1996}
\citation{Keller}
\citation{greiner1996}
\citation{greiner1996}
\citation{greiner1996}
\citation{greiner1996}
\newlabel{eq_Pauli_Hamiltonian_N}{{A.3.6}{140}{Free matter Hamiltonians}{equation.a.A.3.6}{}}
\newlabel{eq_RN10}{{A.3.7}{140}{Free matter Hamiltonians}{equation.a.A.3.7}{}}
\@writefile{toc}{\contentsline {section}{\numberline {A.4}Free photon Hamiltonian}{140}{section.a.A.4}}
\newlabel{sec_appendix_free_photon_hamiltonian}{{A.4}{140}{Free photon Hamiltonian}{section.a.A.4}{}}
\newlabel{eq_RN19}{{A.4.2}{140}{Free photon Hamiltonian}{equation.a.A.4.2}{}}
\citation{greiner1996}
\citation{greiner1996}
\citation{greiner1996}
\citation{greiner1996}
\newlabel{eq_E_field_operator}{{A.4.3}{141}{Free photon Hamiltonian}{equation.a.A.4.3}{}}
\newlabel{eq_B_field_operator}{{A.4.4}{141}{Free photon Hamiltonian}{equation.a.A.4.4}{}}
\newlabel{eq_Hp_1}{{A.4.5}{141}{Free photon Hamiltonian}{equation.a.A.4.5}{}}
\newlabel{eq_RN13}{{A.4.7}{141}{Free photon Hamiltonian}{equation.a.A.4.7}{}}
\newlabel{eq_RN12}{{A.4.8}{141}{Free photon Hamiltonian}{equation.a.A.4.8}{}}
\newlabel{eq_Hp_2}{{A.4.9}{141}{Free photon Hamiltonian}{equation.a.A.4.9}{}}
\newlabel{eq_H_ph_free}{{A.4.10}{141}{Free photon Hamiltonian}{equation.a.A.4.10}{}}
\citation{jackson1998classical}
\citation{Keller}
\newlabel{eq_H_int_ext_trans}{{A.4.11}{142}{Free photon Hamiltonian}{equation.a.A.4.11}{}}
\newlabel{eq_H_int_ext_long}{{A.4.12}{142}{Free photon Hamiltonian}{equation.a.A.4.12}{}}
\newlabel{eq_Maxwell_vector_inhomogeneous}{{A.4.13}{142}{Free photon Hamiltonian}{equation.a.A.4.13}{}}
\newlabel{eq_zero_j_ext}{{A.4.14}{142}{Free photon Hamiltonian}{equation.a.A.4.14}{}}
\newlabel{eq_Maxwell_vector_inhomogeneous_2}{{A.4.15}{142}{Free photon Hamiltonian}{equation.a.A.4.15}{}}
\newlabel{eq_RS_QED_operator_pm}{{A.4.16}{142}{Free photon Hamiltonian}{equation.a.A.4.16}{}}
\newlabel{eq_H_ph_free_RS}{{A.4.17}{142}{Free photon Hamiltonian}{equation.a.A.4.17}{}}
\newlabel{eq_RS_Faraday_Ampere_operator_trans_ext}{{A.4.18}{142}{Free photon Hamiltonian}{equation.a.A.4.18}{}}
\citation{Keller}
\citation{Keller}
\citation{Keller}
\citation{Keller}
\newlabel{eq_RS_Gauss_operator_trans_ext}{{A.4.19}{143}{Free photon Hamiltonian}{equation.a.A.4.19}{}}
\newlabel{eq_RS_Faraday_Ampere_classical_long_ext}{{A.4.20}{143}{Free photon Hamiltonian}{equation.a.A.4.20}{}}
\newlabel{eq_RS_Gauss_classical_long_ext}{{A.4.21}{143}{Free photon Hamiltonian}{equation.a.A.4.21}{}}
\newlabel{eq_RS_QED_operator_pm_2}{{A.4.22}{143}{Free photon Hamiltonian}{equation.a.A.4.22}{}}
\newlabel{eq_spin_helicity_identity_creation}{{A.4.23}{143}{Free photon Hamiltonian}{equation.a.A.4.23}{}}
\newlabel{eq_spin_helicity_identity_annihilation}{{A.4.24}{143}{Free photon Hamiltonian}{equation.a.A.4.24}{}}
\newlabel{eq_creation_spin}{{A.4.25}{143}{Free photon Hamiltonian}{equation.a.A.4.25}{}}
\newlabel{eq_annihilation_spin}{{A.4.26}{143}{Free photon Hamiltonian}{equation.a.A.4.26}{}}
\newlabel{eq_RS_QED_operator_pm_3}{{A.4.27}{143}{Free photon Hamiltonian}{equation.a.A.4.27}{}}
\citation{greiner1996}
\citation{Ruggenthaler_2014}
\newlabel{eq_RS_QED_operator_pm_positive}{{A.4.28}{144}{Free photon Hamiltonian}{equation.a.A.4.28}{}}
\newlabel{eq_RS_QED_operator_pm_negative}{{A.4.29}{144}{Free photon Hamiltonian}{equation.a.A.4.29}{}}
\@writefile{toc}{\contentsline {section}{\numberline {A.5}Interaction Hamiltonians}{144}{section.a.A.5}}
\newlabel{sec_appendix_QED_interaction_hamiltonian}{{A.5}{144}{Interaction Hamiltonians}{section.a.A.5}{}}
\@writefile{toc}{\contentsline {subsection}{\numberline {A.5.1}Longitudinal (Coulomb) interactions}{144}{subsection.a.A.5.1}}
\newlabel{subsec_appendix_Coulomb_interaction}{{A.5.1}{144}{Longitudinal (Coulomb) interactions}{subsection.a.A.5.1}{}}
\newlabel{eq_charge_density_operator}{{A.5.1}{144}{Longitudinal (Coulomb) interactions}{equation.a.A.5.1}{}}
\citation{Atkins_Friedman_2011}
\citation{magnetization_current_1999}
\newlabel{eq_H_int_mat}{{A.5.3}{145}{Longitudinal (Coulomb) interactions}{equation.a.A.5.3}{}}
\newlabel{eq_RN16}{{A.5.4}{145}{Longitudinal (Coulomb) interactions}{equation.a.A.5.4}{}}
\newlabel{eq_H_int_mat_2}{{A.5.5}{145}{Longitudinal (Coulomb) interactions}{equation.a.A.5.5}{}}
\@writefile{toc}{\contentsline {subsection}{\numberline {A.5.2}Transverse interactions}{145}{subsection.a.A.5.2}}
\newlabel{subsec_appendix_transverse_interaction}{{A.5.2}{145}{Transverse interactions}{subsection.a.A.5.2}{}}
\newlabel{eq_total_vector_potential}{{A.5.6}{145}{Transverse interactions}{equation.a.A.5.6}{}}
\newlabel{eq_total_vector_potential_scalar}{{A.5.7}{145}{Transverse interactions}{equation.a.A.5.7}{}}
\citation{Ruggenthaler_2014}
\newlabel{eq_matter_current}{{A.5.8}{146}{Transverse interactions}{equation.a.A.5.8}{}}
\newlabel{eq_paramagnetic_current}{{A.5.9}{146}{Transverse interactions}{equation.a.A.5.9}{}}
\newlabel{eq_diamagnetic_current}{{A.5.10}{146}{Transverse interactions}{equation.a.A.5.10}{}}
\newlabel{eq_current_mat_ext}{{A.5.12}{146}{Transverse interactions}{equation.a.A.5.12}{}}
\newlabel{eq_H_int_ext_trans_2}{{A.5.13}{146}{Transverse interactions}{equation.a.A.5.13}{}}
\newlabel{eq_H_int_mat_trans}{{A.5.14}{146}{Transverse interactions}{equation.a.A.5.14}{}}
\newlabel{eq_H_int_mat_trans_2}{{A.5.15}{147}{Transverse interactions}{equation.a.A.5.15}{}}
\@setckpt{./appendix/appendix}{
\setcounter{page}{148}
\setcounter{equation}{20}
\setcounter{enumi}{0}
\setcounter{enumii}{0}
\setcounter{enumiii}{0}
\setcounter{enumiv}{0}
\setcounter{footnote}{0}
\setcounter{mpfootnote}{0}
\setcounter{part}{0}
\setcounter{chapter}{1}
\setcounter{section}{5}
\setcounter{subsection}{2}
\setcounter{subsubsection}{0}
\setcounter{paragraph}{0}
\setcounter{subparagraph}{0}
\setcounter{figure}{0}
\setcounter{table}{0}
\setcounter{parentequation}{0}
\setcounter{r@tfl@t}{0}
\setcounter{subfigure}{0}
\setcounter{lofdepth}{1}
\setcounter{subtable}{0}
\setcounter{lotdepth}{1}
\setcounter{su@anzahl}{0}
\setcounter{LT@tables}{0}
\setcounter{LT@chunks}{0}
\setcounter{@pps}{1}
\setcounter{@ppsavesec}{6}
\setcounter{@ppsaveapp}{0}
\setcounter{float@type}{4}
\setcounter{Item}{0}
\setcounter{Hfootnote}{0}
\setcounter{bookmark@seq@number}{90}
\setcounter{section@level}{2}
}
