%!PS-Adobe-3.0
%%Title: Predictor_corrector.fig
%%Creator: fig2dev Version 3.2 Patchlevel 5d
%%CreationDate: Tue Mar 18 22:20:00 2014
%%Orientation: Portrait
%%Pages: 2
%%BoundingBox: 0 0 595 842
%%DocumentPaperSizes: a4
%Magnification: 1.0000
%%EndComments
%%BeginSetup
[{
%%BeginFeature: *PageRegion A4
<</PageSize [595 842]>> setpagedevice
%%EndFeature
} stopped cleartomark
%%EndSetup
%%BeginProlog
/$F2psDict 200 dict def
$F2psDict begin
$F2psDict /mtrx matrix put
/col-1 {0 setgray} bind def
/col0 {0.000 0.000 0.000 srgb} bind def
/col1 {0.000 0.000 1.000 srgb} bind def
/col2 {0.000 1.000 0.000 srgb} bind def
/col3 {0.000 1.000 1.000 srgb} bind def
/col4 {1.000 0.000 0.000 srgb} bind def
/col5 {1.000 0.000 1.000 srgb} bind def
/col6 {1.000 1.000 0.000 srgb} bind def
/col7 {1.000 1.000 1.000 srgb} bind def
/col8 {0.000 0.000 0.560 srgb} bind def
/col9 {0.000 0.000 0.690 srgb} bind def
/col10 {0.000 0.000 0.820 srgb} bind def
/col11 {0.530 0.810 1.000 srgb} bind def
/col12 {0.000 0.560 0.000 srgb} bind def
/col13 {0.000 0.690 0.000 srgb} bind def
/col14 {0.000 0.820 0.000 srgb} bind def
/col15 {0.000 0.560 0.560 srgb} bind def
/col16 {0.000 0.690 0.690 srgb} bind def
/col17 {0.000 0.820 0.820 srgb} bind def
/col18 {0.560 0.000 0.000 srgb} bind def
/col19 {0.690 0.000 0.000 srgb} bind def
/col20 {0.820 0.000 0.000 srgb} bind def
/col21 {0.560 0.000 0.560 srgb} bind def
/col22 {0.690 0.000 0.690 srgb} bind def
/col23 {0.820 0.000 0.820 srgb} bind def
/col24 {0.500 0.190 0.000 srgb} bind def
/col25 {0.630 0.250 0.000 srgb} bind def
/col26 {0.750 0.380 0.000 srgb} bind def
/col27 {1.000 0.500 0.500 srgb} bind def
/col28 {1.000 0.630 0.630 srgb} bind def
/col29 {1.000 0.750 0.750 srgb} bind def
/col30 {1.000 0.880 0.880 srgb} bind def
/col31 {1.000 0.840 0.000 srgb} bind def

end

/cp {closepath} bind def
/ef {eofill} bind def
/gr {grestore} bind def
/gs {gsave} bind def
/sa {save} bind def
/rs {restore} bind def
/l {lineto} bind def
/m {moveto} bind def
/rm {rmoveto} bind def
/n {newpath} bind def
/s {stroke} bind def
/sh {show} bind def
/slc {setlinecap} bind def
/slj {setlinejoin} bind def
/slw {setlinewidth} bind def
/srgb {setrgbcolor} bind def
/rot {rotate} bind def
/sc {scale} bind def
/sd {setdash} bind def
/ff {findfont} bind def
/sf {setfont} bind def
/scf {scalefont} bind def
/sw {stringwidth} bind def
/tr {translate} bind def
/tnt {dup dup currentrgbcolor
  4 -2 roll dup 1 exch sub 3 -1 roll mul add
  4 -2 roll dup 1 exch sub 3 -1 roll mul add
  4 -2 roll dup 1 exch sub 3 -1 roll mul add srgb}
  bind def
/shd {dup dup currentrgbcolor 4 -2 roll mul 4 -2 roll mul
  4 -2 roll mul srgb} bind def
/$F2psBegin {$F2psDict begin /$F2psEnteredState save def} def
/$F2psEnd {$F2psEnteredState restore end} def

/pageheader {
save
newpath 0 842 moveto 0 0 lineto 595 0 lineto 595 842 lineto closepath clip newpath
-90.8 699.7 translate
$F2psBegin
10 setmiterlimit
0 slj 0 slc
 0.06299 0.06299 sc
} bind def
/pagefooter {
$F2psEnd
restore
} bind def
%%EndProlog
%%Page: 1 1
%%BeginPageSetup
pageheader
1 -1 scale
%%EndPageSetup
%
% Fig objects follow
%
% 
% here starts figure with depth 50
% Polyline
0 slj
0 slc
7.500 slw
n 855 810 m
 855 8010 l gs col0 s gr 
/Times-Roman ff 238.13 scf sf
225 2160 m
gs 1 -1 sc ($t+\\Delta$) col0 sh gr
/Times-Roman ff 238.13 scf sf
360 6435 m
gs 1 -1 sc ($t$) col0 sh gr
/Times-Roman ff 238.13 scf sf
5220 2700 m
gs 1 -1 sc ($\\mathcal{F}^{\(*\)}\(t\) \\Rightarrow \\vec{E}^{\(*\)}\(t\)$) col0 sh gr
/Times-Roman ff 238.13 scf sf
11610 2700 m
gs 1 -1 sc ($\\mathcal{F}^{\(**\)}\(t\) \\Rightarrow \\vec{E}^{\(**\)}\(t\)$) col0 sh gr
/Times-Roman ff 238.13 scf sf
5355 6975 m
gs 1 -1 sc ($\\mathcal{F}\(t\) \\Rightarrow \\vec{E}\(t\)$) col0 sh gr
/Times-Roman ff 238.13 scf sf
12105 7110 m
gs 1 -1 sc ($\\mathcal{F}\(t\) \\Rightarrow \\vec{E}\(t\)$) col0 sh gr
/Times-Roman ff 238.13 scf sf
1935 7965 m
gs 1 -1 sc ($\\Psi\(t\) \\Rightarrow \\vec{J}\(t\)$) col0 sh gr
/Times-Roman ff 238.13 scf sf
1935 1800 m
gs 1 -1 sc ($\\Psi^{\(*\)}\(t\) \\Rightarrow \\vec{J}^{\(*\)}\(t\)$) col0 sh gr
/Times-Roman ff 238.13 scf sf
8685 1800 m
gs 1 -1 sc ($\\Psi^{\(**\)}\(t\) \\Rightarrow \\vec{J}^{\(**\)}\(t\)$) col0 sh gr
/Times-Roman ff 238.13 scf sf
9135 7920 m
gs 1 -1 sc ($\\Psi\(t\) \\Rightarrow \\vec{J}\(t\)$) col0 sh gr
% here ends figure;
pagefooter
showpage
%%Trailer
%EOF
