# -*- coding: utf-8 mode: shell-script -*-
# $Id: 03-neon.03-casida.inp 13356 2015-03-14 23:36:41Z xavier $
#

FromScratch = yes
CalculationMode = casida

Dimensions = 1
Spacing = 0.2
Radius = 50.0

%Species
  "Neon1D" | species_user_defined | potential_formula | "-10/sqrt(0.25 + x^2)" | valence | 10
%

%Coordinates
  "Neon1D" | 0 
%

CasidaKohnShamStates = "2-10"
