\relax 
\@writefile{toc}{\contentsline {chapter}{\numberline {1}Maxwell's equations}{1}}
\@writefile{lof}{\addvspace {10\p@ }}
\@writefile{lot}{\addvspace {10\p@ }}
\@writefile{toc}{\contentsline {chapter}{\numberline {2}Hamiltonians}{3}}
\@writefile{lof}{\addvspace {10\p@ }}
\@writefile{lot}{\addvspace {10\p@ }}
\@writefile{toc}{\contentsline {section}{\numberline {2.1}Dirac equation}{3}}
\@writefile{toc}{\contentsline {section}{\numberline {2.2}Dirac equation in electromagnetic field}{3}}
\@writefile{toc}{\contentsline {section}{\numberline {2.3}Pauli equation}{3}}
\@writefile{toc}{\contentsline {chapter}{\numberline {3}Current density}{5}}
\@writefile{lof}{\addvspace {10\p@ }}
\@writefile{lot}{\addvspace {10\p@ }}
\@writefile{toc}{\contentsline {chapter}{\numberline {4}Interesting topics}{7}}
\@writefile{lof}{\addvspace {10\p@ }}
\@writefile{lot}{\addvspace {10\p@ }}
\@writefile{toc}{\contentsline {section}{\numberline {4.1}Casimir effect}{7}}
\@writefile{toc}{\contentsline {section}{\numberline {4.2}Land\'e factor and Larmor precision}{7}}
