\relax 
\providecommand\hyper@newdestlabel[2]{}
\@writefile{toc}{\contentsline {chapter}{\numberline {2}Riemann-Silberstein time-evolution of Maxwell fields in Schr\"odinger-like form}{24}{chapter.2}}
\@writefile{lof}{\addvspace {10\p@ }}
\@writefile{lot}{\addvspace {10\p@ }}
\newlabel{chap_RS_Mx_time_evolution}{{2}{24}{Riemann-Silberstein time-evolution of Maxwell fields in Schr\"odinger-like form}{chapter.2}{}}
\@writefile{toc}{\contentsline {section}{\numberline {2.1}Time-evolution of homogeneous microscopic Maxwell's equations}{24}{section.2.1}}
\newlabel{sec_RS_Mx_time_evolution_micro_homogeneous}{{2.1}{24}{Time-evolution of homogeneous microscopic Maxwell's equations}{section.2.1}{}}
\newlabel{eq_RS_Gauss_micro_homogeneous}{{2.1.1}{24}{Time-evolution of homogeneous microscopic Maxwell's equations}{equation.2.1.1}{}}
\citation{PhysRev.28.1049}
\citation{griffiths2014introduction}
\citation{griffiths2014introduction}
\citation{Moretti_2013}
\newlabel{eq_RS_Faraday_Ampere_micro_schroedinger_6x6_homogeneous}{{2.1.2}{25}{Time-evolution of homogeneous microscopic Maxwell's equations}{equation.2.1.2}{}}
\newlabel{eq_matter_time_evolution_operator_H_const}{{2.1.4}{25}{Time-evolution of homogeneous microscopic Maxwell's equations}{equation.2.1.4}{}}
\newlabel{eq_psi_time_evolution_psi}{{2.1.5}{25}{Time-evolution of homogeneous microscopic Maxwell's equations}{equation.2.1.5}{}}
\newlabel{eq_time_evolution_RS_state}{{2.1.6}{25}{Time-evolution of homogeneous microscopic Maxwell's equations}{equation.2.1.6}{}}
\newlabel{eq_time_evolution_unity}{{2.1.7}{25}{Time-evolution of homogeneous microscopic Maxwell's equations}{equation.2.1.7}{}}
\newlabel{eq_Mx_energy_unitary_condition}{{2.1.8}{25}{Time-evolution of homogeneous microscopic Maxwell's equations}{equation.2.1.8}{}}
\newlabel{eq_U_unitary_condition}{{2.1.9}{26}{Time-evolution of homogeneous microscopic Maxwell's equations}{equation.2.1.9}{}}
\newlabel{ep_matter_time_evolution_operator_composition}{{2.1.10}{26}{Time-evolution of homogeneous microscopic Maxwell's equations}{equation.2.1.10}{}}
\newlabel{eq_RS_time_evolution_operator_ansatz}{{2.1.11}{26}{Time-evolution of homogeneous microscopic Maxwell's equations}{equation.2.1.11}{}}
\newlabel{eq_RS_U_unitary_condition}{{2.1.12}{26}{Time-evolution of homogeneous microscopic Maxwell's equations}{equation.2.1.12}{}}
\newlabel{eq_RS_U_composition_condition}{{2.1.13}{26}{Time-evolution of homogeneous microscopic Maxwell's equations}{equation.2.1.13}{}}
\newlabel{eq_RS_time_evolution_operator_composition}{{2.1.14}{26}{Time-evolution of homogeneous microscopic Maxwell's equations}{equation.2.1.14}{}}
\newlabel{eq_RS_time_evolution_operator_micro_homo}{{2.1.15}{26}{Time-evolution of homogeneous microscopic Maxwell's equations}{equation.2.1.15}{}}
\citation{Ioana_Serban_2005}
\citation{Mamadou_Ndong_2009}
\@writefile{toc}{\contentsline {section}{\numberline {2.2}Time-evolution of inhomogeneous microscopic Riemann-Silberstein six-vector}{27}{section.2.2}}
\newlabel{sec_RS_Mx_time_evolution_inhomogeneous}{{2.2}{27}{Time-evolution of inhomogeneous microscopic Riemann-Silberstein six-vector}{section.2.2}{}}
\newlabel{eq_RS_Gauss_micro_6_dim_2}{{2.2.1}{27}{Time-evolution of inhomogeneous microscopic Riemann-Silberstein six-vector}{equation.2.2.1}{}}
\newlabel{eq_RS_Faraday_Ampere_micro_schroedinger_6x6_inhomogeneous}{{2.2.2}{27}{Time-evolution of inhomogeneous microscopic Riemann-Silberstein six-vector}{equation.2.2.2}{}}
\newlabel{eq_RS_current_density_auxiliary_expression}{{2.2.3}{27}{Time-evolution of inhomogeneous microscopic Riemann-Silberstein six-vector}{equation.2.2.3}{}}
\newlabel{eq_auxiliary_matrix_A}{{2.2.4}{27}{Time-evolution of inhomogeneous microscopic Riemann-Silberstein six-vector}{equation.2.2.4}{}}
\newlabel{eq_time_evolution_RS_state_inhomogeneous}{{2.2.5}{27}{Time-evolution of inhomogeneous microscopic Riemann-Silberstein six-vector}{equation.2.2.5}{}}
\newlabel{eq_RS_time_evolution_inhomo}{{2.2.6}{27}{Time-evolution of inhomogeneous microscopic Riemann-Silberstein six-vector}{equation.2.2.6}{}}
\citation{Ioana_Serban_2005}
\citation{Mamadou_Ndong_2009}
\newlabel{eq_RS_time_evolution_inhomo_short}{{2.2.7}{28}{Time-evolution of inhomogeneous microscopic Riemann-Silberstein six-vector}{equation.2.2.7}{}}
\newlabel{eq_time_evolution_inhomo_ansatz}{{2.2.8}{28}{Time-evolution of inhomogeneous microscopic Riemann-Silberstein six-vector}{equation.2.2.8}{}}
\newlabel{eq_RS_time_evolution_inhomo_solution}{{2.2.11}{28}{Time-evolution of inhomogeneous microscopic Riemann-Silberstein six-vector}{equation.2.2.11}{}}
\newlabel{eq_RS_time_evolution_operator_inhomo}{{2.2.13}{28}{Time-evolution of inhomogeneous microscopic Riemann-Silberstein six-vector}{equation.2.2.13}{}}
\newlabel{eq_RS_time_evolution_operator_inhomo_2}{{2.2.14}{28}{Time-evolution of inhomogeneous microscopic Riemann-Silberstein six-vector}{equation.2.2.14}{}}
\citation{Moretti_2013}
\citation{Moretti_2013}
\@writefile{toc}{\contentsline {section}{\numberline {2.3}Time-evolution of macroscopic Maxwell's equations in linear medium}{29}{section.2.3}}
\newlabel{sec_RS_Mx_time_evolution_medium}{{2.3}{29}{Time-evolution of macroscopic Maxwell's equations in linear medium}{section.2.3}{}}
\newlabel{eq_RS_Faraday_Ampere_macro_schroedinger_6x6_homogeneous}{{2.3.1}{29}{Time-evolution of macroscopic Maxwell's equations in linear medium}{equation.2.3.1}{}}
\newlabel{eq_RS_time_evolution_operator_ansatz_macro}{{2.3.2}{29}{Time-evolution of macroscopic Maxwell's equations in linear medium}{equation.2.3.2}{}}
\newlabel{eq_RS_time_evolution_operator_macro_homo_series}{{2.3.4}{29}{Time-evolution of macroscopic Maxwell's equations in linear medium}{equation.2.3.4}{}}
\newlabel{eq_RS_time_evolution_operator_macro_homo}{{2.3.5}{30}{Time-evolution of macroscopic Maxwell's equations in linear medium}{equation.2.3.5}{}}
\newlabel{eq_RS_time_evolution_operator_micro_homo_const_time}{{2.3.6}{30}{Time-evolution of macroscopic Maxwell's equations in linear medium}{equation.2.3.6}{}}
\newlabel{eq_RS_Faraday_Ampere_micro_schroedinger_6x6_inhomogeneous}{{2.3.7}{30}{Time-evolution of macroscopic Maxwell's equations in linear medium}{equation.2.3.7}{}}
\newlabel{eq_RS_time_evolution_operator_inhomo_macro}{{2.3.8}{30}{Time-evolution of macroscopic Maxwell's equations in linear medium}{equation.2.3.8}{}}
\@writefile{toc}{\contentsline {section}{\numberline {2.4}Conservation of electric and magnetic Gau\ss {} laws in time}{30}{section.2.4}}
\newlabel{sec_Gauss_law_time_evolution_conservation}{{2.4}{30}{Conservation of electric and magnetic Gau\ss {} laws in time}{section.2.4}{}}
\citation{jackson1998classical}
\newlabel{eq_divergence_conditon_initial}{{2.4.1}{31}{Conservation of electric and magnetic Gau\ss {} laws in time}{equation.2.4.1}{}}
\newlabel{eq_divergence_conditon_at_time_t}{{2.4.2}{31}{Conservation of electric and magnetic Gau\ss {} laws in time}{equation.2.4.2}{}}
\newlabel{eq_divergence_conditon_at_time_t_evolution}{{2.4.3}{31}{Conservation of electric and magnetic Gau\ss {} laws in time}{equation.2.4.3}{}}
\newlabel{eq_divergence_conditon_at_time_t_evolution_homogeneous}{{2.4.5}{31}{Conservation of electric and magnetic Gau\ss {} laws in time}{equation.2.4.5}{}}
\newlabel{eq_continuity_equation}{{2.4.6}{31}{Conservation of electric and magnetic Gau\ss {} laws in time}{equation.2.4.6}{}}
\newlabel{eq_continuity_equation_RS}{{2.4.7}{31}{Conservation of electric and magnetic Gau\ss {} laws in time}{equation.2.4.7}{}}
\newlabel{eq_divergence_conditon_at_time_t_evolution_2}{{2.4.8}{31}{Conservation of electric and magnetic Gau\ss {} laws in time}{equation.2.4.8}{}}
\newlabel{eq_divergence_conditon_at_time_t_evolution_3}{{2.4.9}{32}{Conservation of electric and magnetic Gau\ss {} laws in time}{equation.2.4.9}{}}
\@setckpt{./Riemann_Silberstein_Maxwell_time_evolution_in_Schroedinger_form/Riemann_Silberstein_Maxwell_time_evolution_in_Schroedinger_form}{
\setcounter{page}{33}
\setcounter{equation}{9}
\setcounter{enumi}{0}
\setcounter{enumii}{0}
\setcounter{enumiii}{0}
\setcounter{enumiv}{0}
\setcounter{footnote}{0}
\setcounter{mpfootnote}{0}
\setcounter{part}{0}
\setcounter{chapter}{2}
\setcounter{section}{4}
\setcounter{subsection}{0}
\setcounter{subsubsection}{0}
\setcounter{paragraph}{0}
\setcounter{subparagraph}{0}
\setcounter{figure}{0}
\setcounter{table}{0}
\setcounter{parentequation}{0}
\setcounter{r@tfl@t}{0}
\setcounter{subfigure}{0}
\setcounter{lofdepth}{1}
\setcounter{subtable}{0}
\setcounter{lotdepth}{1}
\setcounter{su@anzahl}{0}
\setcounter{LT@tables}{0}
\setcounter{LT@chunks}{0}
\setcounter{@pps}{0}
\setcounter{@ppsavesec}{0}
\setcounter{@ppsaveapp}{0}
\setcounter{float@type}{4}
\setcounter{Item}{0}
\setcounter{Hfootnote}{0}
\setcounter{bookmark@seq@number}{24}
\setcounter{section@level}{1}
}
