%!PS-Adobe-3.0 EPSF-3.0
%%Title: Predictor_corrector_2.fig
%%Creator: fig2dev Version 3.2 Patchlevel 5d
%%CreationDate: Fri Mar 28 20:48:12 2014
%%BoundingBox: 0 0 320 179
%Magnification: 0.6000
%%EndComments
%%BeginProlog
/$F2psDict 200 dict def
$F2psDict begin
$F2psDict /mtrx matrix put
/col-1 {0 setgray} bind def
/col0 {0.000 0.000 0.000 srgb} bind def
/col1 {0.000 0.000 1.000 srgb} bind def
/col2 {0.000 1.000 0.000 srgb} bind def
/col3 {0.000 1.000 1.000 srgb} bind def
/col4 {1.000 0.000 0.000 srgb} bind def
/col5 {1.000 0.000 1.000 srgb} bind def
/col6 {1.000 1.000 0.000 srgb} bind def
/col7 {1.000 1.000 1.000 srgb} bind def
/col8 {0.000 0.000 0.560 srgb} bind def
/col9 {0.000 0.000 0.690 srgb} bind def
/col10 {0.000 0.000 0.820 srgb} bind def
/col11 {0.530 0.810 1.000 srgb} bind def
/col12 {0.000 0.560 0.000 srgb} bind def
/col13 {0.000 0.690 0.000 srgb} bind def
/col14 {0.000 0.820 0.000 srgb} bind def
/col15 {0.000 0.560 0.560 srgb} bind def
/col16 {0.000 0.690 0.690 srgb} bind def
/col17 {0.000 0.820 0.820 srgb} bind def
/col18 {0.560 0.000 0.000 srgb} bind def
/col19 {0.690 0.000 0.000 srgb} bind def
/col20 {0.820 0.000 0.000 srgb} bind def
/col21 {0.560 0.000 0.560 srgb} bind def
/col22 {0.690 0.000 0.690 srgb} bind def
/col23 {0.820 0.000 0.820 srgb} bind def
/col24 {0.500 0.190 0.000 srgb} bind def
/col25 {0.630 0.250 0.000 srgb} bind def
/col26 {0.750 0.380 0.000 srgb} bind def
/col27 {1.000 0.500 0.500 srgb} bind def
/col28 {1.000 0.630 0.630 srgb} bind def
/col29 {1.000 0.750 0.750 srgb} bind def
/col30 {1.000 0.880 0.880 srgb} bind def
/col31 {1.000 0.840 0.000 srgb} bind def

end

/cp {closepath} bind def
/ef {eofill} bind def
/gr {grestore} bind def
/gs {gsave} bind def
/sa {save} bind def
/rs {restore} bind def
/l {lineto} bind def
/m {moveto} bind def
/rm {rmoveto} bind def
/n {newpath} bind def
/s {stroke} bind def
/sh {show} bind def
/slc {setlinecap} bind def
/slj {setlinejoin} bind def
/slw {setlinewidth} bind def
/srgb {setrgbcolor} bind def
/rot {rotate} bind def
/sc {scale} bind def
/sd {setdash} bind def
/ff {findfont} bind def
/sf {setfont} bind def
/scf {scalefont} bind def
/sw {stringwidth} bind def
/tr {translate} bind def
/tnt {dup dup currentrgbcolor
  4 -2 roll dup 1 exch sub 3 -1 roll mul add
  4 -2 roll dup 1 exch sub 3 -1 roll mul add
  4 -2 roll dup 1 exch sub 3 -1 roll mul add srgb}
  bind def
/shd {dup dup currentrgbcolor 4 -2 roll mul 4 -2 roll mul
  4 -2 roll mul srgb} bind def
/$F2psBegin {$F2psDict begin /$F2psEnteredState save def} def
/$F2psEnd {$F2psEnteredState restore end} def

/pageheader {
save
newpath 0 179 moveto 0 0 lineto 320 0 lineto 320 179 lineto closepath clip newpath
4.0 179.4 translate
1 -1 scale
$F2psBegin
10 setmiterlimit
0 slj 0 slc
 0.03780 0.03780 sc
} bind def
/pagefooter {
$F2psEnd
restore
} bind def
%%EndProlog
pageheader
%
% Fig objects follow
%
% 
% here starts figure with depth 50
% Polyline
0 slj
0 slc
15.000 slw
gs  clippath
705 395 m 705 210 l 645 210 l 645 395 l 645 395 l 675 245 l 705 395 l cp
eoclip
n 675 225 m
 675 4725 l gs col0 s gr gr

% arrowhead
7.500 slw
n 705 395 m 675 245 l 645 395 l 705 395 l  cp gs 0.00 setgray ef gr  col0 s
% Polyline
gs  clippath
120 1936 m 120 1785 l 60 1785 l 60 1936 l 60 1936 l 90 1816 l 120 1936 l cp
eoclip
n 90 2880 m
 90 1800 l gs col0 s gr gr

% arrowhead
n 120 1936 m 90 1816 l 60 1936 l 120 1936 l  cp gs 0.00 setgray ef gr  col0 s
% Polyline
n 3375 2250 m
 3375 765 l gs col1 s gr 
% Polyline
n 5400 2250 m
 5400 765 l gs col4 s gr 
% Polyline
n 5400 4050 m
 5400 2565 l gs col4 s gr 
% Polyline
n 7200 2250 m
 7200 765 l gs col1 s gr 
% Polyline
n 7200 4050 m
 7200 2565 l gs col1 s gr 
% Polyline
15.000 slw
 [90] 0 sd
n 4500 225 m
 4500 4725 l gs col0 s gr  [] 0 sd
% Polyline
 [90] 0 sd
n 8325 225 m
 8325 4725 l gs col0 s gr  [] 0 sd
% Polyline
 [15 30] 30 sd
n 1890 2250 m
 1890 765 l gs col4 s gr  [] 0 sd
% Polyline
 [15 30] 30 sd
n 1890 4050 m
 1890 2565 l gs col4 s gr  [] 0 sd
% Polyline
7.500 slw
n 3375 4050 m
 3375 2565 l gs col1 s gr 
% Polyline
15.000 slw
 [30] 0 sd
gs  clippath
3242 3262 m 3372 3341 l 3403 3290 l 3274 3211 l 3274 3211 l 3361 3300 l 3242 3262 l cp
eoclip
n 2160 2565 m
 3375 3308 l gs col4 s gr gr
 [] 0 sd
% arrowhead
7.500 slw
n 3242 3262 m 3361 3300 l 3274 3211 l 3242 3262 l  cp gs col4 1.00 shd ef gr  col4 s
/Times-Roman ff 190.50 scf sf
630 180 m
gs 1 -1 sc ($t$) col0 sh gr
/Times-Roman ff 190.50 scf sf
1980 4635 m
gs 1 -1 sc (Predictor step) col0 sh gr
/Times-Roman ff 190.50 scf sf
5850 4590 m
gs 1 -1 sc (Corrector step) col0 sh gr
/Times-Roman ff 158.75 scf sf
225 4230 m
gs 1 -1 sc ($t_0$) col0 sh gr
/Times-Roman ff 190.50 scf sf
270 2475 m
gs 1 -1 sc ($t'$) col0 sh gr
/Times-Roman ff 190.50 scf sf
225 675 m
gs 1 -1 sc ($t''$) col0 sh gr
/Times-Roman ff 190.50 scf sf
45 2475 m
gs 1 -1 sc  90.0 rot (time) col0 sh gr
/Times-Roman ff 190.50 scf sf
990 2475 m
gs 1 -1 sc ($\\Psi\(t'\) \\Rightarrow \\vec{J}\(t'\)$) col4 sh gr
/Times-Roman ff 190.50 scf sf
990 4275 m
gs 1 -1 sc ($\\Psi\(t_0\) \\Rightarrow \\vec{J}\(t_0\)$) col4 sh gr
/Times-Roman ff 190.50 scf sf
2745 2475 m
gs 1 -1 sc ($\\mathcal{F}\(t'\) \\Rightarrow \\vec{E}\(t'\)$) col1 sh gr
/Times-Roman ff 190.50 scf sf
2745 4275 m
gs 1 -1 sc ($\\mathcal{F}\(t_0\) \\Rightarrow \\vec{E}\(t_0\)$) col1 sh gr
/Times-Roman ff 190.50 scf sf
4815 2475 m
gs 1 -1 sc ($\\Psi\(t'\) \\Rightarrow \\vec{J}\(t'\)$) col4 sh gr
/Times-Roman ff 190.50 scf sf
4815 4275 m
gs 1 -1 sc ($\\Psi\(t_0\) \\Rightarrow \\vec{J}\(t_0\)$) col4 sh gr
/Times-Roman ff 190.50 scf sf
990 675 m
gs 1 -1 sc ($\\Psi\(t''\) \\Rightarrow \\vec{J}\(t''\)$) col4 sh gr
/Times-Roman ff 190.50 scf sf
4815 675 m
gs 1 -1 sc ($\\Psi\(t''\) \\Rightarrow \\vec{J}\(t''\)$) col4 sh gr
/Times-Roman ff 190.50 scf sf
2745 675 m
gs 1 -1 sc ($\\mathcal{F}\(t''\) \\Rightarrow \\vec{E}\(t''\)$) col1 sh gr
/Times-Roman ff 190.50 scf sf
6570 675 m
gs 1 -1 sc ($\\mathcal{F}\(t''\) \\Rightarrow \\vec{E}\(t''\)$) col1 sh gr
/Times-Roman ff 190.50 scf sf
6570 2475 m
gs 1 -1 sc ($\\mathcal{F}\(t'\) \\Rightarrow \\vec{E}\(t'\)$) col1 sh gr
/Times-Roman ff 190.50 scf sf
6570 4275 m
gs 1 -1 sc ($\\mathcal{F}\(t_0\) \\Rightarrow \\vec{E}\(t_0\)$) col1 sh gr
% here ends figure;
pagefooter
showpage
%%Trailer
%EOF
