# -*- coding: utf-8 mode: shell-script -*-
# $Id: 03-helium_atom.01-ground_state.inp 13356 2015-03-14 23:36:41Z xavier $
#
# The following tests do not describe the calculation of a two-dimensional
# model, but of a one-dimensional model of a system of two electrons. It is
# run, however, in two-dimensional mode -- mathematically it is equivalent.
#
# It is an exact calculation of a one-dimensional system of two electrons
# that interact through a soft-Coulomb potential. The external potential is
# also a soft-Coulomb interaction.


# This first example reproduces the ground-state calculation present in
# [M. S. Pindzola, D. C Griffin and C. Bottcher, Phys. Rev. Lett. 66, 2305 (1991)].
# In this case, the electron-electron interaction is not exactly a soft-Coulomb
# interaction. The total energy reproduces the -77.3eV quoted in the paper.

CalculationMode = gs
Dimensions = 2
fromScratch = yes

a = 0.5
corr = -1
%Species
  "Helium1D" | species_user_defined | potential_formula | "-2/sqrt(a+(x)^2) -2/sqrt(a+(y)^2)+1/sqrt(a+x^2+y^2+2*corr*sqrt(x^2)*sqrt(y^2))" | valence | 1
%
%Coordinates
  "Helium1D" | 0.00 | 0.00
%

Radius  = 7.0
Spacing = 0.14

TheoryLevel = independent_particles

EigenSolverTolerance = 1.0e-4

