\relax 
\citation{Silberstein_1907}
\citation{jackson1998classical}
\citation{Bialynicki-Birula_1996}
\citation{Sameen_Ahmed_Khan_2005}
\@writefile{toc}{\contentsline {section}{\numberline {1}Riemann-Silberstein formalism of Maxwell's equations in vacuum}{1}}
\newlabel{eq_RSf_Riemann-Silberstein_vector_vacuum}{{1.1}{1}}
\newlabel{eq_RSf_RS_energy_density_vacuum}{{1.2}{1}}
\newlabel{eq_RSf_Gauss_vacuum_Riemann-Silberstein}{{1.3}{1}}
\newlabel{eq_RSf_Faraday_Ampere_vacuum_Riemann-Silberstein}{{1.4}{1}}
\newlabel{eq_RSf_curl_identity_Spin-1_matrices}{{1.5}{1}}
\newlabel{eq_RSf_Spin-1_xyz_matrices}{{1}{1}}
\newlabel{eq_RSf_Ampere_Farraday_law_in_RS_representation}{{1.8}{1}}
\citation{Mamadou_Ndong_2009}
\citation{Ioana_Serban_2005}
\citation{HohenbergKohn}
\citation{KohnSham}
\newlabel{eq_RSf_Ampere_Farraday_law_hamiltonian}{{1.9}{2}}
\@writefile{toc}{\contentsline {section}{\numberline {2}Time-evolution operator for Maxwell's equations in Riemann-Silberstein formalism}{2}}
\newlabel{eq_Mteo_inhom_Schroedinger_time_ev_op}{{2.1}{2}}
\newlabel{eq_Mteo_inhom_Maxwell_time_ev_op}{{2.2}{2}}
\newlabel{eq_Mteo_hom_Maxwell_time_ev_op}{{2.3}{2}}
\newlabel{eq_Mteo_def_inhom_Maxwell_time_ev_op}{{2.4}{2}}
\@writefile{toc}{\contentsline {section}{\numberline {3}Maxwell-Kohn-Sham coupling and time-depending density functional theory}{2}}
\citation{Loudon,craig2012molecular}
\citation{Castro2004}
\newlabel{eq_MKSc_Kohn_Sham_equation}{{3.1}{3}}
\newlabel{eq_MKSc_Kohn_Sham_Hamiltonian}{{3.2}{3}}
\newlabel{eq_MKSc_Kohn_Sham_potential}{{3.3}{3}}
\bibdata{paper-draft_bibtex}
\bibcite{Silberstein_1907}{1}
\bibcite{jackson1998classical}{2}
\bibcite{Bialynicki-Birula_1996}{3}
\bibcite{Sameen_Ahmed_Khan_2005}{4}
\bibcite{Mamadou_Ndong_2009}{5}
\bibcite{Ioana_Serban_2005}{6}
\bibcite{HohenbergKohn}{7}
\bibcite{KohnSham}{8}
\@writefile{toc}{\contentsline {section}{\numberline {4}Predictor-Corrector Time-evolution of Maxwell-Kohn-Sham system}{4}}
\@writefile{toc}{\contentsline {section}{\numberline {5}Implementation in the real-time real-space ab initio simulation code Octopus}{4}}
\@writefile{toc}{\contentsline {section}{\numberline {6}Calculation performance on larger clusters}{4}}
\@writefile{toc}{\contentsline {section}{\numberline {7}Calculation of a small molecluar system}{4}}
\@writefile{toc}{\contentsline {section}{\numberline {8}summary, Outlook}{4}}
\bibcite{Loudon}{9}
\bibcite{craig2012molecular}{10}
\bibcite{Castro2004}{11}
\bibstyle{unsrt}
