CalculationMode = gs
FromScratch = yes
Dimensions = 2

omega = 0.25

%Species
"qd" | species_user_defined | potential_formula | "0.5*omega^2*r^2" | valence | 1
%

%Coordinates
"qd" | 0 | 0
%

BoxShape = sphere
Radius = 25.0
Spacing = 0.5

DerivativesOrder = 4

TheoryLevel = independent_particles

SpinComponents = spinors

ConvAbsDens = 1e-10

%InitialSpins
 0.5 |  0.0 |  0.0
%

EigenSolverMaxIter = 250
