  36
  9115 a
      C                   0.866050    0.000000   -0.500000
      C                  -0.000050    0.000000   -1.000000
      C                   0.866050    0.000000    0.500000
      C                  -0.866050    0.000000   -0.500000
      C                  -0.000050    0.000000    1.000000
      C                  -0.866050    0.000000    0.500000
      C                   1.759950    0.000000   -1.034700
      C                   0.016050    0.000000   -2.041500
      C                   1.776050    0.000000    1.006800
      C                  -1.759950    0.000000   -1.034700
      C                   0.016050    0.000000    2.041500
      C                  -1.759950    0.000000    1.034700
      C                  -1.784050    0.000000    2.048400
      C                  -0.881949    0.000000    2.569300
      C                  -2.666050    0.000000    0.520800
      C                   0.881951    0.000000    2.569300
      C                  -2.666050    0.000000   -0.520800
      C                   1.784050    0.000000    2.048400
      C                  -1.784050    0.000000   -2.048400
      C                   2.666050    0.000000    0.520800
      C                  -0.881949    0.000000   -2.569300
      C                   2.666050    0.000000   -0.520800
      C                   0.881951    0.000000   -2.569300
      C                   1.784050    0.000000   -2.048400
      H                   2.324650    0.000000   -2.352100
      H                   0.874551    0.000000   -3.189200
      H                   3.201750    0.000000   -0.832900
      H                  -0.879650    0.000000   -3.189300
      H                   3.199250    0.000000    0.837200
      H                  -2.324650    0.000000   -2.352100
      H                   2.322150    0.000000    2.356400
      H                  -3.201750    0.000000   -0.832900
      H                   0.874551    0.000000    3.189200
      H                  -3.201750    0.000000    0.832900
      H                  -0.879650    0.000000    3.189300
      H                  -2.324650    0.000000    2.352100
