\relax 
\providecommand\hyper@newdestlabel[2]{}
\citation{szabo2012}
\citation{martin2016}
\citation{Schollwoeck2011}
\citation{engel2011}
\citation{loudon1988}
\citation{grynberg2010}
\citation{born2013}
\citation{chikkaraddy2016}
\citation{wang2017coherent}
\citation{sukharev2017}
\citation{ebbesen2016}
\citation{hutchison2012}
\citation{yamamoto2014}
\citation{zhong2017}
\citation{shalabney2015b}
\citation{byrnes2014}
\citation{sommer2016attosecond}
\citation{maki1991linear}
\citation{taminiau2012quantifying}
\citation{maki1991linear}
\citation{schmiegelow2016transfer}
\citation{birula2018}
\citation{Yue2018}
\citation{nature_angular_light}
\citation{coles2014}
\newlabel{chap_introduction}{{}{1}{Introduction}{chapter*.2}{}}
\@writefile{toc}{\contentsline {chapter}{Introduction}{1}{chapter*.2}}
\citation{ruggenthaler2018quantum}
\citation{szabo2012}
\citation{booth2009}
\citation{Orus2014}
\citation{schollwoeck2005}
\citation{kotliar2006}
\citation{gull2011}
\citation{Metzner2012}
\citation{RevModPhys.86.779}
\citation{abedi2010exact}
\citation{abedi2012correlated}
\citation{kapral2015}
\citation{tully2012}
\citation{miller2012}
\citation{lorin2007}
\citation{lopata2009}
\citation{PhysRevB.85.045134}
\citation{Lucchini916}
\citation{PhysRevE.94.023314}
\citation{2018arXiv180702733Y}
\citation{2018arXiv181006168Y}
\citation{2018arXiv181006500U}
\citation{2018arXiv181008344Y}
\citation{ruggenthaler2011time}
\citation{tokatly2013}
\citation{ruggenthaler2014quantum}
\citation{ruggenthaler2015}
\citation{galego2015cavity}
\citation{flick2018strong}
\citation{feist2017}
\citation{ribeiro2018polariton}
\citation{melo2015}
\citation{flick2017cavity}
\citation{flick2018cavity}
\citation{schafer2018ab}
\citation{flick2018light}
\citation{flick2017atoms}
\citation{flick2018ab}
\citation{spohn2004}
\citation{ruggenthaler2018quantum}
\citation{MPKS_paper}
\citation{Yee_1966}
\citation{taflove2005computational}
\citation{Gross90}
\citation{Marques2006}
\citation{spohn2004}
\citation{ruggenthaler2014quantum}
\citation{ruggenthaler2018quantum}
\citation{flick2018strong}
\citation{ribeiro2018polariton}
\citation{flick2018cavity}
\citation{schafer2018ab}
\citation{ruggenthaler2018quantum}
\citation{tokatly2013}
\@setckpt{./introduction/introduction}{
\setcounter{page}{5}
\setcounter{equation}{0}
\setcounter{enumi}{0}
\setcounter{enumii}{0}
\setcounter{enumiii}{0}
\setcounter{enumiv}{0}
\setcounter{footnote}{0}
\setcounter{mpfootnote}{0}
\setcounter{part}{0}
\setcounter{chapter}{0}
\setcounter{section}{0}
\setcounter{subsection}{0}
\setcounter{subsubsection}{0}
\setcounter{paragraph}{0}
\setcounter{subparagraph}{0}
\setcounter{figure}{0}
\setcounter{table}{0}
\setcounter{parentequation}{0}
\setcounter{r@tfl@t}{0}
\setcounter{subfigure}{0}
\setcounter{lofdepth}{1}
\setcounter{subtable}{0}
\setcounter{lotdepth}{1}
\setcounter{su@anzahl}{0}
\setcounter{LT@tables}{0}
\setcounter{LT@chunks}{0}
\setcounter{@pps}{0}
\setcounter{@ppsavesec}{0}
\setcounter{@ppsaveapp}{0}
\setcounter{float@type}{4}
\setcounter{Item}{0}
\setcounter{Hfootnote}{0}
\setcounter{bookmark@seq@number}{4}
\setcounter{section@level}{0}
}
