This is BibTeX, Version 0.99d (TeX Live 2016/Debian)
Capacity: max_strings=100000, hash_size=100000, hash_prime=85009
The top-level auxiliary file: poster.aux
The style file: beamerthemeMPSD/myprsty.bst
Reallocated singl_function (elt_size=4) to 100 items from 50.
Reallocated singl_function (elt_size=4) to 100 items from 50.
Database file #1: poster.bib.bib
Warning--Warning: volume missing in entry jestaedt2018.
Warning--Warning: pages missing in entry jestaedt2018.
Warning--We don't use thesis titles in Phys. Rev, see \cite{jestaedt2018phd}
You've used 2 entries,
            1909 wiz_defined-function locations,
            511 strings with 3994 characters,
and the built_in function-call counts, 283 in all, are:
= -- 4
> -- 16
< -- 0
+ -- 6
- -- 3
* -- 28
:= -- 42
add.period$ -- 2
call.type$ -- 2
change.case$ -- 0
chr.to.int$ -- 0
cite$ -- 5
duplicate$ -- 15
empty$ -- 27
format.name$ -- 5
if$ -- 56
int.to.chr$ -- 0
int.to.str$ -- 2
missing$ -- 0
newline$ -- 9
num.names$ -- 2
pop$ -- 14
preamble$ -- 1
purify$ -- 0
quote$ -- 0
skip$ -- 14
stack$ -- 0
substring$ -- 1
swap$ -- 9
text.length$ -- 0
text.prefix$ -- 0
top$ -- 0
type$ -- 0
warning$ -- 3
while$ -- 3
width$ -- 3
write$ -- 11
(There were 3 warnings)
