PWD /home/jestaedt/octopus_maxwell/presentation/2019/molecular_polaritonics_2019
INPUT /etc/texmf/web2c/texmf.cnf
INPUT /usr/share/texmf/web2c/texmf.cnf
INPUT /usr/share/texlive/texmf-dist/web2c/texmf.cnf
INPUT /var/lib/texmf/web2c/pdftex/pdflatex.fmt
INPUT poster.tex
OUTPUT poster.log
INPUT /usr/share/texlive/texmf-dist/tex/latex/beamer/beamer.cls
INPUT /usr/share/texlive/texmf-dist/tex/latex/beamer/beamer.cls
INPUT /usr/share/texlive/texmf-dist/tex/latex/etoolbox/etoolbox.sty
INPUT /usr/share/texlive/texmf-dist/tex/latex/etoolbox/etoolbox.sty
INPUT /usr/share/texlive/texmf-dist/tex/latex/beamer/beamerbasemodes.sty
INPUT /usr/share/texlive/texmf-dist/tex/latex/beamer/beamerbasemodes.sty
INPUT /usr/share/texlive/texmf-dist/tex/latex/beamer/beamerbasedecode.sty
INPUT /usr/share/texlive/texmf-dist/tex/latex/beamer/beamerbasedecode.sty
INPUT /usr/share/texlive/texmf-dist/tex/generic/oberdiek/ifpdf.sty
INPUT /usr/share/texlive/texmf-dist/tex/generic/oberdiek/ifpdf.sty
INPUT /usr/share/texlive/texmf-dist/tex/latex/beamer/beamerbaseoptions.sty
INPUT /usr/share/texlive/texmf-dist/tex/latex/beamer/beamerbaseoptions.sty
INPUT /usr/share/texlive/texmf-dist/tex/latex/graphics/keyval.sty
INPUT /usr/share/texlive/texmf-dist/tex/latex/graphics/keyval.sty
INPUT /usr/share/texlive/texmf-dist/tex/latex/geometry/geometry.sty
INPUT /usr/share/texlive/texmf-dist/tex/latex/geometry/geometry.sty
INPUT /usr/share/texlive/texmf-dist/tex/generic/oberdiek/ifvtex.sty
INPUT /usr/share/texlive/texmf-dist/tex/generic/oberdiek/ifvtex.sty
INPUT /usr/share/texlive/texmf-dist/tex/generic/ifxetex/ifxetex.sty
INPUT /usr/share/texlive/texmf-dist/tex/generic/ifxetex/ifxetex.sty
INPUT /usr/share/texlive/texmf-dist/tex/latex/base/size11.clo
INPUT /usr/share/texlive/texmf-dist/tex/latex/base/size11.clo
INPUT /usr/share/texlive/texmf-dist/fonts/map/fontname/texfonts.map
INPUT /usr/share/texlive/texmf-dist/fonts/tfm/public/cm/cmr10.tfm
INPUT /usr/share/texlive/texmf-dist/tex/latex/pgf/basiclayer/pgfcore.sty
INPUT /usr/share/texlive/texmf-dist/tex/latex/pgf/basiclayer/pgfcore.sty
INPUT /usr/share/texlive/texmf-dist/tex/latex/graphics/graphicx.sty
INPUT /usr/share/texlive/texmf-dist/tex/latex/graphics/graphicx.sty
INPUT /usr/share/texlive/texmf-dist/tex/latex/graphics/graphics.sty
INPUT /usr/share/texlive/texmf-dist/tex/latex/graphics/graphics.sty
INPUT /usr/share/texlive/texmf-dist/tex/latex/graphics/trig.sty
INPUT /usr/share/texlive/texmf-dist/tex/latex/graphics/trig.sty
INPUT /usr/share/texlive/texmf-dist/tex/latex/graphics-cfg/graphics.cfg
INPUT /usr/share/texlive/texmf-dist/tex/latex/graphics-cfg/graphics.cfg
INPUT /usr/share/texlive/texmf-dist/tex/latex/graphics-def/pdftex.def
INPUT /usr/share/texlive/texmf-dist/tex/latex/graphics-def/pdftex.def
INPUT /usr/share/texlive/texmf-dist/tex/generic/oberdiek/infwarerr.sty
INPUT /usr/share/texlive/texmf-dist/tex/generic/oberdiek/infwarerr.sty
INPUT /usr/share/texlive/texmf-dist/tex/generic/oberdiek/ltxcmds.sty
INPUT /usr/share/texlive/texmf-dist/tex/generic/oberdiek/ltxcmds.sty
INPUT /usr/share/texlive/texmf-dist/tex/latex/pgf/systemlayer/pgfsys.sty
INPUT /usr/share/texlive/texmf-dist/tex/latex/pgf/systemlayer/pgfsys.sty
INPUT /usr/share/texlive/texmf-dist/tex/latex/pgf/utilities/pgfrcs.sty
INPUT /usr/share/texlive/texmf-dist/tex/latex/pgf/utilities/pgfrcs.sty
INPUT /usr/share/texlive/texmf-dist/tex/generic/pgf/utilities/pgfutil-common.tex
INPUT /usr/share/texlive/texmf-dist/tex/generic/pgf/utilities/pgfutil-common-lists.tex
INPUT /usr/share/texlive/texmf-dist/tex/generic/pgf/utilities/pgfutil-latex.def
INPUT /usr/share/texlive/texmf-dist/tex/latex/ms/everyshi.sty
INPUT /usr/share/texlive/texmf-dist/tex/latex/ms/everyshi.sty
INPUT /usr/share/texlive/texmf-dist/tex/generic/pgf/utilities/pgfrcs.code.tex
INPUT /usr/share/texlive/texmf-dist/tex/generic/pgf/utilities/pgfrcs.code.tex
INPUT /usr/share/texlive/texmf-dist/tex/generic/pgf/systemlayer/pgfsys.code.tex
INPUT /usr/share/texlive/texmf-dist/tex/generic/pgf/systemlayer/pgfsys.code.tex
INPUT /usr/share/texlive/texmf-dist/tex/generic/pgf/utilities/pgfkeys.code.tex
INPUT /usr/share/texlive/texmf-dist/tex/generic/pgf/utilities/pgfkeysfiltered.code.tex
INPUT /usr/share/texlive/texmf-dist/tex/generic/pgf/systemlayer/pgf.cfg
INPUT /usr/share/texlive/texmf-dist/tex/generic/pgf/systemlayer/pgfsys-pdftex.def
INPUT /usr/share/texlive/texmf-dist/tex/generic/pgf/systemlayer/pgfsys-pdftex.def
INPUT /usr/share/texlive/texmf-dist/tex/generic/pgf/systemlayer/pgfsys-common-pdf.def
INPUT /usr/share/texlive/texmf-dist/tex/generic/pgf/systemlayer/pgfsyssoftpath.code.tex
INPUT /usr/share/texlive/texmf-dist/tex/generic/pgf/systemlayer/pgfsyssoftpath.code.tex
INPUT /usr/share/texlive/texmf-dist/tex/generic/pgf/systemlayer/pgfsysprotocol.code.tex
INPUT /usr/share/texlive/texmf-dist/tex/generic/pgf/systemlayer/pgfsysprotocol.code.tex
INPUT /usr/share/texlive/texmf-dist/tex/latex/xcolor/xcolor.sty
INPUT /usr/share/texlive/texmf-dist/tex/latex/xcolor/xcolor.sty
INPUT /usr/share/texlive/texmf-dist/tex/latex/graphics-cfg/color.cfg
INPUT /usr/share/texlive/texmf-dist/tex/latex/graphics-cfg/color.cfg
INPUT /usr/share/texlive/texmf-dist/tex/generic/pgf/basiclayer/pgfcore.code.tex
INPUT /usr/share/texlive/texmf-dist/tex/generic/pgf/basiclayer/pgfcore.code.tex
INPUT /usr/share/texlive/texmf-dist/tex/generic/pgf/math/pgfmath.code.tex
INPUT /usr/share/texlive/texmf-dist/tex/generic/pgf/math/pgfmathcalc.code.tex
INPUT /usr/share/texlive/texmf-dist/tex/generic/pgf/math/pgfmathutil.code.tex
INPUT /usr/share/texlive/texmf-dist/tex/generic/pgf/math/pgfmathparser.code.tex
INPUT /usr/share/texlive/texmf-dist/tex/generic/pgf/math/pgfmathfunctions.code.tex
INPUT /usr/share/texlive/texmf-dist/tex/generic/pgf/math/pgfmathfunctions.basic.code.tex
INPUT /usr/share/texlive/texmf-dist/tex/generic/pgf/math/pgfmathfunctions.trigonometric.code.tex
INPUT /usr/share/texlive/texmf-dist/tex/generic/pgf/math/pgfmathfunctions.random.code.tex
INPUT /usr/share/texlive/texmf-dist/tex/generic/pgf/math/pgfmathfunctions.comparison.code.tex
INPUT /usr/share/texlive/texmf-dist/tex/generic/pgf/math/pgfmathfunctions.base.code.tex
INPUT /usr/share/texlive/texmf-dist/tex/generic/pgf/math/pgfmathfunctions.round.code.tex
INPUT /usr/share/texlive/texmf-dist/tex/generic/pgf/math/pgfmathfunctions.misc.code.tex
INPUT /usr/share/texlive/texmf-dist/tex/generic/pgf/math/pgfmathfunctions.integerarithmetics.code.tex
INPUT /usr/share/texlive/texmf-dist/tex/generic/pgf/math/pgfmathfloat.code.tex
INPUT /usr/share/texlive/texmf-dist/tex/generic/pgf/basiclayer/pgfcorepoints.code.tex
INPUT /usr/share/texlive/texmf-dist/tex/generic/pgf/basiclayer/pgfcorepathconstruct.code.tex
INPUT /usr/share/texlive/texmf-dist/tex/generic/pgf/basiclayer/pgfcorepathusage.code.tex
INPUT /usr/share/texlive/texmf-dist/tex/generic/pgf/basiclayer/pgfcorescopes.code.tex
INPUT /usr/share/texlive/texmf-dist/tex/generic/pgf/basiclayer/pgfcoregraphicstate.code.tex
INPUT /usr/share/texlive/texmf-dist/tex/generic/pgf/basiclayer/pgfcoretransformations.code.tex
INPUT /usr/share/texlive/texmf-dist/tex/generic/pgf/basiclayer/pgfcorequick.code.tex
INPUT /usr/share/texlive/texmf-dist/tex/generic/pgf/basiclayer/pgfcoreobjects.code.tex
INPUT /usr/share/texlive/texmf-dist/tex/generic/pgf/basiclayer/pgfcorepathprocessing.code.tex
INPUT /usr/share/texlive/texmf-dist/tex/generic/pgf/basiclayer/pgfcorearrows.code.tex
INPUT /usr/share/texlive/texmf-dist/tex/generic/pgf/basiclayer/pgfcoreshade.code.tex
INPUT /usr/share/texlive/texmf-dist/tex/generic/pgf/basiclayer/pgfcoreimage.code.tex
INPUT /usr/share/texlive/texmf-dist/tex/generic/pgf/basiclayer/pgfcoreexternal.code.tex
INPUT /usr/share/texlive/texmf-dist/tex/generic/pgf/basiclayer/pgfcorelayers.code.tex
INPUT /usr/share/texlive/texmf-dist/tex/generic/pgf/basiclayer/pgfcoretransparency.code.tex
INPUT /usr/share/texlive/texmf-dist/tex/generic/pgf/basiclayer/pgfcorepatterns.code.tex
INPUT /usr/share/texlive/texmf-dist/tex/latex/pgf/utilities/xxcolor.sty
INPUT /usr/share/texlive/texmf-dist/tex/latex/pgf/utilities/xxcolor.sty
INPUT /usr/share/texlive/texmf-dist/tex/generic/oberdiek/atbegshi.sty
INPUT /usr/share/texlive/texmf-dist/tex/generic/oberdiek/atbegshi.sty
INPUT /usr/share/texlive/texmf-dist/tex/latex/hyperref/hyperref.sty
INPUT /usr/share/texlive/texmf-dist/tex/latex/hyperref/hyperref.sty
INPUT /usr/share/texlive/texmf-dist/tex/generic/oberdiek/hobsub-hyperref.sty
INPUT /usr/share/texlive/texmf-dist/tex/generic/oberdiek/hobsub-hyperref.sty
INPUT /usr/share/texlive/texmf-dist/tex/generic/oberdiek/hobsub-hyperref.sty
INPUT /usr/share/texlive/texmf-dist/tex/generic/oberdiek/hobsub-generic.sty
INPUT /usr/share/texlive/texmf-dist/tex/generic/oberdiek/hobsub-generic.sty
INPUT /usr/share/texlive/texmf-dist/tex/latex/oberdiek/auxhook.sty
INPUT /usr/share/texlive/texmf-dist/tex/latex/oberdiek/auxhook.sty
INPUT /usr/share/texlive/texmf-dist/tex/latex/oberdiek/kvoptions.sty
INPUT /usr/share/texlive/texmf-dist/tex/latex/oberdiek/kvoptions.sty
INPUT /usr/share/texlive/texmf-dist/tex/latex/hyperref/pd1enc.def
INPUT /usr/share/texlive/texmf-dist/tex/latex/hyperref/pd1enc.def
INPUT /usr/share/texlive/texmf-dist/tex/latex/latexconfig/hyperref.cfg
INPUT /usr/share/texlive/texmf-dist/tex/latex/latexconfig/hyperref.cfg
INPUT /usr/share/texlive/texmf-dist/tex/latex/url/url.sty
INPUT /usr/share/texlive/texmf-dist/tex/latex/url/url.sty
INPUT /usr/share/texlive/texmf-dist/tex/latex/hyperref/hpdftex.def
INPUT /usr/share/texlive/texmf-dist/tex/latex/hyperref/hpdftex.def
INPUT /usr/share/texlive/texmf-dist/tex/latex/oberdiek/rerunfilecheck.sty
INPUT /usr/share/texlive/texmf-dist/tex/latex/oberdiek/rerunfilecheck.sty
INPUT /usr/share/texlive/texmf-dist/tex/latex/beamer/beamerbaserequires.sty
INPUT /usr/share/texlive/texmf-dist/tex/latex/beamer/beamerbaserequires.sty
INPUT /usr/share/texlive/texmf-dist/tex/latex/beamer/beamerbasecompatibility.sty
INPUT /usr/share/texlive/texmf-dist/tex/latex/beamer/beamerbasecompatibility.sty
INPUT /usr/share/texlive/texmf-dist/tex/latex/beamer/beamerbasefont.sty
INPUT /usr/share/texlive/texmf-dist/tex/latex/beamer/beamerbasefont.sty
INPUT /usr/share/texlive/texmf-dist/tex/latex/amsfonts/amssymb.sty
INPUT /usr/share/texlive/texmf-dist/tex/latex/amsfonts/amssymb.sty
INPUT /usr/share/texlive/texmf-dist/tex/latex/amsfonts/amsfonts.sty
INPUT /usr/share/texlive/texmf-dist/tex/latex/amsfonts/amsfonts.sty
INPUT /usr/share/texlive/texmf-dist/tex/latex/sansmathaccent/sansmathaccent.sty
INPUT /usr/share/texlive/texmf-dist/tex/latex/sansmathaccent/sansmathaccent.sty
INPUT /usr/share/texlive/texmf-dist/tex/latex/sansmathaccent/sansmathaccent.sty
INPUT /usr/share/texlive/texmf-dist/tex/latex/filehook/filehook.sty
INPUT /usr/share/texlive/texmf-dist/tex/latex/filehook/filehook.sty
INPUT /usr/share/texlive/texmf-dist/tex/latex/filehook/filehook.sty
INPUT /usr/share/texlive/texmf-dist/tex/latex/beamer/beamerbasetranslator.sty
INPUT /usr/share/texlive/texmf-dist/tex/latex/beamer/beamerbasetranslator.sty
INPUT /usr/share/texlive/texmf-dist/tex/latex/beamer/translator/translator.sty
INPUT /usr/share/texlive/texmf-dist/tex/latex/beamer/translator/translator.sty
INPUT /usr/share/texlive/texmf-dist/tex/latex/beamer/translator/translator-language-mappings.tex
INPUT /usr/share/texlive/texmf-dist/tex/latex/beamer/translator/translator-language-mappings.tex
INPUT /usr/share/texlive/texmf-dist/tex/latex/beamer/beamerbasemisc.sty
INPUT /usr/share/texlive/texmf-dist/tex/latex/beamer/beamerbasemisc.sty
INPUT /usr/share/texlive/texmf-dist/tex/latex/beamer/beamerbasetwoscreens.sty
INPUT /usr/share/texlive/texmf-dist/tex/latex/beamer/beamerbasetwoscreens.sty
INPUT /usr/share/texlive/texmf-dist/tex/latex/beamer/beamerbaseoverlay.sty
INPUT /usr/share/texlive/texmf-dist/tex/latex/beamer/beamerbaseoverlay.sty
INPUT /usr/share/texlive/texmf-dist/tex/latex/beamer/beamerbasetitle.sty
INPUT /usr/share/texlive/texmf-dist/tex/latex/beamer/beamerbasetitle.sty
INPUT /usr/share/texlive/texmf-dist/tex/latex/beamer/beamerbasesection.sty
INPUT /usr/share/texlive/texmf-dist/tex/latex/beamer/beamerbasesection.sty
INPUT /usr/share/texlive/texmf-dist/tex/latex/beamer/beamerbaseframe.sty
INPUT /usr/share/texlive/texmf-dist/tex/latex/beamer/beamerbaseframe.sty
INPUT /usr/share/texlive/texmf-dist/tex/latex/beamer/beamerbaseverbatim.sty
INPUT /usr/share/texlive/texmf-dist/tex/latex/beamer/beamerbaseverbatim.sty
INPUT /usr/share/texlive/texmf-dist/tex/latex/beamer/beamerbaseframesize.sty
INPUT /usr/share/texlive/texmf-dist/tex/latex/beamer/beamerbaseframesize.sty
INPUT /usr/share/texlive/texmf-dist/tex/latex/beamer/beamerbaseframecomponents.sty
INPUT /usr/share/texlive/texmf-dist/tex/latex/beamer/beamerbaseframecomponents.sty
INPUT /usr/share/texlive/texmf-dist/tex/latex/beamer/beamerbasecolor.sty
INPUT /usr/share/texlive/texmf-dist/tex/latex/beamer/beamerbasecolor.sty
INPUT /usr/share/texlive/texmf-dist/tex/latex/beamer/beamerbasenotes.sty
INPUT /usr/share/texlive/texmf-dist/tex/latex/beamer/beamerbasenotes.sty
INPUT /usr/share/texlive/texmf-dist/tex/latex/beamer/beamerbasetoc.sty
INPUT /usr/share/texlive/texmf-dist/tex/latex/beamer/beamerbasetoc.sty
INPUT /usr/share/texlive/texmf-dist/tex/latex/beamer/beamerbasetemplates.sty
INPUT /usr/share/texlive/texmf-dist/tex/latex/beamer/beamerbasetemplates.sty
INPUT /usr/share/texlive/texmf-dist/tex/latex/beamer/beamerbaseauxtemplates.sty
INPUT /usr/share/texlive/texmf-dist/tex/latex/beamer/beamerbaseauxtemplates.sty
INPUT /usr/share/texlive/texmf-dist/tex/latex/beamer/beamerbaseboxes.sty
INPUT /usr/share/texlive/texmf-dist/tex/latex/beamer/beamerbaseboxes.sty
INPUT /usr/share/texlive/texmf-dist/tex/latex/beamer/beamerbaselocalstructure.sty
INPUT /usr/share/texlive/texmf-dist/tex/latex/beamer/beamerbaselocalstructure.sty
INPUT /usr/share/texlive/texmf-dist/tex/latex/tools/enumerate.sty
INPUT /usr/share/texlive/texmf-dist/tex/latex/tools/enumerate.sty
INPUT /usr/share/texlive/texmf-dist/tex/latex/beamer/beamerbasenavigation.sty
INPUT /usr/share/texlive/texmf-dist/tex/latex/beamer/beamerbasenavigation.sty
INPUT /usr/share/texlive/texmf-dist/tex/latex/beamer/beamerbasetheorems.sty
INPUT /usr/share/texlive/texmf-dist/tex/latex/beamer/beamerbasetheorems.sty
INPUT /usr/share/texlive/texmf-dist/tex/latex/amsmath/amsmath.sty
INPUT /usr/share/texlive/texmf-dist/tex/latex/amsmath/amsmath.sty
INPUT /usr/share/texlive/texmf-dist/tex/latex/amsmath/amstext.sty
INPUT /usr/share/texlive/texmf-dist/tex/latex/amsmath/amstext.sty
INPUT /usr/share/texlive/texmf-dist/tex/latex/amsmath/amsgen.sty
INPUT /usr/share/texlive/texmf-dist/tex/latex/amsmath/amsgen.sty
INPUT /usr/share/texlive/texmf-dist/tex/latex/amsmath/amsbsy.sty
INPUT /usr/share/texlive/texmf-dist/tex/latex/amsmath/amsbsy.sty
INPUT /usr/share/texlive/texmf-dist/tex/latex/amsmath/amsopn.sty
INPUT /usr/share/texlive/texmf-dist/tex/latex/amsmath/amsopn.sty
INPUT /usr/share/texlive/texmf-dist/tex/latex/amscls/amsthm.sty
INPUT /usr/share/texlive/texmf-dist/tex/latex/amscls/amsthm.sty
INPUT /usr/share/texlive/texmf-dist/tex/latex/beamer/beamerbasethemes.sty
INPUT /usr/share/texlive/texmf-dist/tex/latex/beamer/beamerbasethemes.sty
INPUT /usr/share/texlive/texmf-dist/fonts/tfm/public/cm/cmss10.tfm
INPUT /usr/share/texlive/texmf-dist/tex/latex/beamer/themes/theme/beamerthemedefault.sty
INPUT /usr/share/texlive/texmf-dist/tex/latex/beamer/themes/theme/beamerthemedefault.sty
INPUT /usr/share/texlive/texmf-dist/tex/latex/beamer/themes/font/beamerfontthemedefault.sty
INPUT /usr/share/texlive/texmf-dist/tex/latex/beamer/themes/font/beamerfontthemedefault.sty
INPUT /usr/share/texlive/texmf-dist/tex/latex/beamer/themes/color/beamercolorthemedefault.sty
INPUT /usr/share/texlive/texmf-dist/tex/latex/beamer/themes/color/beamercolorthemedefault.sty
INPUT /usr/share/texlive/texmf-dist/tex/latex/beamer/themes/inner/beamerinnerthemedefault.sty
INPUT /usr/share/texlive/texmf-dist/tex/latex/beamer/themes/inner/beamerinnerthemedefault.sty
INPUT /usr/share/texlive/texmf-dist/tex/latex/beamer/art/beamericonbook.pdf
OUTPUT poster.pdf
INPUT /usr/share/texlive/texmf-dist/tex/latex/beamer/art/beamericonbook.pdf
INPUT /usr/share/texlive/texmf-dist/tex/latex/beamer/art/beamericonbook.20.pdf
INPUT /usr/share/texlive/texmf-dist/tex/latex/beamer/art/beamericonbook.20.pdf
INPUT /usr/share/texlive/texmf-dist/tex/latex/beamer/art/beamericonarticle.pdf
INPUT /usr/share/texlive/texmf-dist/tex/latex/beamer/art/beamericonarticle.pdf
INPUT /usr/share/texlive/texmf-dist/tex/latex/beamer/art/beamericonarticle.20.pdf
INPUT /usr/share/texlive/texmf-dist/tex/latex/beamer/art/beamericonarticle.20.pdf
INPUT /usr/share/texlive/texmf-dist/tex/latex/beamer/art/beamericononline.pdf
INPUT /usr/share/texlive/texmf-dist/tex/latex/beamer/art/beamericononline.pdf
INPUT /usr/share/texlive/texmf-dist/tex/latex/beamer/art/beamericononline.20.pdf
INPUT /usr/share/texlive/texmf-dist/tex/latex/beamer/art/beamericononline.20.pdf
INPUT /usr/share/texlive/texmf-dist/tex/latex/beamer/themes/outer/beamerouterthemedefault.sty
INPUT /usr/share/texlive/texmf-dist/tex/latex/beamer/themes/outer/beamerouterthemedefault.sty
INPUT /usr/share/texlive/texmf-dist/tex/latex/base/inputenc.sty
INPUT /usr/share/texlive/texmf-dist/tex/latex/base/inputenc.sty
INPUT /usr/share/texlive/texmf-dist/tex/latex/base/utf8.def
INPUT /usr/share/texlive/texmf-dist/tex/latex/base/utf8.def
INPUT /usr/share/texlive/texmf-dist/tex/latex/base/t1enc.dfu
INPUT /usr/share/texlive/texmf-dist/tex/latex/base/t1enc.dfu
INPUT /usr/share/texlive/texmf-dist/tex/latex/base/ot1enc.dfu
INPUT /usr/share/texlive/texmf-dist/tex/latex/base/ot1enc.dfu
INPUT /usr/share/texlive/texmf-dist/tex/latex/base/omsenc.dfu
INPUT /usr/share/texlive/texmf-dist/tex/latex/base/omsenc.dfu
INPUT /usr/share/texlive/texmf-dist/tex/latex/beamerposter/beamerposter.sty
INPUT /usr/share/texlive/texmf-dist/tex/latex/beamerposter/beamerposter.sty
INPUT /usr/share/texlive/texmf-dist/tex/latex/xkeyval/xkeyval.sty
INPUT /usr/share/texlive/texmf-dist/tex/latex/xkeyval/xkeyval.sty
INPUT /usr/share/texlive/texmf-dist/tex/generic/xkeyval/xkeyval.tex
INPUT /usr/share/texlive/texmf-dist/tex/generic/xkeyval/xkvutils.tex
INPUT /usr/share/texlive/texmf-dist/tex/latex/type1cm/type1cm.sty
INPUT /usr/share/texlive/texmf-dist/tex/latex/type1cm/type1cm.sty
INPUT /usr/share/texlive/texmf-dist/tex/latex/fp/fp.sty
INPUT /usr/share/texlive/texmf-dist/tex/latex/fp/fp.sty
INPUT /usr/share/texlive/texmf-dist/tex/latex/fp/defpattern.sty
INPUT /usr/share/texlive/texmf-dist/tex/latex/fp/defpattern.sty
INPUT /usr/share/texlive/texmf-dist/tex/latex/fp/fp-basic.sty
INPUT /usr/share/texlive/texmf-dist/tex/latex/fp/fp-basic.sty
INPUT /usr/share/texlive/texmf-dist/tex/latex/fp/fp-addons.sty
INPUT /usr/share/texlive/texmf-dist/tex/latex/fp/fp-addons.sty
INPUT /usr/share/texlive/texmf-dist/tex/latex/fp/fp-snap.sty
INPUT /usr/share/texlive/texmf-dist/tex/latex/fp/fp-snap.sty
INPUT /usr/share/texlive/texmf-dist/tex/latex/fp/fp-exp.sty
INPUT /usr/share/texlive/texmf-dist/tex/latex/fp/fp-exp.sty
INPUT /usr/share/texlive/texmf-dist/tex/latex/fp/fp-trigo.sty
INPUT /usr/share/texlive/texmf-dist/tex/latex/fp/fp-trigo.sty
INPUT /usr/share/texlive/texmf-dist/tex/latex/fp/fp-pas.sty
INPUT /usr/share/texlive/texmf-dist/tex/latex/fp/fp-pas.sty
INPUT /usr/share/texlive/texmf-dist/tex/latex/fp/fp-random.sty
INPUT /usr/share/texlive/texmf-dist/tex/latex/fp/fp-random.sty
INPUT /usr/share/texlive/texmf-dist/tex/latex/fp/fp-eqn.sty
INPUT /usr/share/texlive/texmf-dist/tex/latex/fp/fp-eqn.sty
INPUT /usr/share/texlive/texmf-dist/tex/latex/fp/fp-upn.sty
INPUT /usr/share/texlive/texmf-dist/tex/latex/fp/fp-upn.sty
INPUT /usr/share/texlive/texmf-dist/tex/latex/fp/fp-eval.sty
INPUT /usr/share/texlive/texmf-dist/tex/latex/fp/fp-eval.sty
INPUT beamerthemeMPSD.sty
INPUT beamerthemeMPSD.sty
INPUT /usr/share/texlive/texmf-dist/tex/latex/mdframed/mdframed.sty
INPUT /usr/share/texlive/texmf-dist/tex/latex/mdframed/mdframed.sty
INPUT /usr/share/texlive/texmf-dist/tex/latex/l3packages/xparse/xparse.sty
INPUT /usr/share/texlive/texmf-dist/tex/latex/l3packages/xparse/xparse.sty
INPUT /usr/share/texlive/texmf-dist/tex/latex/l3kernel/expl3.sty
INPUT /usr/share/texlive/texmf-dist/tex/latex/l3kernel/expl3.sty
INPUT /usr/share/texlive/texmf-dist/tex/latex/l3kernel/expl3-code.tex
INPUT /usr/share/texlive/texmf-dist/tex/latex/l3kernel/expl3-code.tex
INPUT /usr/share/texlive/texmf-dist/tex/generic/unicode-data/UnicodeData.txt
INPUT /usr/share/texlive/texmf-dist/tex/generic/unicode-data/CaseFolding.txt
INPUT /usr/share/texlive/texmf-dist/tex/generic/unicode-data/SpecialCasing.txt
INPUT /usr/share/texlive/texmf-dist/tex/latex/l3kernel/l3pdfmode.def
INPUT /usr/share/texlive/texmf-dist/tex/latex/l3kernel/l3pdfmode.def
INPUT /usr/share/texlive/texmf-dist/tex/latex/oberdiek/zref-abspage.sty
INPUT /usr/share/texlive/texmf-dist/tex/latex/oberdiek/zref-abspage.sty
INPUT /usr/share/texlive/texmf-dist/tex/latex/oberdiek/zref-base.sty
INPUT /usr/share/texlive/texmf-dist/tex/latex/oberdiek/zref-base.sty
INPUT /usr/share/texlive/texmf-dist/tex/latex/needspace/needspace.sty
INPUT /usr/share/texlive/texmf-dist/tex/latex/needspace/needspace.sty
INPUT /usr/share/texlive/texmf-dist/tex/latex/pgf/frontendlayer/tikz.sty
INPUT /usr/share/texlive/texmf-dist/tex/latex/pgf/frontendlayer/tikz.sty
INPUT /usr/share/texlive/texmf-dist/tex/latex/pgf/frontendlayer/tikz.sty
INPUT /usr/share/texlive/texmf-dist/tex/latex/pgf/basiclayer/pgf.sty
INPUT /usr/share/texlive/texmf-dist/tex/latex/pgf/basiclayer/pgf.sty
INPUT /usr/share/texlive/texmf-dist/tex/generic/pgf/modules/pgfmoduleshapes.code.tex
INPUT /usr/share/texlive/texmf-dist/tex/generic/pgf/modules/pgfmoduleplot.code.tex
INPUT /usr/share/texlive/texmf-dist/tex/latex/pgf/compatibility/pgfcomp-version-0-65.sty
INPUT /usr/share/texlive/texmf-dist/tex/latex/pgf/compatibility/pgfcomp-version-0-65.sty
INPUT /usr/share/texlive/texmf-dist/tex/latex/pgf/compatibility/pgfcomp-version-1-18.sty
INPUT /usr/share/texlive/texmf-dist/tex/latex/pgf/compatibility/pgfcomp-version-1-18.sty
INPUT /usr/share/texlive/texmf-dist/tex/latex/pgf/utilities/pgffor.sty
INPUT /usr/share/texlive/texmf-dist/tex/latex/pgf/utilities/pgffor.sty
INPUT /usr/share/texlive/texmf-dist/tex/latex/pgf/utilities/pgfkeys.sty
INPUT /usr/share/texlive/texmf-dist/tex/latex/pgf/utilities/pgfkeys.sty
INPUT /usr/share/texlive/texmf-dist/tex/generic/pgf/utilities/pgfkeys.code.tex
INPUT /usr/share/texlive/texmf-dist/tex/generic/pgf/utilities/pgfkeys.code.tex
INPUT /usr/share/texlive/texmf-dist/tex/latex/pgf/math/pgfmath.sty
INPUT /usr/share/texlive/texmf-dist/tex/latex/pgf/math/pgfmath.sty
INPUT /usr/share/texlive/texmf-dist/tex/generic/pgf/math/pgfmath.code.tex
INPUT /usr/share/texlive/texmf-dist/tex/generic/pgf/math/pgfmath.code.tex
INPUT /usr/share/texlive/texmf-dist/tex/generic/pgf/utilities/pgffor.code.tex
INPUT /usr/share/texlive/texmf-dist/tex/generic/pgf/utilities/pgffor.code.tex
INPUT /usr/share/texlive/texmf-dist/tex/generic/pgf/math/pgfmath.code.tex
INPUT /usr/share/texlive/texmf-dist/tex/generic/pgf/frontendlayer/tikz/tikz.code.tex
INPUT /usr/share/texlive/texmf-dist/tex/generic/pgf/frontendlayer/tikz/tikz.code.tex
INPUT /usr/share/texlive/texmf-dist/tex/generic/pgf/libraries/pgflibraryplothandlers.code.tex
INPUT /usr/share/texlive/texmf-dist/tex/generic/pgf/libraries/pgflibraryplothandlers.code.tex
INPUT /usr/share/texlive/texmf-dist/tex/generic/pgf/modules/pgfmodulematrix.code.tex
INPUT /usr/share/texlive/texmf-dist/tex/generic/pgf/frontendlayer/tikz/libraries/tikzlibrarytopaths.code.tex
INPUT /usr/share/texlive/texmf-dist/tex/generic/pgf/frontendlayer/tikz/libraries/tikzlibrarytopaths.code.tex
INPUT /usr/share/texlive/texmf-dist/tex/latex/mdframed/md-frame-1.mdf
INPUT /usr/share/texlive/texmf-dist/tex/latex/mdframed/md-frame-1.mdf
INPUT /usr/share/texlive/texmf-dist/tex/latex/tools/calc.sty
INPUT /usr/share/texlive/texmf-dist/tex/latex/tools/calc.sty
INPUT /usr/share/texlive/texmf-dist/tex/latex/environ/environ.sty
INPUT /usr/share/texlive/texmf-dist/tex/latex/environ/environ.sty
INPUT /usr/share/texlive/texmf-dist/tex/latex/trimspaces/trimspaces.sty
INPUT /usr/share/texlive/texmf-dist/tex/latex/trimspaces/trimspaces.sty
INPUT /usr/share/texlive/texmf-dist/tex/latex/ms/ragged2e.sty
INPUT /usr/share/texlive/texmf-dist/tex/latex/ms/ragged2e.sty
INPUT /usr/share/texlive/texmf-dist/tex/latex/ms/everysel.sty
INPUT /usr/share/texlive/texmf-dist/tex/latex/ms/everysel.sty
INPUT /usr/share/texlive/texmf-dist/tex/latex/blindtext/blindtext.sty
INPUT /usr/share/texlive/texmf-dist/tex/latex/blindtext/blindtext.sty
INPUT /usr/share/texlive/texmf-dist/tex/latex/tools/xspace.sty
INPUT /usr/share/texlive/texmf-dist/tex/latex/tools/xspace.sty
INPUT poster.aux
INPUT poster.aux
OUTPUT poster.aux
INPUT /usr/share/texlive/texmf-dist/fonts/tfm/public/cm/cmss17.tfm
INPUT /usr/share/texlive/texmf-dist/tex/context/base/mkii/supp-pdf.mkii
INPUT /usr/share/texlive/texmf-dist/tex/context/base/mkii/supp-pdf.mkii
INPUT /usr/share/texlive/texmf-dist/tex/latex/oberdiek/epstopdf-base.sty
INPUT /usr/share/texlive/texmf-dist/tex/latex/oberdiek/epstopdf-base.sty
INPUT /usr/share/texlive/texmf-dist/tex/latex/oberdiek/grfext.sty
INPUT /usr/share/texlive/texmf-dist/tex/latex/oberdiek/grfext.sty
INPUT /usr/share/texlive/texmf-dist/tex/latex/latexconfig/epstopdf-sys.cfg
INPUT /usr/share/texlive/texmf-dist/tex/latex/latexconfig/epstopdf-sys.cfg
INPUT /usr/share/texlive/texmf-dist/tex/latex/hyperref/nameref.sty
INPUT /usr/share/texlive/texmf-dist/tex/latex/hyperref/nameref.sty
INPUT /usr/share/texlive/texmf-dist/tex/generic/oberdiek/gettitlestring.sty
INPUT /usr/share/texlive/texmf-dist/tex/generic/oberdiek/gettitlestring.sty
INPUT poster.out
INPUT poster.out
INPUT poster.out
INPUT poster.out
INPUT ./poster.out
INPUT ./poster.out
OUTPUT poster.out
INPUT /usr/share/texlive/texmf-dist/tex/latex/beamer/translator/dicts/translator-basic-dictionary/translator-basic-dictionary-English.dict
INPUT /usr/share/texlive/texmf-dist/tex/latex/beamer/translator/dicts/translator-basic-dictionary/translator-basic-dictionary-English.dict
INPUT /usr/share/texlive/texmf-dist/tex/latex/beamer/translator/dicts/translator-bibliography-dictionary/translator-bibliography-dictionary-English.dict
INPUT /usr/share/texlive/texmf-dist/tex/latex/beamer/translator/dicts/translator-bibliography-dictionary/translator-bibliography-dictionary-English.dict
INPUT /usr/share/texlive/texmf-dist/tex/latex/beamer/translator/dicts/translator-environment-dictionary/translator-environment-dictionary-English.dict
INPUT /usr/share/texlive/texmf-dist/tex/latex/beamer/translator/dicts/translator-environment-dictionary/translator-environment-dictionary-English.dict
INPUT /usr/share/texlive/texmf-dist/tex/latex/beamer/translator/dicts/translator-months-dictionary/translator-months-dictionary-English.dict
INPUT /usr/share/texlive/texmf-dist/tex/latex/beamer/translator/dicts/translator-months-dictionary/translator-months-dictionary-English.dict
INPUT /usr/share/texlive/texmf-dist/tex/latex/beamer/translator/dicts/translator-numbers-dictionary/translator-numbers-dictionary-English.dict
INPUT /usr/share/texlive/texmf-dist/tex/latex/beamer/translator/dicts/translator-numbers-dictionary/translator-numbers-dictionary-English.dict
INPUT /usr/share/texlive/texmf-dist/tex/latex/beamer/translator/dicts/translator-theorem-dictionary/translator-theorem-dictionary-English.dict
INPUT /usr/share/texlive/texmf-dist/tex/latex/beamer/translator/dicts/translator-theorem-dictionary/translator-theorem-dictionary-English.dict
INPUT poster.nav
INPUT poster.nav
INPUT /usr/share/texlive/texmf-dist/fonts/tfm/public/cm/cmss12.tfm
INPUT /usr/share/texlive/texmf-dist/fonts/tfm/public/cm/cmss10.tfm
INPUT /usr/share/texlive/texmf-dist/fonts/tfm/public/cm/cmss8.tfm
INPUT /usr/share/texlive/texmf-dist/fonts/tfm/public/cm/cmmi12.tfm
INPUT /usr/share/texlive/texmf-dist/fonts/tfm/public/cm/cmsy10.tfm
INPUT /usr/share/texlive/texmf-dist/fonts/tfm/public/cm/cmex10.tfm
INPUT /usr/share/texlive/texmf-dist/fonts/tfm/public/cm/cmex10.tfm
INPUT /usr/share/texlive/texmf-dist/fonts/tfm/public/amsfonts/symbols/msam10.tfm
INPUT /usr/share/texlive/texmf-dist/fonts/tfm/public/amsfonts/symbols/msam10.tfm
INPUT /usr/share/texlive/texmf-dist/fonts/tfm/public/amsfonts/symbols/msam7.tfm
INPUT /usr/share/texlive/texmf-dist/fonts/tfm/public/amsfonts/symbols/msbm10.tfm
INPUT /usr/share/texlive/texmf-dist/fonts/tfm/public/amsfonts/symbols/msbm10.tfm
INPUT /usr/share/texlive/texmf-dist/fonts/tfm/public/amsfonts/symbols/msbm7.tfm
INPUT /usr/share/texlive/texmf-dist/tex/latex/sansmathaccent/ot1mathkerncmss.fd
INPUT /usr/share/texlive/texmf-dist/tex/latex/sansmathaccent/ot1mathkerncmss.fd
INPUT /usr/share/texlive/texmf-dist/fonts/tfm/public/sansmathaccent/mathkerncmssi12.tfm
INPUT /usr/share/texlive/texmf-dist/fonts/tfm/public/sansmathaccent/mathkerncmssi10.tfm
INPUT /usr/share/texlive/texmf-dist/fonts/tfm/public/sansmathaccent/mathkerncmssi8.tfm
INPUT images/logos/eu_flag.pdf
INPUT ./images/logos/eu_flag.pdf
INPUT ./images/logos/eu_flag.pdf
INPUT images/logos/erc_logo.pdf
INPUT ./images/logos/erc_logo.pdf
INPUT ./images/logos/erc_logo.pdf
INPUT images/logos/mpsd-mini-logo.png
INPUT ./images/logos/mpsd-mini-logo.png
INPUT ./images/logos/mpsd-mini-logo.png
INPUT images/logos/minerva_logo_green.pdf
INPUT ./images/logos/minerva_logo_green.pdf
INPUT ./images/logos/minerva_logo_green.pdf
INPUT images/logos/cfel-mini-logo.png
INPUT ./images/logos/cfel-mini-logo.png
INPUT ./images/logos/cfel-mini-logo.png
INPUT /usr/share/texlive/texmf-dist/fonts/tfm/public/cm/cmss17.tfm
INPUT /usr/share/texlive/texmf-dist/fonts/tfm/public/cm/cmss17.tfm
INPUT /usr/share/texlive/texmf-dist/fonts/tfm/public/cm/cmss17.tfm
INPUT /usr/share/texlive/texmf-dist/fonts/tfm/public/cm/cmss17.tfm
INPUT /usr/share/texlive/texmf-dist/fonts/tfm/public/cm/cmmi12.tfm
INPUT /usr/share/texlive/texmf-dist/fonts/tfm/public/cm/cmmi12.tfm
INPUT /usr/share/texlive/texmf-dist/fonts/tfm/public/cm/cmmi12.tfm
INPUT /usr/share/texlive/texmf-dist/fonts/tfm/public/cm/cmsy10.tfm
INPUT /usr/share/texlive/texmf-dist/fonts/tfm/public/cm/cmsy10.tfm
INPUT /usr/share/texlive/texmf-dist/fonts/tfm/public/cm/cmsy10.tfm
INPUT /usr/share/texlive/texmf-dist/fonts/tfm/public/cm/cmex10.tfm
INPUT /usr/share/texlive/texmf-dist/fonts/tfm/public/cm/cmex10.tfm
INPUT /usr/share/texlive/texmf-dist/fonts/tfm/public/cm/cmex10.tfm
INPUT /usr/share/texlive/texmf-dist/fonts/tfm/public/amsfonts/symbols/msam10.tfm
INPUT /usr/share/texlive/texmf-dist/fonts/tfm/public/amsfonts/symbols/msam10.tfm
INPUT /usr/share/texlive/texmf-dist/fonts/tfm/public/amsfonts/symbols/msam10.tfm
INPUT /usr/share/texlive/texmf-dist/fonts/tfm/public/amsfonts/symbols/msbm10.tfm
INPUT /usr/share/texlive/texmf-dist/fonts/tfm/public/amsfonts/symbols/msbm10.tfm
INPUT /usr/share/texlive/texmf-dist/fonts/tfm/public/amsfonts/symbols/msbm10.tfm
INPUT /usr/share/texlive/texmf-dist/fonts/tfm/public/sansmathaccent/mathkerncmssi17.tfm
INPUT /usr/share/texlive/texmf-dist/fonts/tfm/public/sansmathaccent/mathkerncmssi17.tfm
INPUT /usr/share/texlive/texmf-dist/fonts/tfm/public/sansmathaccent/mathkerncmssi17.tfm
INPUT beamerthemeMPSD/mpsd-logo-large.png
INPUT ./beamerthemeMPSD/mpsd-logo-large.png
INPUT ./beamerthemeMPSD/mpsd-logo-large.png
INPUT /usr/share/texlive/texmf-dist/fonts/tfm/public/cm/cmss17.tfm
INPUT /usr/share/texlive/texmf-dist/fonts/tfm/public/cm/cmssbx10.tfm
INPUT /usr/share/texlive/texmf-dist/fonts/tfm/public/cm/cmssbx10.tfm
INPUT /usr/share/texlive/texmf-dist/fonts/tfm/public/cm/cmssbx10.tfm
INPUT /usr/share/texlive/texmf-dist/fonts/tfm/public/cm/cmss17.tfm
INPUT /usr/share/texlive/texmf-dist/fonts/tfm/public/cm/cmss17.tfm
INPUT /usr/share/texlive/texmf-dist/fonts/tfm/public/cm/cmss12.tfm
INPUT /usr/share/texlive/texmf-dist/fonts/tfm/public/cm/cmmi12.tfm
INPUT /usr/share/texlive/texmf-dist/fonts/tfm/public/cm/cmmi12.tfm
INPUT /usr/share/texlive/texmf-dist/fonts/tfm/public/cm/cmmi12.tfm
INPUT /usr/share/texlive/texmf-dist/fonts/tfm/public/cm/cmsy10.tfm
INPUT /usr/share/texlive/texmf-dist/fonts/tfm/public/cm/cmsy10.tfm
INPUT /usr/share/texlive/texmf-dist/fonts/tfm/public/cm/cmsy10.tfm
INPUT /usr/share/texlive/texmf-dist/fonts/tfm/public/cm/cmex10.tfm
INPUT /usr/share/texlive/texmf-dist/fonts/tfm/public/cm/cmex10.tfm
INPUT /usr/share/texlive/texmf-dist/fonts/tfm/public/cm/cmex10.tfm
INPUT /usr/share/texlive/texmf-dist/fonts/tfm/public/amsfonts/symbols/msam10.tfm
INPUT /usr/share/texlive/texmf-dist/fonts/tfm/public/amsfonts/symbols/msam10.tfm
INPUT /usr/share/texlive/texmf-dist/fonts/tfm/public/amsfonts/symbols/msam10.tfm
INPUT /usr/share/texlive/texmf-dist/fonts/tfm/public/amsfonts/symbols/msbm10.tfm
INPUT /usr/share/texlive/texmf-dist/fonts/tfm/public/amsfonts/symbols/msbm10.tfm
INPUT /usr/share/texlive/texmf-dist/fonts/tfm/public/amsfonts/symbols/msbm10.tfm
INPUT /usr/share/texlive/texmf-dist/fonts/tfm/public/sansmathaccent/mathkerncmssi17.tfm
INPUT /usr/share/texlive/texmf-dist/fonts/tfm/public/sansmathaccent/mathkerncmssi17.tfm
INPUT /usr/share/texlive/texmf-dist/fonts/tfm/public/sansmathaccent/mathkerncmssi12.tfm
INPUT /usr/share/texlive/texmf-dist/fonts/tfm/public/cm/cmssbx10.tfm
INPUT /usr/share/texlive/texmf-dist/fonts/tfm/public/cm/cmssbx10.tfm
INPUT /usr/share/texlive/texmf-dist/fonts/tfm/public/cm/cmr17.tfm
INPUT /usr/share/texlive/texmf-dist/fonts/tfm/public/cm/cmr17.tfm
INPUT /usr/share/texlive/texmf-dist/fonts/tfm/public/cm/cmr12.tfm
INPUT ./images/grid_types/multiscale_figures.png
INPUT ./images/grid_types/multiscale_figures.png
INPUT ./images/grid_types/multiscale_figures.png
INPUT ./images/predictor_corrector_method/predictor_corrector_maxwell_to_matter_coupling.png
INPUT ./images/predictor_corrector_method/predictor_corrector_maxwell_to_matter_coupling.png
INPUT ./images/predictor_corrector_method/predictor_corrector_maxwell_to_matter_coupling.png
INPUT ./images/predictor_corrector_method/predictor_corrector_full_coupling.png
INPUT ./images/predictor_corrector_method/predictor_corrector_full_coupling.png
INPUT ./images/predictor_corrector_method/predictor_corrector_full_coupling.png
INPUT ./images/meep_reference/3D_gaussian_spatial_distribution_current_density.png
INPUT ./images/meep_reference/3D_gaussian_spatial_distribution_current_density.png
INPUT ./images/meep_reference/3D_gaussian_spatial_distribution_current_density.png
INPUT ./images/meep_reference/meep_reference_3D_gaussian_spatial_distribution_gaussian_cosine_pulse_current_at_05_00_00.png
INPUT ./images/meep_reference/meep_reference_3D_gaussian_spatial_distribution_gaussian_cosine_pulse_current_at_05_00_00.png
INPUT ./images/meep_reference/meep_reference_3D_gaussian_spatial_distribution_gaussian_cosine_pulse_current_at_05_00_00.png
INPUT ./images/linear_medium/linear_medium.png
INPUT ./images/linear_medium/linear_medium.png
INPUT ./images/linear_medium/linear_medium.png
INPUT ./images/Na_297_dimer_hartree/Na_297_dimer_geometry.png
INPUT ./images/Na_297_dimer_hartree/Na_297_dimer_geometry.png
INPUT ./images/Na_297_dimer_hartree/Na_297_dimer_geometry.png
INPUT ./images/run_snapshot/qpn_368_0000270_small.png
INPUT ./images/run_snapshot/qpn_368_0000270_small.png
INPUT ./images/run_snapshot/qpn_368_0000270_small.png
INPUT ./images/Na_297_dimer_hartree/Na_297_dimer_0_1_nm_fixed_ions_electric_field_z_decomposition.png
INPUT ./images/Na_297_dimer_hartree/Na_297_dimer_0_1_nm_fixed_ions_electric_field_z_decomposition.png
INPUT ./images/Na_297_dimer_hartree/Na_297_dimer_0_1_nm_fixed_ions_electric_field_z_decomposition.png
INPUT ./images/Na_297_dimer_hartree/Na_297_dimer_0_5_nm_fixed_ions_multipoles.png
INPUT ./images/Na_297_dimer_hartree/Na_297_dimer_0_5_nm_fixed_ions_multipoles.png
INPUT ./images/Na_297_dimer_hartree/Na_297_dimer_0_5_nm_fixed_ions_multipoles.png
INPUT /usr/share/texlive/texmf-dist/fonts/tfm/public/cm/cmss17.tfm
INPUT poster.bbl
INPUT poster.bbl
INPUT /usr/share/texlive/texmf-dist/fonts/tfm/public/cm/cmssi17.tfm
INPUT /usr/share/texlive/texmf-dist/fonts/tfm/public/cm/cmss8.tfm
INPUT /usr/share/texlive/texmf-dist/fonts/tfm/public/cm/cmr12.tfm
INPUT /usr/share/texlive/texmf-dist/fonts/tfm/public/cm/cmssbx10.tfm
INPUT /usr/share/texlive/texmf-dist/fonts/tfm/public/cm/cmssbx10.tfm
INPUT /usr/share/texlive/texmf-dist/fonts/tfm/public/cm/cmssbx10.tfm
INPUT /usr/share/texlive/texmf-dist/fonts/tfm/public/cm/cmr17.tfm
INPUT /usr/share/texlive/texmf-dist/fonts/tfm/public/cm/cmr17.tfm
INPUT /usr/share/texlive/texmf-dist/fonts/tfm/public/cm/cmr17.tfm
INPUT /usr/share/texlive/texmf-dist/fonts/tfm/public/cm/cmssbx10.tfm
INPUT /usr/share/texlive/texmf-dist/fonts/tfm/public/cm/cmssbx10.tfm
INPUT /usr/share/texlive/texmf-dist/fonts/tfm/public/cm/cmssbx10.tfm
INPUT beamerthemeMPSD/mpsd-logo-large.png
INPUT ./beamerthemeMPSD/mpsd-logo-large.png
INPUT images/logos/eu_flag.pdf
INPUT ./images/logos/eu_flag.pdf
INPUT images/logos/erc_logo.pdf
INPUT ./images/logos/erc_logo.pdf
INPUT images/logos/mpsd-mini-logo.png
INPUT ./images/logos/mpsd-mini-logo.png
INPUT images/logos/minerva_logo_green.pdf
INPUT ./images/logos/minerva_logo_green.pdf
INPUT images/logos/cfel-mini-logo.png
INPUT ./images/logos/cfel-mini-logo.png
INPUT /var/lib/texmf/fonts/map/pdftex/updmap/pdftex.map
OUTPUT poster.nav
OUTPUT poster.toc
OUTPUT poster.snm
INPUT poster.aux
INPUT ./poster.out
INPUT ./poster.out
INPUT /usr/share/texlive/texmf-dist/fonts/type1/public/amsfonts/cm/cmex10.pfb
INPUT /usr/share/texlive/texmf-dist/fonts/type1/public/amsfonts/cm/cmmi12.pfb
INPUT /usr/share/texlive/texmf-dist/fonts/type1/public/amsfonts/cm/cmr12.pfb
INPUT /usr/share/texlive/texmf-dist/fonts/type1/public/amsfonts/cm/cmss17.pfb
INPUT /usr/share/texlive/texmf-dist/fonts/type1/public/amsfonts/cm/cmssbx10.pfb
INPUT /usr/share/texlive/texmf-dist/fonts/type1/public/amsfonts/cm/cmssi17.pfb
INPUT /usr/share/texlive/texmf-dist/fonts/type1/public/amsfonts/cm/cmsy10.pfb
INPUT /usr/share/texlive/texmf-dist/fonts/type1/public/amsfonts/symbols/msbm10.pfb
