\relax 
\providecommand\hyper@newdestlabel[2]{}
\providecommand\zref@newlabel[2]{}
\providecommand\HyperFirstAtBeginDocument{\AtBeginDocument}
\HyperFirstAtBeginDocument{\ifx\hyper@anchor\@undefined
\global\let\oldcontentsline\contentsline
\gdef\contentsline#1#2#3#4{\oldcontentsline{#1}{#2}{#3}}
\global\let\oldnewlabel\newlabel
\gdef\newlabel#1#2{\newlabelxx{#1}#2}
\gdef\newlabelxx#1#2#3#4#5#6{\oldnewlabel{#1}{{#2}{#3}}}
\AtEndDocument{\ifx\hyper@anchor\@undefined
\let\contentsline\oldcontentsline
\let\newlabel\oldnewlabel
\fi}
\fi}
\global\let\hyper@last\relax 
\gdef\HyperFirstAtBeginDocument#1{#1}
\providecommand\HyField@AuxAddToFields[1]{}
\providecommand\HyField@AuxAddToCoFields[2]{}
\bibstyle{beamerthemeMPSD/myprsty}
\citation{jestaedt2018}
\citation{jestaedt2018phd}
\bibdata{poster.bib}
\bibcite{jestaedt2018}{\hyperlink {beamerbibjestaedt2018}{1}}
\bibcite{jestaedt2018phd}{\hyperlink {beamerbibjestaedt2018phd}{2}}
\pgfsyspdfmark {pgfid1}{1314203}{168415836}
\pgfsyspdfmark {pgfid2}{1314203}{140692921}
\pgfsyspdfmark {pgfid3}{1314203}{134908501}
\pgfsyspdfmark {pgfid4}{1314203}{107128540}
\pgfsyspdfmark {pgfid5}{1314203}{101344120}
\pgfsyspdfmark {pgfid6}{1314203}{66673832}
\pgfsyspdfmark {pgfid7}{1314203}{60889412}
\pgfsyspdfmark {pgfid8}{1314203}{11984392}
\pgfsyspdfmark {pgfid9}{53062312}{168415836}
\pgfsyspdfmark {pgfid10}{53062312}{132141311}
\pgfsyspdfmark {pgfid11}{53062312}{126356891}
\pgfsyspdfmark {pgfid12}{53062312}{66395301}
\pgfsyspdfmark {pgfid13}{53062312}{60610881}
\pgfsyspdfmark {pgfid14}{53062312}{12019293}
\pgfsyspdfmark {pgfid15}{104810420}{168415836}
\pgfsyspdfmark {pgfid16}{104810420}{49237542}
\pgfsyspdfmark {pgfid17}{104810420}{43453122}
\pgfsyspdfmark {pgfid18}{104810420}{22158082}
\pgfsyspdfmark {pgfid19}{104810420}{16373662}
\pgfsyspdfmark {pgfid20}{104810420}{11822100}
\@writefile{nav}{\headcommand {\slideentry {0}{0}{1}{1/1}{}{0}}}
\@writefile{nav}{\headcommand {\beamer@framepages {1}{1}}}
\@writefile{nav}{\headcommand {\beamer@partpages {1}{1}}}
\@writefile{nav}{\headcommand {\beamer@subsectionpages {1}{1}}}
\@writefile{nav}{\headcommand {\beamer@sectionpages {1}{1}}}
\@writefile{nav}{\headcommand {\beamer@documentpages {1}}}
\@writefile{nav}{\headcommand {\def \inserttotalframenumber {1}}}
