# -*- coding: utf-8 mode: shell-script -*-
# $Id: 01-hydrogen.02-excited_state.inp 13356 2015-03-14 23:36:41Z xavier $
#
# This test calculates a one-dimensional model for Hydrogen, considering
# a soft-Coulomb nucleus-electron interaction. It calculates the ground-state
# in a first run, and then the first nine excited states in the "unocc" mode.
# It is about the simplest thing one can do with octopus...
#
# It is a replication of the calculation presented in Table I of
# [J. Javanainen, J. H. Eberly and Q. Su, Phys. Rev. A 38, 3430 (1998)].
# The numbers provided in that Table should match the values that octopus
# prints in the excited_states_static/eigenvalues file.

CalculationMode = unocc

Dimensions = 1
fromScratch = yes

BoxShape = sphere
Spacing = 0.5
Radius = 100.0

TheoryLevel = independent_particles

%Species
"Hydrogen1D" | species_user_defined | potential_formula | "-1/sqrt(1+(x)^2)" | valence | 1
%

%Coordinates
"Hydrogen1D" | 0
%

ExtraStates = 9
EigenSolverTolerance = 1e-5
