594
generated a
Na 0.000001 0.000000 -3.610253
Na 0.000001 0.000000 3.610224
Na 3.610135 0.000000 -3.645164
Na 3.610136 0.000000 3.645137
Na -3.610134 0.000000 -3.645165
Na -3.610135 0.000000 3.645138
Na -1.833169 -3.018568 -4.375600
Na -1.833169 -3.018569 4.375576
Na 1.833171 3.018568 -4.375601
Na 1.833171 3.018568 4.375577
Na -1.833169 3.018568 -4.375599
Na -1.833169 3.018569 4.375576
Na 1.833171 -3.018568 -4.375600
Na 1.833171 -3.018568 4.375577
Na -5.387168 -2.943495 -4.771070
Na -5.387167 -2.943496 4.771054
Na 5.387169 2.943494 -4.771069
Na 5.387167 2.943495 4.771053
Na -5.387168 2.943494 -4.771070
Na -5.387167 2.943495 4.771054
Na 5.387168 -2.943494 -4.771069
Na 5.387167 -2.943495 4.771053
Na 0.000001 -6.012635 -5.881521
Na 0.000001 -6.012634 5.881509
Na 0.000001 6.012635 -5.881522
Na 0.000001 6.012634 5.881509
Na 3.619058 5.891725 -5.969862
Na 3.619057 5.891724 5.969850
Na -3.619058 -5.891725 -5.969862
Na -3.619057 -5.891725 5.969850
Na -3.619058 5.891725 -5.969862
Na -3.619057 5.891725 5.969850
Na 3.619058 -5.891725 -5.969862
Na 3.619057 -5.891724 5.969850
Na -8.342920 1.835658 -6.743723
Na -8.342921 1.835659 6.743714
Na -8.342920 -1.835659 -6.743723
Na -8.342921 -1.835660 6.743714
Na 8.342920 1.835659 -6.743723
Na 8.342921 1.835660 6.743714
Na 8.342920 -1.835658 -6.743722
Na 8.342920 -1.835659 6.743713
Na -1.821188 0.000000 -6.627350
Na -1.821188 0.000000 6.627331
Na 1.821189 0.000000 -6.627350
Na 1.821189 0.000000 6.627331
Na 5.391775 0.000000 -6.722392
Na 5.391774 0.000000 6.722377
Na -5.391774 -0.000001 -6.722393
Na -5.391774 0.000000 6.722378
Na 1.836504 8.968813 -7.032375
Na 1.836504 8.968813 7.032375
Na -1.836504 8.968813 -7.032375
Na -1.836504 8.968813 7.032375
Na -1.836504 -8.968813 -7.032375
Na -1.836504 -8.968813 7.032375
Na 1.836504 -8.968813 -7.032375
Na 1.836504 -8.968813 7.032375
Na -6.742406 -4.902044 -7.667118
Na -6.742406 -4.902044 7.667118
Na 6.742406 4.902044 -7.667118
Na 6.742406 4.902044 7.667118
Na -6.742406 4.902044 -7.667118
Na -6.742406 4.902044 7.667118
Na 6.742406 -4.902044 -7.667118
Na 6.742406 -4.902044 7.667118
Na 0.000000 -2.979374 -7.746865
Na 0.000000 -2.979374 7.746865
Na 0.000000 2.979374 -7.746865
Na 0.000000 2.979374 7.746865
Na -3.642374 -2.962958 -7.822219
Na -3.642374 -2.962958 7.822219
Na 3.642374 2.962958 -7.822219
Na 3.642374 2.962958 7.822219
Na -3.642374 2.962958 -7.822219
Na -3.642374 2.962958 7.822219
Na 3.642374 -2.962958 -7.822219
Na 3.642374 -2.962958 7.822219
Na -4.902044 -7.879819 -8.804531
Na -4.902044 -7.879819 8.804531
Na 4.902044 7.879819 -8.804531
Na 4.902044 7.879819 8.804531
Na -4.902044 7.879819 -8.804531
Na -4.902044 7.879819 8.804531
Na 4.902044 -7.879819 -8.804531
Na 4.902044 -7.879819 8.804531
Na -1.831207 -5.893500 -8.941588
Na -1.831207 -5.893500 8.941588
Na -1.831207 5.893500 -8.941588
Na -1.831207 5.893500 8.941588
Na 1.831207 5.893500 -8.941588
Na 1.831207 5.893500 8.941588
Na 1.831207 -5.893500 -8.941588
Na 1.831207 -5.893500 8.941588
Na -9.772050 0.000000 -9.539558
Na -9.772050 0.000000 9.539558
Na 9.772050 0.000000 -9.539558
Na 9.772050 0.000000 9.539558
Na -9.700030 3.705077 -9.551994
Na -9.700030 3.705077 9.551994
Na -9.700030 -3.705082 -9.551994
Na -9.700030 -3.705082 9.551994
Na 9.700030 3.705082 -9.551994
Na 9.700030 3.705082 9.551994
Na 9.700030 -3.705077 -9.551994
Na 9.700030 -3.705077 9.551994
Na -6.605349 1.831207 -9.653437
Na -6.605349 1.831207 9.653437
Na -6.605349 -1.831207 -9.653437
Na -6.605349 -1.831207 9.653437
Na 6.605349 1.831207 -9.653437
Na 6.605349 1.831207 9.653437
Na 6.605349 -1.831207 -9.653437
Na 6.605349 -1.831207 9.653437
Na 0.000000 0.000000 -9.691220
Na 0.000000 0.000000 9.691220
Na -3.577566 0.000000 -9.758320
Na -3.577566 0.000000 9.758320
Na 3.577566 0.000000 -9.758320
Na 3.577566 0.000000 9.758320
Na 2.971526 10.805322 -10.003911
Na 2.971526 10.805322 10.003911
Na -2.971526 -10.805322 -10.003911
Na -2.971526 -10.805322 10.003911
Na -2.971526 10.805322 -10.003911
Na -2.971526 10.805322 10.003911
Na 2.971526 -10.805322 -10.003911
Na 2.971526 -10.805322 10.003911
Na 0.000000 8.780584 -10.120224
Na 0.000000 8.780584 10.120224
Na 0.000000 -8.780584 -10.120224
Na 0.000000 -8.780584 10.120224
Na -7.879819 -6.742406 -10.644904
Na -7.879819 -6.742406 10.644904
Na -7.879819 6.742406 -10.644904
Na -7.879819 6.742406 10.644904
Na 7.879819 6.742406 -10.644904
Na 7.879819 6.742406 10.644904
Na 7.879819 -6.742406 -10.644904
Na 7.879819 -6.742406 10.644904
Na -4.820725 -4.820725 -10.726238
Na -4.820725 -4.820725 10.726238
Na 4.820725 4.820725 -10.726238
Na 4.820725 4.820725 10.726238
Na -4.820725 4.820725 -10.726238
Na -4.820725 4.820725 10.726238
Na 4.820725 -4.820725 -10.726238
Na 4.820725 -4.820725 10.726238
Na -1.809516 -2.927853 -10.809583
Na -1.809516 -2.927853 10.809583
Na 1.809516 2.927853 -10.809583
Na 1.809516 2.927853 10.809583
Na -1.809516 2.927853 -10.809583
Na -1.809516 2.927853 10.809583
Na 1.809516 -2.927853 -10.809583
Na 1.809516 -2.927853 10.809583
Na 0.000000 -11.940354 -11.840420
Na 0.000000 -11.940354 11.840420
Na 0.000000 11.940354 -11.840420
Na 0.000000 11.940354 11.840420
Na -5.994943 9.700030 -11.841849
Na -5.994943 9.700030 11.841849
Na -5.994943 -9.700030 -11.841849
Na -5.994943 -9.700030 11.841849
Na 5.994943 9.700030 -11.841849
Na 5.994943 9.700030 11.841849
Na 5.994943 -9.700030 -11.841849
Na 5.994943 -9.700030 11.841849
Na 2.962958 7.724717 -11.904557
Na 2.962958 7.724717 11.904557
Na -2.962958 -7.724717 -11.904557
Na -2.962958 -7.724717 11.904557
Na -2.962958 7.724717 -11.904557
Na -2.962958 7.724717 11.904557
Na 2.962958 -7.724717 -11.904557
Na 2.962958 -7.724717 11.904557
Na 0.000000 5.788617 -11.969381
Na 0.000000 5.788617 11.969381
Na 0.000000 -5.788617 -11.969381
Na 0.000000 -5.788617 11.969381
Na -10.909412 -1.840357 -12.517291
Na -10.909412 -1.840357 12.517291
Na -10.909412 1.840357 -12.517291
Na -10.909412 1.840357 12.517291
Na 10.909412 1.840357 -12.517291
Na 10.909412 1.840357 12.517291
Na 10.909412 -1.840357 -12.517291
Na 10.909412 -1.840357 12.517291
Na -7.800072 0.000000 -12.567564
Na -7.800072 0.000000 12.567564
Na 7.800072 0.000000 -12.567564
Na 7.800072 0.000000 12.567564
Na -10.805322 -5.543025 -12.575395
Na -10.805322 -5.543025 12.575395
Na -10.805322 5.543025 -12.575395
Na -10.805322 5.543025 12.575395
Na 10.805322 5.543025 -12.575395
Na 10.805322 5.543025 12.575395
Na 10.805322 -5.543025 -12.575395
Na 10.805322 -5.543025 12.575395
Na -7.724717 -3.642374 -12.583967
Na -7.724717 -3.642374 12.583967
Na -7.724717 3.642374 -12.583967
Na -7.724717 3.642374 12.583967
Na 7.724717 3.642374 -12.583967
Na 7.724717 3.642374 12.583967
Na 7.724717 -3.642374 -12.583967
Na 7.724717 -3.642374 12.583967
Na -4.737369 -1.809516 -12.619105
Na -4.737369 -1.809516 12.619105
Na -4.737369 1.809516 -12.619105
Na -4.737369 1.809516 12.619105
Na 4.737369 1.809516 -12.619105
Na 4.737369 1.809516 12.619105
Na 4.737369 -1.809511 -12.619105
Na 4.737369 -1.809511 12.619105
Na -1.770870 0.000000 -12.681601
Na -1.770870 0.000000 12.681601
Na 1.770870 0.000000 -12.681601
Na 1.770870 0.000000 12.681601
Na -3.029629 10.909412 -13.706564
Na -3.029629 10.909412 13.706564
Na -3.029629 -10.909412 -13.706564
Na -3.029629 -10.909412 13.706564
Na 3.029629 10.909412 -13.706564
Na 3.029629 10.909412 13.706564
Na 3.029629 -10.909412 -13.706564
Na 3.029629 -10.909412 13.706564
Na -8.968813 8.514567 -13.710427
Na -8.968813 8.514567 13.710427
Na -8.968813 -8.514567 -13.710427
Na -8.968813 -8.514567 13.710427
Na 8.968813 8.514567 -13.710427
Na 8.968813 8.514567 13.710427
Na 8.968813 -8.514567 -13.710427
Na 8.968813 -8.514567 13.710427
Na -5.893500 -6.605349 -13.715719
Na -5.893500 -6.605349 13.715719
Na -5.893500 6.605349 -13.715719
Na -5.893500 6.605349 13.715719
Na 5.893500 6.605349 -13.715719
Na 5.893500 6.605349 13.715719
Na 5.893500 -6.605349 -13.715719
Na 5.893500 -6.605349 13.715719
Na 0.000000 8.856469 -13.735775
Na 0.000000 8.856469 13.735775
Na 0.000000 -8.856469 -13.735775
Na 0.000000 -8.856469 13.735775
Na -2.927853 -4.737369 -13.737415
Na -2.927853 -4.737369 13.737415
Na -2.927853 4.737369 -13.737415
Na -2.927853 4.737369 13.737415
Na 2.927853 4.737369 -13.737415
Na 2.927853 4.737369 13.737415
Na 2.927853 -4.737369 -13.737415
Na 2.927853 -4.737369 13.737415
Na 0.000000 2.865331 -13.776045
Na 0.000000 2.865331 13.776045
Na 0.000000 -2.865331 -13.776045
Na 0.000000 -2.865331 13.776045
Na 11.940354 3.706532 -15.546937
Na 11.940354 3.706532 15.546937
Na -11.940354 -3.706532 -15.546937
Na -11.940354 -3.706532 15.546937
Na -11.940354 3.706532 -15.546937
Na -11.940354 3.706532 15.546937
Na 11.940354 -3.706532 -15.546937
Na 11.940354 -3.706532 15.546937
Na 11.989886 0.000000 -15.546937
Na 11.989886 0.000000 15.546937
Na -11.989886 0.000000 -15.546937
Na -11.989886 0.000000 15.546937
Na 0.000000 11.989886 -15.546937
Na 0.000000 11.989886 15.546937
Na 0.000000 -11.989886 -15.546937
Na 0.000000 -11.989886 15.546937
Na 6.007378 9.772050 -15.546937
Na 6.007378 9.772050 15.546937
Na -6.007378 -9.772050 -15.546937
Na -6.007378 -9.772050 15.546937
Na 6.007378 -9.772050 -15.546937
Na 6.007378 -9.772050 15.546937
Na -6.007378 9.772050 -15.546937
Na -6.007378 9.772050 15.546937
Na 8.780584 5.426712 -15.546937
Na 8.780584 5.426712 15.546937
Na -8.780584 -5.426712 -15.546937
Na -8.780584 -5.426712 15.546937
Na 8.780584 -5.426712 -15.546937
Na 8.780584 -5.426712 15.546937
Na -8.780584 5.426712 -15.546937
Na -8.780584 5.426712 15.546937
Na 8.856469 1.811167 -15.546937
Na 8.856469 1.811167 15.546937
Na -8.856469 -1.811167 -15.546937
Na -8.856469 -1.811167 15.546937
Na 8.856469 -1.811167 -15.546937
Na 8.856469 -1.811167 15.546937
Na -8.856469 1.811167 -15.546937
Na -8.856469 1.811167 15.546937
Na 2.979374 7.800072 -15.546937
Na 2.979374 7.800072 15.546937
Na -2.979374 -7.800072 -15.546937
Na -2.979374 -7.800072 15.546937
Na -2.979374 7.800072 -15.546937
Na -2.979374 7.800072 15.546937
Na 2.979374 -7.800072 -15.546937
Na 2.979374 -7.800072 15.546937
Na 5.788617 3.577566 -15.546937
Na 5.788617 3.577566 15.546937
Na -5.788617 -3.577566 -15.546937
Na -5.788617 -3.577566 15.546937
Na 5.788617 -3.577566 -15.546937
Na 5.788617 -3.577566 15.546937
Na -5.788617 3.577566 -15.546937
Na -5.788617 3.577566 15.546937
Na 5.855716 0.000000 -15.546937
Na 5.855716 0.000000 15.546937
Na -5.855716 0.000000 -15.546937
Na -5.855716 0.000000 15.546937
Na 0.000000 5.855716 -15.546937
Na 0.000000 5.855716 15.546937
Na 0.000000 -5.855716 -15.546937
Na 0.000000 -5.855716 15.546937
Na 2.865331 1.770870 -15.546937
Na 2.865331 1.770870 15.546937
Na -2.865331 -1.770870 -15.546937
Na -2.865331 -1.770870 15.546937
Na 2.865331 -1.770870 -15.546937
Na 2.865331 -1.770870 15.546937
Na -2.865331 1.770870 -15.546937
Na -2.865331 1.770870 15.546937
Na 0.000000 0.000000 -15.546937
Na 0.000000 0.000000 15.546937
Na 0.000000 -2.865331 -17.317829
Na 0.000000 -2.865331 17.317829
Na 0.000000 2.865331 -17.317829
Na 0.000000 2.865331 17.317829
Na -2.927853 4.737369 -17.356459
Na -2.927853 4.737369 17.356459
Na -2.927853 -4.737369 -17.356459
Na -2.927853 -4.737369 17.356459
Na 2.927853 -4.737369 -17.356459
Na 2.927853 -4.737369 17.356459
Na 2.927853 4.737369 -17.356459
Na 2.927853 4.737369 17.356459
Na 0.000000 -8.856469 -17.358099
Na 0.000000 -8.856469 17.358099
Na 0.000000 8.856469 -17.358099
Na 0.000000 8.856469 17.358099
Na -5.893500 6.605349 -17.378154
Na -5.893500 6.605349 17.378154
Na -5.893500 -6.605349 -17.378154
Na -5.893500 -6.605349 17.378154
Na 5.893500 -6.605349 -17.378154
Na 5.893500 -6.605349 17.378154
Na 5.893500 6.605349 -17.378154
Na 5.893500 6.605349 17.378154
Na -8.968813 8.514567 -17.383446
Na -8.968813 8.514567 17.383446
Na -8.968813 -8.514567 -17.383446
Na -8.968813 -8.514567 17.383446
Na 8.968813 -8.514567 -17.383446
Na 8.968813 -8.514567 17.383446
Na 8.968813 8.514567 -17.383446
Na 8.968813 8.514567 17.383446
Na 3.029629 -10.909412 -17.387310
Na 3.029629 -10.909412 17.387310
Na -3.029629 10.909412 -17.387310
Na -3.029629 10.909412 17.387310
Na -3.029629 -10.909412 -17.387310
Na -3.029629 -10.909412 17.387310
Na 3.029629 10.909412 -17.387310
Na 3.029629 10.909412 17.387310
Na -1.770870 0.000000 -18.412272
Na -1.770870 0.000000 18.412272
Na 1.770870 0.000000 -18.412272
Na 1.770870 0.000000 18.412272
Na -4.737369 1.809516 -18.474768
Na -4.737369 1.809516 18.474768
Na -4.737369 -1.809516 -18.474768
Na -4.737369 -1.809516 18.474768
Na 4.737369 -1.809511 -18.474768
Na 4.737369 -1.809511 18.474768
Na 4.737369 1.809516 -18.474768
Na 4.737369 1.809516 18.474768
Na -7.724717 3.642374 -18.509906
Na -7.724717 3.642374 18.509906
Na -7.724717 -3.642374 -18.509906
Na -7.724717 -3.642374 18.509906
Na 7.724717 -3.642374 -18.509906
Na 7.724717 -3.642374 18.509906
Na 7.724717 3.642374 -18.509906
Na 7.724717 3.642374 18.509906
Na -10.805322 5.543025 -18.518479
Na -10.805322 5.543025 18.518479
Na -10.805322 -5.543025 -18.518479
Na -10.805322 -5.543025 18.518479
Na 10.805322 -5.543025 -18.518479
Na 10.805322 -5.543025 18.518479
Na 10.805322 5.543025 -18.518479
Na 10.805322 5.543025 18.518479
Na -7.800072 0.000000 -18.526310
Na -7.800072 0.000000 18.526310
Na 7.800072 0.000000 -18.526310
Na 7.800072 0.000000 18.526310
Na -10.909412 1.840357 -18.576581
Na -10.909412 1.840357 18.576581
Na -10.909412 -1.840357 -18.576581
Na -10.909412 -1.840357 18.576581
Na 10.909412 -1.840357 -18.576581
Na 10.909412 -1.840357 18.576581
Na 10.909412 1.840357 -18.576581
Na 10.909412 1.840357 18.576581
Na 0.000000 -5.788617 -19.124492
Na 0.000000 -5.788617 19.124492
Na 0.000000 5.788617 -19.124492
Na 0.000000 5.788617 19.124492
Na -2.962958 7.724717 -19.189317
Na -2.962958 7.724717 19.189317
Na -2.962958 -7.724717 -19.189317
Na -2.962958 -7.724717 19.189317
Na 2.962958 -7.724717 -19.189317
Na 2.962958 -7.724717 19.189317
Na 2.962958 7.724717 -19.189317
Na 2.962958 7.724717 19.189317
Na -5.994943 9.700030 -19.252024
Na -5.994943 9.700030 19.252024
Na -5.994943 -9.700030 -19.252024
Na -5.994943 -9.700030 19.252024
Na 5.994943 -9.700030 -19.252024
Na 5.994943 -9.700030 19.252024
Na 5.994943 9.700030 -19.252024
Na 5.994943 9.700030 19.252024
Na 0.000000 11.940354 -19.253453
Na 0.000000 11.940354 19.253453
Na 0.000000 -11.940354 -19.253453
Na 0.000000 -11.940354 19.253453
Na -1.809516 2.927853 -20.284289
Na -1.809516 2.927853 20.284289
Na 1.809516 -2.927853 -20.284289
Na 1.809516 -2.927853 20.284289
Na -1.809516 -2.927853 -20.284289
Na -1.809516 -2.927853 20.284289
Na 1.809516 2.927853 -20.284289
Na 1.809516 2.927853 20.284289
Na -4.820725 4.820725 -20.367636
Na -4.820725 4.820725 20.367636
Na -4.820725 -4.820725 -20.367636
Na -4.820725 -4.820725 20.367636
Na 4.820725 -4.820725 -20.367636
Na 4.820725 -4.820725 20.367636
Na 4.820725 4.820725 -20.367636
Na 4.820725 4.820725 20.367636
Na -7.879819 6.742406 -20.448969
Na -7.879819 6.742406 20.448969
Na -7.879819 -6.742406 -20.448969
Na -7.879819 -6.742406 20.448969
Na 7.879819 -6.742406 -20.448969
Na 7.879819 -6.742406 20.448969
Na 7.879819 6.742406 -20.448969
Na 7.879819 6.742406 20.448969
Na 0.000000 -8.780584 -20.973649
Na 0.000000 -8.780584 20.973649
Na 0.000000 8.780584 -20.973649
Na 0.000000 8.780584 20.973649
Na -2.971526 10.805322 -21.089962
Na -2.971526 10.805322 21.089962
Na -2.971526 -10.805322 -21.089962
Na -2.971526 -10.805322 21.089962
Na 2.971526 -10.805322 -21.089962
Na 2.971526 -10.805322 21.089962
Na 2.971526 10.805322 -21.089962
Na 2.971526 10.805322 21.089962
Na -3.577566 0.000000 -21.335552
Na -3.577566 0.000000 21.335552
Na 3.577566 0.000000 -21.335552
Na 3.577566 0.000000 21.335552
Na 0.000000 0.000000 -21.402652
Na 0.000000 0.000000 21.402652
Na -6.605349 -1.831207 -21.440436
Na -6.605349 -1.831207 21.440436
Na -6.605349 1.831207 -21.440436
Na -6.605349 1.831207 21.440436
Na 6.605349 -1.831207 -21.440436
Na 6.605349 -1.831207 21.440436
Na 6.605349 1.831207 -21.440436
Na 6.605349 1.831207 21.440436
Na -9.700030 3.705077 -21.541879
Na -9.700030 3.705077 21.541879
Na -9.700030 -3.705082 -21.541879
Na -9.700030 -3.705082 21.541879
Na 9.700030 -3.705077 -21.541879
Na 9.700030 -3.705077 21.541879
Na 9.700030 3.705082 -21.541879
Na 9.700030 3.705082 21.541879
Na -9.772050 0.000000 -21.554316
Na -9.772050 0.000000 21.554316
Na 9.772050 0.000000 -21.554316
Na 9.772050 0.000000 21.554316
Na -1.831207 5.893500 -22.152284
Na -1.831207 5.893500 22.152284
Na 1.831207 -5.893500 -22.152284
Na 1.831207 -5.893500 22.152284
Na -1.831207 -5.893500 -22.152284
Na -1.831207 -5.893500 22.152284
Na 1.831207 5.893500 -22.152284
Na 1.831207 5.893500 22.152284
Na -4.902044 7.879819 -22.289343
Na -4.902044 7.879819 22.289343
Na 4.902044 -7.879819 -22.289343
Na 4.902044 -7.879819 22.289343
Na -4.902044 -7.879819 -22.289343
Na -4.902044 -7.879819 22.289343
Na 4.902044 7.879819 -22.289343
Na 4.902044 7.879819 22.289343
Na -3.642374 2.962958 -23.271654
Na -3.642374 2.962958 23.271654
Na -3.642374 -2.962958 -23.271654
Na -3.642374 -2.962958 23.271654
Na 3.642374 -2.962958 -23.271654
Na 3.642374 -2.962958 23.271654
Na 3.642374 2.962958 -23.271654
Na 3.642374 2.962958 23.271654
Na 0.000000 2.979374 -23.347009
Na 0.000000 2.979374 23.347009
Na 0.000000 -2.979374 -23.347009
Na 0.000000 -2.979374 23.347009
Na -6.742406 4.902044 -23.426756
Na -6.742406 4.902044 23.426756
Na -6.742406 -4.902044 -23.426756
Na -6.742406 -4.902044 23.426756
Na 6.742406 -4.902044 -23.426756
Na 6.742406 -4.902044 23.426756
Na 6.742406 4.902044 -23.426756
Na 6.742406 4.902044 23.426756
Na 1.836504 -8.968813 -24.061504
Na 1.836504 -8.968813 24.061504
Na -1.836504 -8.968813 -24.061504
Na -1.836504 -8.968813 24.061504
Na -1.836504 8.968813 -24.061504
Na -1.836504 8.968813 24.061504
Na 1.836504 8.968813 -24.061504
Na 1.836504 8.968813 24.061504
Na -5.426712 0.000000 -24.327522
Na -5.426712 0.000000 24.327522
Na 5.426712 0.000000 -24.327522
Na 5.426712 0.000000 24.327522
Na -1.811167 0.000000 -24.403405
Na -1.811167 0.000000 24.403405
Na 1.811167 0.000000 -24.403405
Na 1.811167 0.000000 24.403405
Na -8.514567 -1.836504 -24.515749
Na -8.514567 -1.836504 24.515749
Na -8.514567 1.836504 -24.515749
Na -8.514567 1.836504 24.515749
Na 8.514567 -1.836504 -24.515749
Na 8.514567 -1.836504 24.515749
Na 8.514567 1.836504 -24.515749
Na 8.514567 1.836504 24.515749
Na -3.705082 5.994943 -25.246967
Na -3.705082 5.994943 25.246967
Na -3.705077 -5.994943 -25.246967
Na -3.705077 -5.994943 25.246967
Na 3.705077 -5.994943 -25.246967
Na 3.705077 -5.994943 25.246967
Na 3.705077 5.994943 -25.246967
Na 3.705077 5.994943 25.246967
Na 0.000000 6.007378 -25.318989
Na 0.000000 6.007378 25.318989
Na 0.000000 -6.007378 -25.318989
Na 0.000000 -6.007378 25.318989
Na -5.543025 2.971526 -26.352259
Na -5.543025 2.971526 26.352259
Na -5.543025 -2.971526 -26.352259
Na -5.543025 -2.971526 26.352259
Na 5.543025 -2.971526 -26.352259
Na 5.543025 -2.971526 26.352259
Na 5.543025 2.971526 -26.352259
Na 5.543025 2.971526 26.352259
Na -1.840357 3.029629 -26.456349
Na -1.840357 3.029629 26.456349
Na -1.840357 -3.029629 -26.456349
Na -1.840357 -3.029629 26.456349
Na 1.840357 -3.029629 -26.456349
Na 1.840357 -3.029629 26.456349
Na 1.840357 3.029629 -26.456349
Na 1.840357 3.029629 26.456349
Na -3.706532 0.000000 -27.487292
Na -3.706532 0.000000 27.487292
Na 3.706532 0.000000 -27.487292
Na 3.706532 0.000000 27.487292
Na 0.000000 0.000000 -27.536822
Na 0.000000 0.000000 27.536822
