\relax 
\providecommand\hyper@newdestlabel[2]{}
\providecommand\HyperFirstAtBeginDocument{\AtBeginDocument}
\HyperFirstAtBeginDocument{\ifx\hyper@anchor\@undefined
\global\let\oldcontentsline\contentsline
\gdef\contentsline#1#2#3#4{\oldcontentsline{#1}{#2}{#3}}
\global\let\oldnewlabel\newlabel
\gdef\newlabel#1#2{\newlabelxx{#1}#2}
\gdef\newlabelxx#1#2#3#4#5#6{\oldnewlabel{#1}{{#2}{#3}}}
\AtEndDocument{\ifx\hyper@anchor\@undefined
\let\contentsline\oldcontentsline
\let\newlabel\oldnewlabel
\fi}
\fi}
\global\let\hyper@last\relax 
\gdef\HyperFirstAtBeginDocument#1{#1}
\providecommand\HyField@AuxAddToFields[1]{}
\providecommand\HyField@AuxAddToCoFields[2]{}
\@input{./titlepage/titlepage.aux}
\providecommand\@newglossary[4]{}
\@newglossary{main}{glg}{gls}{glo}
\providecommand \oddpage@label [2]{}
\providecommand\@glsorder[1]{}
\providecommand\@istfilename[1]{}
\@istfilename{thesis.ist}
\@glsorder{word}
\@input{./abstract/abstract.aux}
\@writefile{toc}{\contentsline {chapter}{Content}{V}{Doc-Start}}
\@input{./introduction/introduction.aux}
\@input{./Riemann_Silberstein_Maxwell_equations/Riemann_Silberstein_Maxwell_equations.aux}
\@input{./Riemann_Silberstein_Maxwell_time_evolution_in_Schroedinger_form/Riemann_Silberstein_Maxwell_time_evolution_in_Schroedinger_form.aux}
\@input{./Riemann_Silberstein_Maxwell_propagation_on_grid/Riemann_Silberstein_Maxwell_propagation_on_grid.aux}
\@input{./quantum_electrodynamics_for_many_body_systems/quantum_electrodynamics_for_many_body_systems.aux}
\@input{./Maxwell_Pauli_Kohn_Sham_propagation_on_grid/Maxwell_Pauli_Kohn_Sham_propagation_on_grid.aux}
\@input{./large_molecular_Maxwell_Pauli_Kohn_Sham_systems/large_molecular_Maxwell_Pauli_Kohn_Sham_systems.aux}
\@input{./conclusion_and_outlook/conclusion_and_outlook.aux}
\@writefile{toc}{\contentsline {chapter}{Appendices}{136}{section*.4}}
\@input{./appendix/appendix.aux}
\@writefile{toc}{\contentsline {chapter}{List of Figures}{148}{equation.a.A.5.20}}
\@writefile{toc}{\contentsline {chapter}{List of Tables}{149}{chapter*.5}}
\bibdata{thesis}
\@writefile{toc}{\contentsline {chapter}{Bibliography}{150}{chapter*.6}}
\bibcite{szabo2012}{1}
\bibcite{martin2016}{2}
\bibcite{Schollwoeck2011}{3}
\bibcite{engel2011}{4}
\bibcite{loudon1988}{5}
\bibcite{grynberg2010}{6}
\bibcite{born2013}{7}
\bibcite{chikkaraddy2016}{8}
\bibcite{wang2017coherent}{9}
\bibcite{sukharev2017}{10}
\bibcite{ebbesen2016}{11}
\bibcite{hutchison2012}{12}
\bibcite{yamamoto2014}{13}
\bibcite{zhong2017}{14}
\bibcite{shalabney2015b}{15}
\bibcite{byrnes2014}{16}
\bibcite{sommer2016attosecond}{17}
\bibcite{maki1991linear}{18}
\bibcite{taminiau2012quantifying}{19}
\bibcite{schmiegelow2016transfer}{20}
\bibcite{birula2018}{21}
\bibcite{Yue2018}{22}
\bibcite{nature_angular_light}{23}
\bibcite{coles2014}{24}
\bibcite{ruggenthaler2018quantum}{25}
\bibcite{booth2009}{26}
\bibcite{Orus2014}{27}
\bibcite{schollwoeck2005}{28}
\bibcite{kotliar2006}{29}
\bibcite{gull2011}{30}
\bibcite{Metzner2012}{31}
\bibcite{RevModPhys.86.779}{32}
\bibcite{abedi2010exact}{33}
\bibcite{abedi2012correlated}{34}
\bibcite{kapral2015}{35}
\bibcite{tully2012}{36}
\bibcite{miller2012}{37}
\bibcite{lorin2007}{38}
\bibcite{lopata2009}{39}
\bibcite{PhysRevB.85.045134}{40}
\bibcite{Lucchini916}{41}
\bibcite{PhysRevE.94.023314}{42}
\bibcite{2018arXiv180702733Y}{43}
\bibcite{2018arXiv181006168Y}{44}
\bibcite{2018arXiv181006500U}{45}
\bibcite{2018arXiv181008344Y}{46}
\bibcite{ruggenthaler2011time}{47}
\bibcite{tokatly2013}{48}
\bibcite{ruggenthaler2014quantum}{49}
\bibcite{ruggenthaler2015}{50}
\bibcite{galego2015cavity}{51}
\bibcite{flick2018strong}{52}
\bibcite{feist2017}{53}
\bibcite{ribeiro2018polariton}{54}
\bibcite{melo2015}{55}
\bibcite{flick2017cavity}{56}
\bibcite{flick2018cavity}{57}
\bibcite{schafer2018ab}{58}
\bibcite{flick2018light}{59}
\bibcite{flick2017atoms}{60}
\bibcite{flick2018ab}{61}
\bibcite{spohn2004}{62}
\bibcite{MPKS_paper}{63}
\bibcite{Yee_1966}{64}
\bibcite{taflove2005computational}{65}
\bibcite{Gross90}{66}
\bibcite{Marques2006}{67}
\bibcite{Silberstein_1907}{68}
\bibcite{Pryce62}{69}
\bibcite{Gersten-1999}{70}
\bibcite{MOHR_2010}{71}
\bibcite{Bialynicki-Birula_1994}{72}
\bibcite{Bialynicki-Birula_1996}{73}
\bibcite{Sameen_Ahmed_Khan_2005}{74}
\bibcite{jackson1998classical}{75}
\bibcite{wigner1959group}{76}
\bibcite{Keller_PhysRevA.62}{77}
\bibcite{Keller}{78}
\bibcite{Fox_2006}{79}
\bibcite{Griffiths}{80}
\bibcite{PhysRev.28.1049}{81}
\bibcite{griffiths2014introduction}{82}
\bibcite{Moretti_2013}{83}
\bibcite{Ioana_Serban_2005}{84}
\bibcite{Mamadou_Ndong_2009}{85}
\bibcite{parr1994density}{86}
\bibcite{bérenger2007perfectly}{87}
\bibcite{Meep_2010}{88}
\bibcite{ItkinFiniteDifference}{89}
\bibcite{strikwerda2004finite}{90}
\bibcite{levy1961finite}{91}
\bibcite{smith1985numerical}{92}
\bibcite{doi:10.1002/pssb.200642067}{93}
\bibcite{Courant_1928}{94}
\bibcite{Courant_1967}{95}
\bibcite{JIN1999279}{96}
\bibcite{DOLEAN2008435}{97}
\bibcite{BERENGER1996363}{98}
\bibcite{Luebbers_Hunsberger}{99}
\bibcite{weinberg1995quantum}{100}
\bibcite{greiner1996}{101}
\bibcite{HohenbergKohn}{102}
\bibcite{Runge_Gross}{103}
\bibcite{Ruggenthaler_2014}{104}
\bibcite{kohn-1965}{105}
\bibcite{tokatly2005quantum}{106}
\bibcite{Ruggenthaler_review}{107}
\bibcite{quantum_many_particle}{108}
\bibcite{current_density_functionals_2015}{109}
\bibcite{min2017ab}{110}
\bibcite{andrade_2009}{111}
\bibcite{arfken2005mathematical}{112}
\bibcite{Sakurai1993Modern}{113}
\bibcite{Castro2004}{114}
\bibcite{Pueyo2018}{115}
\bibcite{Loudon}{116}
\bibcite{rokaj2018light}{117}
\bibcite{Octopus_2015}{118}
\bibcite{marques2003}{119}
\bibcite{doi:10.1021/acs.jpclett.5b00573}{120}
\bibcite{Noya2007}{121}
\bibcite{CCD}{122}
\bibcite{Gonze20092582}{123}
\bibcite{KohnSham}{124}
\bibcite{zenodo.1489303}{125}
\bibcite{zenodo.1489305}{126}
\bibcite{PBE_functional}{127}
\bibcite{thaller2013}{128}
\bibcite{Komech:1493301}{129}
\bibcite{miyao2009}{130}
\bibcite{konenberg2011}{131}
\bibcite{hiroshima2014}{132}
\bibcite{thirring2013}{133}
\bibcite{Atkins_Friedman_2011}{134}
\bibcite{magnetization_current_1999}{135}
\bibstyle{ieeetr}
\@input{./acknowledgements/list_of_publications.aux}
\@input{./acknowledgements/acronyms.aux}
\@input{./acknowledgements/acknowledgements.aux}
\@input{./acknowledgements/colophon.aux}
