\relax 
\@writefile{toc}{\contentsline {chapter}{\numberline {1}Time-evolution of Maxwell-fields}{1}}
\@writefile{lof}{\addvspace {10\p@ }}
\@writefile{lot}{\addvspace {10\p@ }}
\@writefile{toc}{\contentsline {section}{\numberline {1.1}Time-evolution of an inhomogeneous Maxwell's equations in Riemann Silberstein formulation}{1}}
\newlabel{eq_RS_Faraday_Ampere_schroedinger_U_infintesimal}{{1.1.22}{2}}
\newlabel{eq_RS_Faraday_Ampere_schroedinger_U_infintesimal}{{1.1.26}{4}}
\newlabel{eq_RS_time_evolution_homogen_diamagnetic_current}{{1.1.28}{6}}
\@writefile{toc}{\contentsline {section}{\numberline {1.2}The enforced time-reversal-symmetry propagation for Maxwell fields}{10}}
\newlabel{eq_RS_time_evolution_equation_recursive_etrs}{{1.2.10}{11}}
\@writefile{toc}{\contentsline {section}{\numberline {1.3}PML time evolution}{12}}
\@writefile{toc}{\contentsline {section}{\numberline {1.4}PML time evolution (old)}{14}}
