# -*- coding: utf-8 mode: shell-script -*-
# $Id: 01-free_electrons.01-ground_state.inp 13663 2015-03-30 00:04:58Z dstrubbe $

CalculationMode = gs

FromScratch = yes

Dimensions = 1
PeriodicDimensions = 1

TheoryLevel = independent_particles

%Species
"Zero" | species_user_defined | potential_formula | "0" | mass | 22.1 | valence | 2
%

%Coordinates
 "Zero" | 0
%

BoxShape = parallelepiped

%Lsize
 10.0
%

%Spacing
 0.5
%

%KPoints
0.1 | 0.000000
0.2 | 0.031416
0.2 | 0.062832
0.2 | 0.094248
0.2 | 0.125664
0.1 | 0.157080
%
