%!PS-Adobe-3.0 EPSF-3.0
%%Title: Predictor_corrector.fig
%%Creator: fig2dev Version 3.2 Patchlevel 5d
%%CreationDate: Thu Mar 20 00:25:36 2014
%%BoundingBox: 0 0 351 179
%Magnification: 0.6000
%%EndComments
%%BeginProlog
/$F2psDict 200 dict def
$F2psDict begin
$F2psDict /mtrx matrix put
/col-1 {0 setgray} bind def
/col0 {0.000 0.000 0.000 srgb} bind def
/col1 {0.000 0.000 1.000 srgb} bind def
/col2 {0.000 1.000 0.000 srgb} bind def
/col3 {0.000 1.000 1.000 srgb} bind def
/col4 {1.000 0.000 0.000 srgb} bind def
/col5 {1.000 0.000 1.000 srgb} bind def
/col6 {1.000 1.000 0.000 srgb} bind def
/col7 {1.000 1.000 1.000 srgb} bind def
/col8 {0.000 0.000 0.560 srgb} bind def
/col9 {0.000 0.000 0.690 srgb} bind def
/col10 {0.000 0.000 0.820 srgb} bind def
/col11 {0.530 0.810 1.000 srgb} bind def
/col12 {0.000 0.560 0.000 srgb} bind def
/col13 {0.000 0.690 0.000 srgb} bind def
/col14 {0.000 0.820 0.000 srgb} bind def
/col15 {0.000 0.560 0.560 srgb} bind def
/col16 {0.000 0.690 0.690 srgb} bind def
/col17 {0.000 0.820 0.820 srgb} bind def
/col18 {0.560 0.000 0.000 srgb} bind def
/col19 {0.690 0.000 0.000 srgb} bind def
/col20 {0.820 0.000 0.000 srgb} bind def
/col21 {0.560 0.000 0.560 srgb} bind def
/col22 {0.690 0.000 0.690 srgb} bind def
/col23 {0.820 0.000 0.820 srgb} bind def
/col24 {0.500 0.190 0.000 srgb} bind def
/col25 {0.630 0.250 0.000 srgb} bind def
/col26 {0.750 0.380 0.000 srgb} bind def
/col27 {1.000 0.500 0.500 srgb} bind def
/col28 {1.000 0.630 0.630 srgb} bind def
/col29 {1.000 0.750 0.750 srgb} bind def
/col30 {1.000 0.880 0.880 srgb} bind def
/col31 {1.000 0.840 0.000 srgb} bind def

end

/cp {closepath} bind def
/ef {eofill} bind def
/gr {grestore} bind def
/gs {gsave} bind def
/sa {save} bind def
/rs {restore} bind def
/l {lineto} bind def
/m {moveto} bind def
/rm {rmoveto} bind def
/n {newpath} bind def
/s {stroke} bind def
/sh {show} bind def
/slc {setlinecap} bind def
/slj {setlinejoin} bind def
/slw {setlinewidth} bind def
/srgb {setrgbcolor} bind def
/rot {rotate} bind def
/sc {scale} bind def
/sd {setdash} bind def
/ff {findfont} bind def
/sf {setfont} bind def
/scf {scalefont} bind def
/sw {stringwidth} bind def
/tr {translate} bind def
/tnt {dup dup currentrgbcolor
  4 -2 roll dup 1 exch sub 3 -1 roll mul add
  4 -2 roll dup 1 exch sub 3 -1 roll mul add
  4 -2 roll dup 1 exch sub 3 -1 roll mul add srgb}
  bind def
/shd {dup dup currentrgbcolor 4 -2 roll mul 4 -2 roll mul
  4 -2 roll mul srgb} bind def
/$F2psBegin {$F2psDict begin /$F2psEnteredState save def} def
/$F2psEnd {$F2psEnteredState restore end} def

/pageheader {
save
newpath 0 179 moveto 0 0 lineto 351 0 lineto 351 179 lineto closepath clip newpath
7.4 179.4 translate
1 -1 scale
$F2psBegin
10 setmiterlimit
0 slj 0 slc
 0.03780 0.03780 sc
} bind def
/pagefooter {
$F2psEnd
restore
} bind def
%%EndProlog
pageheader
%
% Fig objects follow
%
% 
% here starts figure with depth 50
% Polyline
0 slj
0 slc
15.000 slw
n 585 675 m
 9000 675 l gs col0 s gr 
% Polyline
n 585 4050 m
 9000 4050 l gs col0 s gr 
% Polyline
gs  clippath
705 395 m 705 210 l 645 210 l 645 395 l 645 395 l 675 245 l 705 395 l cp
eoclip
n 675 225 m
 675 4725 l gs col0 s gr gr

% arrowhead
7.500 slw
n 705 395 m 675 245 l 645 395 l 705 395 l  cp gs 0.00 setgray ef gr  col0 s
% Polyline
15.000 slw
gs  clippath
8875 2325 m 9060 2325 l 9060 2265 l 8875 2265 l 8875 2265 l 9025 2295 l 8875 2325 l cp
eoclip
n 7920 2295 m
 9045 2295 l gs col0 s gr gr

% arrowhead
7.500 slw
n 8875 2325 m 9025 2295 l 8875 2265 l 8875 2325 l  cp gs 0.00 setgray ef gr  col0 s
% Polyline
gs  clippath
7275 845 m 7275 660 l 7215 660 l 7215 845 l 7215 845 l 7245 695 l 7275 845 l cp
eoclip
n 7245 4050 m
 7245 675 l gs col1 s gr gr

% arrowhead
n 7275 845 m 7245 695 l 7215 845 l 7275 845 l  cp gs col1 1.00 shd ef gr  col1 s
% Polyline
gs  clippath
1605 845 m 1605 660 l 1545 660 l 1545 845 l 1545 845 l 1575 695 l 1605 845 l cp
eoclip
n 1575 4050 m
 1575 675 l gs col4 s gr gr

% arrowhead
n 1605 845 m 1575 695 l 1545 845 l 1605 845 l  cp gs col4 1.00 shd ef gr  col4 s
% Polyline
gs  clippath
3450 845 m 3450 660 l 3390 660 l 3390 845 l 3390 845 l 3420 695 l 3450 845 l cp
eoclip
n 3420 4050 m
 3420 675 l gs col1 s gr gr

% arrowhead
n 3450 845 m 3420 695 l 3390 845 l 3450 845 l  cp gs col1 1.00 shd ef gr  col1 s
% Polyline
gs  clippath
5318 845 m 5318 660 l 5258 660 l 5258 845 l 5258 845 l 5288 695 l 5318 845 l cp
eoclip
n 5288 4050 m
 5288 675 l gs col4 s gr gr

% arrowhead
n 5318 845 m 5288 695 l 5258 845 l 5318 845 l  cp gs col4 1.00 shd ef gr  col4 s
% Polyline
gs  clippath
2740 1608 m 2868 1741 l 2912 1700 l 2783 1566 l 2783 1566 l 2866 1696 l 2740 1608 l cp
eoclip
n 1890 675 m
 2880 1710 l gs col4 s gr gr

% arrowhead
n 2740 1608 m 2866 1696 l 2783 1566 l 2740 1608 l  cp gs col4 1.00 shd ef gr  col4 s
% Polyline
gs  clippath
4628 1611 m 4759 1741 l 4801 1699 l 4671 1568 l 4671 1568 l 4756 1696 l 4628 1611 l cp
eoclip
n 3735 675 m
 4770 1710 l gs col1 s gr gr

% arrowhead
n 4628 1611 m 4756 1696 l 4671 1568 l 4628 1611 l  cp gs col1 1.00 shd ef gr  col1 s
% Polyline
gs  clippath
6539 1613 m 6673 1742 l 6714 1698 l 6581 1570 l 6581 1570 l 6669 1696 l 6539 1613 l cp
eoclip
n 5603 675 m
 6683 1710 l gs col4 s gr gr

% arrowhead
n 6539 1613 m 6669 1696 l 6581 1570 l 6539 1613 l  cp gs col4 1.00 shd ef gr  col4 s
/Times-Roman ff 190.50 scf sf
1058 4590 m
gs 1 -1 sc ($\\Rightarrow \\vec{J}\(t_0\)$) col4 sh gr
/Times-Roman ff 190.50 scf sf
1305 4275 m
gs 1 -1 sc ($\\Psi\(t_0\)$) col4 sh gr
/Times-Roman ff 158.75 scf sf
225 4095 m
gs 1 -1 sc ($t_0$) col0 sh gr
/Times-Roman ff 190.50 scf sf
-180 720 m
gs 1 -1 sc ($t_0+\\Delta t$) col0 sh gr
/Times-Roman ff 190.50 scf sf
630 180 m
gs 1 -1 sc ($t$) col0 sh gr
/Times-Roman ff 190.50 scf sf
3150 4275 m
gs 1 -1 sc ($\\mathcal{F}\(t_0\)$) col1 sh gr
/Times-Roman ff 190.50 scf sf
2880 4590 m
gs 1 -1 sc ($\\Rightarrow \\vec{E}\(t_0\)$) col1 sh gr
/Times-Roman ff 190.50 scf sf
7965 2520 m
gs 1 -1 sc (convergence) col0 sh gr
/Times-Roman ff 190.50 scf sf
5018 4275 m
gs 1 -1 sc ($\\Psi\(t_0\)$) col4 sh gr
/Times-Roman ff 190.50 scf sf
4770 4590 m
gs 1 -1 sc ($\\Rightarrow \\vec{J}\(t_0\)$) col4 sh gr
/Times-Roman ff 190.50 scf sf
6975 4275 m
gs 1 -1 sc ($\\mathcal{F}\(t_0\)$) col1 sh gr
/Times-Roman ff 190.50 scf sf
6705 4590 m
gs 1 -1 sc ($\\Rightarrow \\vec{E}\(t_0\)$) col1 sh gr
/Times-Roman ff 222.25 scf sf
1350 3600 m
gs 1 -1 sc  90.0 rot ($\\hat{U}_{at}\(t_0+\\Delta t,t\)_{\\vec{E}\(t_0\)}^{\\vec{E}\(t_0\)}$) col4 sh gr
/Times-Roman ff 190.50 scf sf
1103 270 m
gs 1 -1 sc ($\\Psi^{\(1\)}\(t_0+\\Delta t\)$) col4 sh gr
/Times-Roman ff 190.50 scf sf
855 585 m
gs 1 -1 sc ($\\Rightarrow \\vec{J}^{\(1\)}\(t_0+\\Delta t\)$) col4 sh gr
/Times-Roman ff 190.50 scf sf
2921 270 m
gs 1 -1 sc ($\\mathcal{F}^{\(1\)}\(t_0+\\Delta t\)$) col1 sh gr
/Times-Roman ff 190.50 scf sf
4716 270 m
gs 1 -1 sc ($\\Psi^{\(2\)}\(t_0+\\Delta t\)$) col4 sh gr
/Times-Roman ff 190.50 scf sf
4478 585 m
gs 1 -1 sc ($\\Rightarrow \\vec{J}^{\(2\)}\(t_0+\\Delta t\)$) col4 sh gr
/Times-Roman ff 190.50 scf sf
6651 270 m
gs 1 -1 sc ($\\mathcal{F}^{\(2\)}\(t_0+\\Delta t\)$) col1 sh gr
/Times-Roman ff 190.50 scf sf
6390 585 m
gs 1 -1 sc ($\\Rightarrow \\vec{E}^{\(2\)}\(t_0+\\Delta t\)$) col1 sh gr
/Times-Roman ff 190.50 scf sf
2655 585 m
gs 1 -1 sc ($\\Rightarrow \\vec{E}^{\(1\)}\(t_0+\\Delta t\)$) col1 sh gr
/Times-Roman ff 222.25 scf sf
3195 3600 m
gs 1 -1 sc  90.0 rot ($\\hat{U}_{em}\(t_0+\\Delta t,t\)_{\\vec{J}\(t_0\)}^{\\vec{J}^{\(1\)}\(t_0+\\Delta t\)}$) col1 sh gr
/Times-Roman ff 222.25 scf sf
5063 3600 m
gs 1 -1 sc  90.0 rot ($\\hat{U}_{at}\(t_0+\\Delta t,t\)_{\\vec{E}\(t_0\)}^{\\vec{E}^{\(1\)}\(t_0+\\Delta t\)}$) col4 sh gr
/Times-Roman ff 222.25 scf sf
7020 3600 m
gs 1 -1 sc  90.0 rot ($\\hat{U}_{em}\(t_0+\\Delta t,t\)_{\\vec{J}\(t_0\)}^{\\vec{J}^{\(2\)}\(t_0+\\Delta t\)}$) col1 sh gr
% here ends figure;
pagefooter
showpage
%%Trailer
%EOF
