\relax 
\providecommand\hyper@newdestlabel[2]{}
\@writefile{toc}{\contentsline {chapter}{\numberline {2}Riemann-Silberstein time-evolution of Maxwell fields in \newline  Schr\"odinger-like form}{35}{chapter.2}}
\@writefile{lof}{\addvspace {10\p@ }}
\@writefile{lot}{\addvspace {10\p@ }}
\newlabel{chap_RS_Mx_time_evolution}{{2}{35}{Riemann-Silberstein time-evolution of Maxwell fields in \newline Schr\"odinger-like form}{chapter.2}{}}
\@writefile{toc}{\contentsline {section}{\numberline {2.1}Time-evolution of homogeneous microscopic Maxwell's equations}{35}{section.2.1}}
\newlabel{sec_RS_Mx_time_evolution_micro_homogeneous}{{2.1}{35}{Time-evolution of homogeneous microscopic Maxwell's equations}{section.2.1}{}}
\citation{PhysRev.28.1049}
\citation{griffiths2014introduction}
\citation{griffiths2014introduction}
\citation{Moretti_2013}
\newlabel{eq_RS_Gauss_micro_homogeneous}{{2.1.1}{36}{Time-evolution of homogeneous microscopic Maxwell's equations}{equation.2.1.1}{}}
\newlabel{eq_RS_Faraday_Ampere_micro_schroedinger_6x6_homogeneous}{{2.1.2}{36}{Time-evolution of homogeneous microscopic Maxwell's equations}{equation.2.1.2}{}}
\newlabel{eq_matter_time_evolution_operator_H_const}{{2.1.4}{36}{Time-evolution of homogeneous microscopic Maxwell's equations}{equation.2.1.4}{}}
\newlabel{eq_psi_time_evolution_psi}{{2.1.5}{36}{Time-evolution of homogeneous microscopic Maxwell's equations}{equation.2.1.5}{}}
\newlabel{eq_time_evolution_RS_state}{{2.1.6}{36}{Time-evolution of homogeneous microscopic Maxwell's equations}{equation.2.1.6}{}}
\newlabel{eq_time_evolution_unity}{{2.1.7}{37}{Time-evolution of homogeneous microscopic Maxwell's equations}{equation.2.1.7}{}}
\newlabel{eq_Mx_energy_unitary_condition}{{2.1.9}{37}{Time-evolution of homogeneous microscopic Maxwell's equations}{equation.2.1.9}{}}
\newlabel{eq_U_unitary_condition}{{2.1.10}{37}{Time-evolution of homogeneous microscopic Maxwell's equations}{equation.2.1.10}{}}
\newlabel{ep_matter_time_evolution_operator_composition}{{2.1.11}{37}{Time-evolution of homogeneous microscopic Maxwell's equations}{equation.2.1.11}{}}
\newlabel{eq_RS_time_evolution_operator_ansatz}{{2.1.12}{38}{Time-evolution of homogeneous microscopic Maxwell's equations}{equation.2.1.12}{}}
\newlabel{eq_RS_U_unitary_condition}{{2.1.13}{38}{Time-evolution of homogeneous microscopic Maxwell's equations}{equation.2.1.13}{}}
\newlabel{eq_RS_U_composition_condition}{{2.1.14}{38}{Time-evolution of homogeneous microscopic Maxwell's equations}{equation.2.1.14}{}}
\newlabel{eq_RS_time_evolution_operator_composition}{{2.1.15}{38}{Time-evolution of homogeneous microscopic Maxwell's equations}{equation.2.1.15}{}}
\newlabel{eq_RS_time_evolution_operator_micro_homo}{{2.1.16}{38}{Time-evolution of homogeneous microscopic Maxwell's equations}{equation.2.1.16}{}}
\@writefile{toc}{\contentsline {section}{\numberline {2.2}Time-evolution of inhomogeneous microscopic Riemann-Silberstein six-vector}{38}{section.2.2}}
\newlabel{sec_RS_Mx_time_evolution_inhomogeneous}{{2.2}{38}{Time-evolution of inhomogeneous microscopic Riemann-Silberstein six-vector}{section.2.2}{}}
\citation{Ioana_Serban_2005}
\citation{Mamadou_Ndong_2009}
\newlabel{eq_RS_Gauss_micro_6_dim_2}{{2.2.1}{39}{Time-evolution of inhomogeneous microscopic Riemann-Silberstein six-vector}{equation.2.2.1}{}}
\newlabel{eq_RS_Faraday_Ampere_micro_schroedinger_6x6_inhomogeneous}{{2.2.2}{39}{Time-evolution of inhomogeneous microscopic Riemann-Silberstein six-vector}{equation.2.2.2}{}}
\newlabel{eq_RS_current_density_auxiliary_expression}{{2.2.3}{39}{Time-evolution of inhomogeneous microscopic Riemann-Silberstein six-vector}{equation.2.2.3}{}}
\newlabel{eq_auxiliary_matrix_A}{{2.2.4}{39}{Time-evolution of inhomogeneous microscopic Riemann-Silberstein six-vector}{equation.2.2.4}{}}
\newlabel{eq_time_evolution_RS_state_inhomogeneous}{{2.2.5}{39}{Time-evolution of inhomogeneous microscopic Riemann-Silberstein six-vector}{equation.2.2.5}{}}
\citation{Ioana_Serban_2005}
\citation{Mamadou_Ndong_2009}
\newlabel{eq_RS_time_evolution_inhomo}{{2.2.6}{40}{Time-evolution of inhomogeneous microscopic Riemann-Silberstein six-vector}{equation.2.2.6}{}}
\newlabel{eq_RS_time_evolution_inhomo_short}{{2.2.7}{40}{Time-evolution of inhomogeneous microscopic Riemann-Silberstein six-vector}{equation.2.2.7}{}}
\newlabel{eq_time_evolution_inhomo_ansatz}{{2.2.8}{40}{Time-evolution of inhomogeneous microscopic Riemann-Silberstein six-vector}{equation.2.2.8}{}}
\newlabel{eq_RS_time_evolution_inhomo_solution}{{2.2.11}{40}{Time-evolution of inhomogeneous microscopic Riemann-Silberstein six-vector}{equation.2.2.11}{}}
\newlabel{eq_RS_time_evolution_operator_inhomo}{{2.2.13}{41}{Time-evolution of inhomogeneous microscopic Riemann-Silberstein six-vector}{equation.2.2.13}{}}
\newlabel{eq_RS_time_evolution_operator_inhomo_2}{{2.2.14}{41}{Time-evolution of inhomogeneous microscopic Riemann-Silberstein six-vector}{equation.2.2.14}{}}
\@writefile{toc}{\contentsline {section}{\numberline {2.3}Time-evolution of macroscopic Maxwell's equations in a linear medium}{41}{section.2.3}}
\newlabel{sec_RS_Mx_time_evolution_medium}{{2.3}{41}{Time-evolution of macroscopic Maxwell's equations in a linear medium}{section.2.3}{}}
\newlabel{eq_RS_Faraday_Ampere_macro_schroedinger_6x6_homogeneous}{{2.3.1}{41}{Time-evolution of macroscopic Maxwell's equations in a linear medium}{equation.2.3.1}{}}
\citation{Moretti_2013}
\citation{Moretti_2013}
\newlabel{eq_RS_time_evolution_operator_ansatz_macro}{{2.3.2}{42}{Time-evolution of macroscopic Maxwell's equations in a linear medium}{equation.2.3.2}{}}
\newlabel{eq_RS_time_evolution_operator_macro_homo_series}{{2.3.4}{42}{Time-evolution of macroscopic Maxwell's equations in a linear medium}{equation.2.3.4}{}}
\newlabel{eq_RS_time_evolution_operator_macro_homo}{{2.3.5}{42}{Time-evolution of macroscopic Maxwell's equations in a linear medium}{equation.2.3.5}{}}
\newlabel{eq_RS_time_evolution_operator_micro_homo_const_time}{{2.3.6}{42}{Time-evolution of macroscopic Maxwell's equations in a linear medium}{equation.2.3.6}{}}
\newlabel{eq_RS_Faraday_Ampere_macro_schroedinger_6x6_inhomogeneous}{{2.3.7}{43}{Time-evolution of macroscopic Maxwell's equations in a linear medium}{equation.2.3.7}{}}
\newlabel{eq_RS_time_evolution_operator_inhomo_macro}{{2.3.8}{43}{Time-evolution of macroscopic Maxwell's equations in a linear medium}{equation.2.3.8}{}}
\@writefile{toc}{\contentsline {section}{\numberline {2.4}Conservation of electric and magnetic Gau\ss {} laws in time}{43}{section.2.4}}
\newlabel{sec_Gauss_law_time_evolution_conservation}{{2.4}{43}{Conservation of electric and magnetic Gau\ss {} laws in time}{section.2.4}{}}
\newlabel{eq_divergence_conditon_initial}{{2.4.1}{43}{Conservation of electric and magnetic Gau\ss {} laws in time}{equation.2.4.1}{}}
\citation{jackson1998classical}
\newlabel{eq_divergence_conditon_at_time_t}{{2.4.2}{44}{Conservation of electric and magnetic Gau\ss {} laws in time}{equation.2.4.2}{}}
\newlabel{eq_divergence_conditon_at_time_t_evolution}{{2.4.3}{44}{Conservation of electric and magnetic Gau\ss {} laws in time}{equation.2.4.3}{}}
\newlabel{eq_divergence_conditon_at_time_t_evolution_homogeneous}{{2.4.5}{44}{Conservation of electric and magnetic Gau\ss {} laws in time}{equation.2.4.5}{}}
\newlabel{eq_continuity_equation}{{2.4.6}{44}{Conservation of electric and magnetic Gau\ss {} laws in time}{equation.2.4.6}{}}
\newlabel{eq_continuity_equation_RS}{{2.4.7}{44}{Conservation of electric and magnetic Gau\ss {} laws in time}{equation.2.4.7}{}}
\newlabel{eq_divergence_conditon_at_time_t_evolution_2}{{2.4.8}{45}{Conservation of electric and magnetic Gau\ss {} laws in time}{equation.2.4.8}{}}
\newlabel{eq_divergence_conditon_at_time_t_evolution_3}{{2.4.9}{45}{Conservation of electric and magnetic Gau\ss {} laws in time}{equation.2.4.9}{}}
\@setckpt{./Riemann_Silberstein_Maxwell_time_evolution_in_Schroedinger_form/Riemann_Silberstein_Maxwell_time_evolution_in_Schroedinger_form}{
\setcounter{page}{46}
\setcounter{equation}{9}
\setcounter{enumi}{0}
\setcounter{enumii}{0}
\setcounter{enumiii}{0}
\setcounter{enumiv}{0}
\setcounter{footnote}{0}
\setcounter{mpfootnote}{0}
\setcounter{part}{0}
\setcounter{chapter}{2}
\setcounter{section}{4}
\setcounter{subsection}{0}
\setcounter{subsubsection}{0}
\setcounter{paragraph}{0}
\setcounter{subparagraph}{0}
\setcounter{figure}{0}
\setcounter{table}{0}
\setcounter{parentequation}{0}
\setcounter{r@tfl@t}{0}
\setcounter{subfigure}{0}
\setcounter{lofdepth}{1}
\setcounter{subtable}{0}
\setcounter{lotdepth}{1}
\setcounter{su@anzahl}{0}
\setcounter{LT@tables}{0}
\setcounter{LT@chunks}{0}
\setcounter{@pps}{0}
\setcounter{@ppsavesec}{0}
\setcounter{@ppsaveapp}{0}
\setcounter{float@type}{4}
\setcounter{Item}{0}
\setcounter{Hfootnote}{0}
\setcounter{bookmark@seq@number}{0}
\setcounter{lips@count}{0}
\setcounter{section@level}{1}
}
