# -*- coding: utf-8 mode: shell-script -*-
# $Id: 01-carbon_atom.01-psf_l0.inp 12538 2014-10-09 20:38:12Z dstrubbe $
#
# The purpose of this test is making sure that spin-polarized
# calculations work.
# It is the calculation of one atom of Carbon, within the LSDA
# calculation.
#
# The result *almost* compares (to within 0.1eV) with the results
# given at the NIST webpage:
# http://physics.nist.gov/PhysRefData/DFTdata/contents.html
# The reasons for the discrepancy may be two:
# o The NIST calculation is all-electron.
# o The NIST calculation uses the VWN correlation. Here I have put
#   put PZ, because otherwise the results are even worse (probably
#   our VWN has some bug?)
# It would be nice to investigate the reason for the small
# discrepancy...

CalculationMode = gs
fromScratch = yes
units = ev_angstrom

%Coordinates
"C" | 0 | 0 | 0
%

spacing = 0.19
radius = 5.0

ForceComplex = yes
LCAOComplexYlms = yes
SpinComponents = polarized

ExtraStates = 2
%Occupations
 2/3 | 2/3 | 2/3
 0 | 0 | 0
%

XCFunctional = lda_x + lda_c_pz

ConvRelDens = 4e-6

PoissonSolver = fft
PoissonFFTKernel = multipole_correction
