# -*- coding: utf-8 mode: shell-script -*-
# $Id: 06-restart.05-restart_gs.inp 12180 2014-06-06 14:50:38Z micael $

# Now restart the previous calculation

CalculationMode = gs
fromScratch = no
Radius = 7.0
Spacing = 0.5
%Coordinates
  "Na" | 0 | 0 | 0
%
SpinComponents = spin_polarized

