# -*- coding: utf-8 mode: shell-script -*-
# $Id: 09-spinors.03-rmmdiis_extra_states.inp 11695 2014-01-31 10:48:23Z micael $

CalculationMode = gs
fromScratch = yes

Radius = 7.0
Spacing = 0.5
%Coordinates
  "Na" | 0 | 0 | 0.0
%
SpinComponents = non_collinear
GuessMagnetDensity = user_defined
%AtomsMagnetDirection
 1 | 1 | 0
%

Eigensolver = rmmdiis

ExtraStates = 5

