TestMode = derivatives

# coordinates are not used at all
%Coordinates
"dummy" | 0.0
%
%Species
"dummy" | species_user_defined | potential_formula | "0" | valence | 1
%

Dimensions = 1
BoxShape = sphere
Radius  = 100.0
Spacing = 0.01

TestRepetitions = 1
