# -*- coding: utf-8 mode: shell-script -*-
# $Id: 04-box.01-ground_state.inp 13356 2015-03-14 23:36:41Z xavier $
#
# The two lowest eigenstates of the asymmetric double well,
# V(x) = -5*step(x+5)*step(5-x)
# are calculated. 

CalculationMode = gs

ExperimentalFeatures = yes

Dimensions = 1
fromScratch = yes

BoxShape = sphere
Spacing = 0.4
Radius =  15.0

TheoryLevel = independent_particles

%Species
"Box1D" | species_user_defined | potential_formula | "-5*step(x+5)*step(5-x)" | valence | 1
%

TheoryLevel = independent_particles

%Coordinates
"Box1D" | 0
%

EigenSolver = cg_new
