# -*- coding: utf-8 mode: shell-script -*-
# $Id: 01-casida.03-casida.inp 13353 2015-03-14 21:08:51Z xavier $

CalculationMode = casida
ExperimentalFeatures = yes

DebugLevel = 1
FromScratch = yes

bond_length = 2.0744

%Coordinates
"N" |  -bond_length/2 |  0.0 |  0.0 
"N" |   bond_length/2 |  0.0 |  0.0 
%

FilterPotentials = filter_TS
%Species
"N" | species_pseudo | lmax | 2 | lloc | 0 | db_file | "PSF/N.psf"
%

BoxShape = sphere

Radius = 12.0
Spacing = 0.36

XCFunctional = lda_x + lda_c_vwn
CasidaTheoryLevel = eps_diff + petersilka + lrtddft_casida + tamm_dancoff + variational
CasidaCalcForces = yes
CasidaKohnShamStates = "3-10"

CasidaTransitionDensities = "3-4"
OutputHow = xcrysden

PoissonSolver = fft
PoissonFFTKernel = multipole_correction

ParallelizationStrategy = par_domains + par_other
%ParallelizationGroupRanks
 2 | 1 | 1 | 2
%
