#FIG 3.2  Produced by xfig version 3.2.5b
Portrait
Center
Metric
A4      
60.00
Single
-2
1200 2
2 1 0 2 0 7 50 -1 -1 0.000 0 0 -1 0 0 2
	 585 675 9000 675
2 1 0 2 0 7 50 -1 -1 0.000 0 0 -1 0 0 2
	 585 4050 9000 4050
2 1 0 2 0 7 50 -1 -1 0.000 0 0 -1 0 1 2
	1 1 1.00 60.00 150.00
	 675 225 675 4725
2 1 0 2 0 7 50 -1 -1 0.000 0 0 -1 1 0 2
	1 1 1.00 60.00 150.00
	 7920 2295 9045 2295
2 1 0 1 1 7 50 -1 -1 0.000 0 0 -1 1 0 2
	1 1 1.00 60.00 150.00
	 7245 4050 7245 675
2 1 0 1 4 7 50 -1 -1 0.000 0 0 -1 1 0 2
	1 1 1.00 60.00 150.00
	 1575 4050 1575 675
2 1 0 1 1 7 50 -1 -1 0.000 0 0 -1 1 0 2
	1 1 1.00 60.00 150.00
	 3420 4050 3420 675
2 1 0 1 4 7 50 -1 -1 0.000 0 0 -1 1 0 2
	1 1 1.00 60.00 150.00
	 5288 4050 5288 675
2 1 0 1 4 7 50 -1 -1 0.000 0 0 -1 1 0 2
	1 1 1.00 60.00 150.00
	 1890 675 2880 1710
2 1 0 1 1 7 50 -1 -1 0.000 0 0 -1 1 0 2
	1 1 1.00 60.00 150.00
	 3735 675 4770 1710
2 1 0 1 4 7 50 -1 -1 0.000 0 0 -1 1 0 2
	1 1 1.00 60.00 150.00
	 5603 675 6683 1710
4 0 4 50 -1 0 12 0.0000 6 195 2220 1058 4590 $\\Rightarrow \\vec{J}(t_0)$\001
4 0 4 50 -1 0 12 0.0000 6 180 900 1305 4275 $\\Psi(t_0)$\001
4 0 0 50 -1 0 10 0.0000 6 150 405 225 4095 $t_0$\001
4 0 0 50 -1 0 12 0.0000 6 180 1185 -180 720 $t_0+\\Delta t$\001
4 0 0 50 -1 0 12 0.0000 6 165 270 630 180 $t$\001
4 0 1 50 -1 0 12 0.0000 6 180 1590 3150 4275 $\\mathcal{F}(t_0)$\001
4 0 1 50 -1 0 12 0.0000 6 195 2265 2880 4590 $\\Rightarrow \\vec{E}(t_0)$\001
4 0 0 50 -1 0 12 0.0000 4 135 1035 7965 2520 convergence\001
4 0 4 50 -1 0 12 0.0000 6 180 900 5018 4275 $\\Psi(t_0)$\001
4 0 4 50 -1 0 12 0.0000 6 195 2220 4770 4590 $\\Rightarrow \\vec{J}(t_0)$\001
4 0 1 50 -1 0 12 0.0000 6 180 1590 6975 4275 $\\mathcal{F}(t_0)$\001
4 0 1 50 -1 0 12 0.0000 6 195 2265 6705 4590 $\\Rightarrow \\vec{E}(t_0)$\001
4 0 4 50 -1 0 14 1.5708 6 225 6105 1350 3600 $\\hat{U}_{at}(t_0+\\Delta t,t)_{\\vec{E}(t_0)}^{\\vec{E}(t_0)}$\001
4 0 4 50 -1 0 12 0.0000 6 180 2100 1103 270 $\\Psi^{(1)}(t_0+\\Delta t)$\001
4 0 4 50 -1 0 12 0.0000 6 195 3420 855 585 $\\Rightarrow \\vec{J}^{(1)}(t_0+\\Delta t)$\001
4 0 1 50 -1 0 12 0.0000 6 180 2790 2921 270 $\\mathcal{F}^{(1)}(t_0+\\Delta t)$\001
4 0 4 50 -1 0 12 0.0000 6 180 2100 4716 270 $\\Psi^{(2)}(t_0+\\Delta t)$\001
4 0 4 50 -1 0 12 0.0000 6 195 3420 4478 585 $\\Rightarrow \\vec{J}^{(2)}(t_0+\\Delta t)$\001
4 0 1 50 -1 0 12 0.0000 6 180 2790 6651 270 $\\mathcal{F}^{(2)}(t_0+\\Delta t)$\001
4 0 1 50 -1 0 12 0.0000 6 195 3465 6390 585 $\\Rightarrow \\vec{E}^{(2)}(t_0+\\Delta t)$\001
4 0 1 50 -1 0 12 0.0000 6 195 3465 2655 585 $\\Rightarrow \\vec{E}^{(1)}(t_0+\\Delta t)$\001
4 0 1 50 -1 0 14 1.5708 6 225 7575 3195 3600 $\\hat{U}_{em}(t_0+\\Delta t,t)_{\\vec{J}(t_0)}^{\\vec{J}^{(1)}(t_0+\\Delta t)}$\001
4 0 4 50 -1 0 14 1.5708 6 225 7560 5063 3600 $\\hat{U}_{at}(t_0+\\Delta t,t)_{\\vec{E}(t_0)}^{\\vec{E}^{(1)}(t_0+\\Delta t)}$\001
4 0 1 50 -1 0 14 1.5708 6 225 7575 7020 3600 $\\hat{U}_{em}(t_0+\\Delta t,t)_{\\vec{J}(t_0)}^{\\vec{J}^{(2)}(t_0+\\Delta t)}$\001
