\relax 
\providecommand\hyper@newdestlabel[2]{}
\citation{Yee_1966}
\citation{Gross90}
\citation{parr1994density}
\citation{bérenger2007perfectly}
\citation{Meep_2010}
\@writefile{toc}{\contentsline {chapter}{\numberline {3}Implementation of the Riemann-Silberstein Maxwell propagation in the real-time real-space code Octopus}{33}{chapter.3}}
\@writefile{lof}{\addvspace {10\p@ }}
\@writefile{lot}{\addvspace {10\p@ }}
\newlabel{chap_RS_Mx_propagation_on_grid}{{3}{33}{Implementation of the Riemann-Silberstein Maxwell propagation in the real-time real-space code Octopus}{chapter.3}{}}
\citation{ItkinFiniteDifference}
\citation{strikwerda2004finite}
\citation{levy1961finite}
\@writefile{toc}{\contentsline {section}{\numberline {3.1}Discretized three-dimensional grid for the Maxwell field}{34}{section.3.1}}
\newlabel{sec_discretized_Mx_grid}{{3.1}{34}{Discretized three-dimensional grid for the Maxwell field}{section.3.1}{}}
\@writefile{toc}{\contentsline {subsection}{\numberline {3.1.1}Riemann-Silberstein Maxwell grid}{34}{subsection.3.1.1}}
\newlabel{subsec_RS_grid}{{3.1.1}{34}{Riemann-Silberstein Maxwell grid}{subsection.3.1.1}{}}
\@writefile{toc}{\contentsline {subsection}{\numberline {3.1.2}Finite difference stencil}{34}{subsection.3.1.2}}
\newlabel{subsec_finite_difference_stencil}{{3.1.2}{34}{Finite difference stencil}{subsection.3.1.2}{}}
\newlabel{eq_Taylor_expansion_f_x_plus}{{3.1.1}{34}{Finite difference stencil}{equation.3.1.1}{}}
\@writefile{lof}{\contentsline {figure}{\numberline {3.1}{\ignorespaces Two-dimensional slice of a three-dimensional simulation box with different simulation regions}}{35}{figure.3.1}}
\newlabel{fig_simulation_box_in_2D}{{3.1}{35}{Two-dimensional slice of a three-dimensional simulation box with different simulation regions}{figure.3.1}{}}
\newlabel{eq_Taylor_expansion_f_x_minus}{{3.1.2}{35}{Finite difference stencil}{equation.3.1.2}{}}
\newlabel{eq_Taylor_first_der_f_x_plus}{{3.1.3}{35}{Finite difference stencil}{equation.3.1.3}{}}
\newlabel{eq_Taylor_first_der_f_x_minus}{{3.1.4}{36}{Finite difference stencil}{equation.3.1.4}{}}
\newlabel{eq_Taylor_first_der_f_x_forward}{{3.1.6}{36}{Finite difference stencil}{equation.3.1.6}{}}
\newlabel{eq_Taylor_first_der_f_x_backward}{{3.1.7}{36}{Finite difference stencil}{equation.3.1.7}{}}
\newlabel{eq_Taylor_center_expansion}{{3.1.8}{36}{Finite difference stencil}{equation.3.1.8}{}}
\newlabel{eq_first_der_center_ansatz}{{3.1.9}{36}{Finite difference stencil}{equation.3.1.9}{}}
\newlabel{eq_Taylor_center_expansion_n_in_1D}{{3.1.10}{37}{Finite difference stencil}{equation.3.1.10}{}}
\newlabel{eq_first_der_substitution}{{3.1.11}{37}{Finite difference stencil}{equation.3.1.11}{}}
\newlabel{eq_coefficients_b}{{3.1.12}{37}{Finite difference stencil}{equation.3.1.12}{}}
\newlabel{eq_coefficients_b}{{3.1.13}{37}{Finite difference stencil}{equation.3.1.13}{}}
\citation{smith1985numerical}
\newlabel{eq_fd_coefficients_equation}{{3.1.14}{38}{Finite difference stencil}{equation.3.1.14}{}}
\newlabel{eq_stencil_vector_dot_product_1D}{{3.1.15}{38}{Finite difference stencil}{equation.3.1.15}{}}
\newlabel{eq_stencil_vector_dot_product_3D_x}{{3.1.16}{38}{Finite difference stencil}{equation.3.1.16}{}}
\newlabel{eq_stencil_vector_dot_product_3D_y}{{3.1.17}{38}{Finite difference stencil}{equation.3.1.17}{}}
\citation{doi:10.1002/pssb.200642067}
\newlabel{eq_stencil_vector_dot_product_3D_z}{{3.1.18}{39}{Finite difference stencil}{equation.3.1.18}{}}
\@writefile{toc}{\contentsline {subsection}{\numberline {3.1.3}Parallelization strategy in the first principles code octopus}{39}{subsection.3.1.3}}
\newlabel{subsec_parallelization_strategy}{{3.1.3}{39}{Parallelization strategy in the first principles code octopus}{subsection.3.1.3}{}}
\@writefile{lof}{\contentsline {figure}{\numberline {3.2}{\ignorespaces Two-dimensional stencil}}{39}{figure.3.2}}
\newlabel{fig_stencil_in_2D}{{3.2}{39}{Two-dimensional stencil}{figure.3.2}{}}
\@writefile{lof}{\contentsline {figure}{\numberline {3.3}{\ignorespaces Parallelization scheme for dividing the Maxwell grid into four partitions}}{40}{figure.3.3}}
\newlabel{fig_parallel_stencil_in_2D}{{3.3}{40}{Parallelization scheme for dividing the Maxwell grid into four partitions}{figure.3.3}{}}
\@writefile{toc}{\contentsline {section}{\numberline {3.2}Discretized Riemann-Silberstein time-evolution operators}{40}{section.3.2}}
\newlabel{sec_discretized_time_evolution_operators}{{3.2}{40}{Discretized Riemann-Silberstein time-evolution operators}{section.3.2}{}}
\newlabel{eq_RS_time_evolution_operator_inhomo_2_copy}{{3.2.1}{40}{Discretized Riemann-Silberstein time-evolution operators}{equation.3.2.1}{}}
\citation{Courant_1928}
\citation{Courant_1967}
\citation{Courant_1928}
\citation{Courant_1967}
\newlabel{eq_RS_time_evolution_equation_recursive}{{3.2.2}{41}{Discretized Riemann-Silberstein time-evolution operators}{equation.3.2.2}{}}
\newlabel{eq_RS_time_evolution_equation_recursive_numerical}{{3.2.3}{41}{Discretized Riemann-Silberstein time-evolution operators}{equation.3.2.3}{}}
\newlabel{eq_Maxwell_courant_time}{{3.2.4}{41}{Discretized Riemann-Silberstein time-evolution operators}{equation.3.2.4}{}}
\@writefile{toc}{\contentsline {section}{\numberline {3.3}Maxwell-propagation with Octopus}{41}{section.3.3}}
\newlabel{sec_maxwell_propagation_octopus}{{3.3}{41}{Maxwell-propagation with Octopus}{section.3.3}{}}
\citation{Meep_2010}
\citation{Yee_1966}
\@writefile{toc}{\contentsline {subsection}{\numberline {3.3.1}Comparison of the Octopus Maxwell-propagation with the electromagnetic propagation program MEEP}{42}{subsection.3.3.1}}
\newlabel{subsec_Meep_comparison}{{3.3.1}{42}{Comparison of the Octopus Maxwell-propagation with the electromagnetic propagation program MEEP}{subsection.3.3.1}{}}
\newlabel{eq_external_current_distribution}{{3.3.3}{42}{Comparison of the Octopus Maxwell-propagation with the electromagnetic propagation program MEEP}{equation.3.3.3}{}}
\@writefile{lof}{\contentsline {figure}{\numberline {3.4}{\ignorespaces Spatial external current density distribution}}{43}{figure.3.4}}
\newlabel{fig_spatial_current}{{3.4}{43}{Spatial external current density distribution}{figure.3.4}{}}
\newlabel{eq_test_current_1}{{3.3.4}{43}{Comparison of the Octopus Maxwell-propagation with the electromagnetic propagation program MEEP}{equation.3.3.4}{}}
\newlabel{eq_test_current_2}{{3.3.5}{43}{Comparison of the Octopus Maxwell-propagation with the electromagnetic propagation program MEEP}{equation.3.3.5}{}}
\newlabel{eq_test_current_3}{{3.3.6}{43}{Comparison of the Octopus Maxwell-propagation with the electromagnetic propagation program MEEP}{equation.3.3.6}{}}
\newlabel{eq_test_current_4}{{3.3.7}{43}{Comparison of the Octopus Maxwell-propagation with the electromagnetic propagation program MEEP}{equation.3.3.7}{}}
\@writefile{lot}{\contentsline {table}{\numberline {3.1}{\ignorespaces Simulation parameters for the Octopus and MEEP comparison run.}}{44}{table.3.1}}
\newlabel{tab_meep_comparison}{{3.1}{44}{Simulation parameters for the Octopus and MEEP comparison run}{table.3.1}{}}
\newlabel{eq_RS_Faraday_Ampere_micro_schroedinger_6x6_inhomogeneous_2}{{3.3.8}{44}{Comparison of the Octopus Maxwell-propagation with the electromagnetic propagation program MEEP}{equation.3.3.8}{}}
\newlabel{eq_RS_vector_current_auxiliary}{{3.3.9}{44}{Comparison of the Octopus Maxwell-propagation with the electromagnetic propagation program MEEP}{equation.3.3.9}{}}
\newlabel{eq_RS_Faraday_Ampere_micro_schroedinger_6x6_inhomogeneous_3}{{3.3.10}{44}{Comparison of the Octopus Maxwell-propagation with the electromagnetic propagation program MEEP}{equation.3.3.10}{}}
\@writefile{lof}{\contentsline {figure}{\numberline {3.5}{\ignorespaces Electromagnetic variables for external current signals, calculated by Octopus and MEEP}}{45}{figure.3.5}}
\newlabel{fig_meep_reference}{{3.5}{45}{Electromagnetic variables for external current signals, calculated by Octopus and MEEP}{figure.3.5}{}}
\citation{jackson1998classical}
\@writefile{toc}{\contentsline {subsection}{\numberline {3.3.2}Longitudinal and transverse electromagnetic fields and currents}{46}{subsection.3.3.2}}
\newlabel{subsec_long_and_trans_field_current}{{3.3.2}{46}{Longitudinal and transverse electromagnetic fields and currents}{subsection.3.3.2}{}}
\newlabel{eq_test_rho_1}{{3.3.11}{46}{Longitudinal and transverse electromagnetic fields and currents}{equation.3.3.11}{}}
\newlabel{eq_test_rho_2}{{3.3.12}{46}{Longitudinal and transverse electromagnetic fields and currents}{equation.3.3.12}{}}
\newlabel{eq_test_rho_3}{{3.3.13}{46}{Longitudinal and transverse electromagnetic fields and currents}{equation.3.3.13}{}}
\newlabel{eq_test_rho_4}{{3.3.14}{46}{Longitudinal and transverse electromagnetic fields and currents}{equation.3.3.14}{}}
\newlabel{eq_test_rho_1_limit}{{3.3.15}{46}{Longitudinal and transverse electromagnetic fields and currents}{equation.3.3.15}{}}
\newlabel{eq_test_rho_2_limit}{{3.3.16}{46}{Longitudinal and transverse electromagnetic fields and currents}{equation.3.3.16}{}}
\newlabel{eq_test_rho_3_limit}{{3.3.17}{46}{Longitudinal and transverse electromagnetic fields and currents}{equation.3.3.17}{}}
\newlabel{eq_test_rho_4_limit}{{3.3.18}{46}{Longitudinal and transverse electromagnetic fields and currents}{equation.3.3.18}{}}
\@writefile{lof}{\contentsline {figure}{\numberline {3.6}{\ignorespaces Contour snapshots along the xy-plane of the electric field in z-direction for the electromagnetic field propagation with four different external currents}}{47}{figure.3.6}}
\newlabel{fig_trans_long_snapshots}{{3.6}{47}{Contour snapshots along the xy-plane of the electric field in z-direction for the electromagnetic field propagation with four different external currents}{figure.3.6}{}}
\citation{jackson1998classical}
\newlabel{eq_continuity_equation_2}{{3.3.19}{48}{Longitudinal and transverse electromagnetic fields and currents}{equation.3.3.19}{}}
\newlabel{eq_current_Helmholtz_decomposition}{{3.3.20}{48}{Longitudinal and transverse electromagnetic fields and currents}{equation.3.3.20}{}}
\newlabel{eq_continuity_equation_longitudinal}{{3.3.21}{48}{Longitudinal and transverse electromagnetic fields and currents}{equation.3.3.21}{}}
\newlabel{eq_RS_charge_density_via_current_RS}{{3.3.23}{48}{Longitudinal and transverse electromagnetic fields and currents}{equation.3.3.23}{}}
\newlabel{eq_Gauss_RS_long}{{3.3.24}{48}{Longitudinal and transverse electromagnetic fields and currents}{equation.3.3.24}{}}
\newlabel{eq_Faraday_Ampere_long}{{3.3.25}{48}{Longitudinal and transverse electromagnetic fields and currents}{equation.3.3.25}{}}
\newlabel{eq_Gauss_RS_trans}{{3.3.26}{48}{Longitudinal and transverse electromagnetic fields and currents}{equation.3.3.26}{}}
\newlabel{eq_Faraday_Ampere_trans}{{3.3.27}{48}{Longitudinal and transverse electromagnetic fields and currents}{equation.3.3.27}{}}
\@writefile{lof}{\contentsline {figure}{\numberline {3.7}{\ignorespaces Spatial distribution of a transverse current density along the xy-plane.}}{49}{figure.3.7}}
\newlabel{fig_long_trans_spatial_current}{{3.7}{49}{Spatial distribution of a transverse current density along the xy-plane}{figure.3.7}{}}
\@writefile{lof}{\contentsline {figure}{\numberline {3.8}{\ignorespaces Snapshots of the electric field in z-direction for the longitudinal current density}}{50}{figure.3.8}}
\newlabel{fig_long_snapshots}{{3.8}{50}{Snapshots of the electric field in z-direction for the longitudinal current density}{figure.3.8}{}}
\@writefile{lof}{\contentsline {figure}{\numberline {3.9}{\ignorespaces Snapshots of the electric field in z-direction for the transverse current density}}{51}{figure.3.9}}
\newlabel{fig_trans_snapshots}{{3.9}{51}{Snapshots of the electric field in z-direction for the transverse current density}{figure.3.9}{}}
\@writefile{lof}{\contentsline {figure}{\numberline {3.10}{\ignorespaces Electric and magnetic field reaction in z-direction for the longitudinal and transverse current density}}{51}{figure.3.10}}
\newlabel{fig_long_trans_simulation}{{3.10}{51}{Electric and magnetic field reaction in z-direction for the longitudinal and transverse current density}{figure.3.10}{}}
\@writefile{toc}{\contentsline {section}{\numberline {3.4}Maxwell boundaries}{52}{section.3.4}}
\newlabel{Maxwell_boundaries}{{3.4}{52}{Maxwell boundaries}{section.3.4}{}}
\@writefile{toc}{\contentsline {subsection}{\numberline {3.4.1}Absorbing boundaries by mask function}{52}{subsection.3.4.1}}
\newlabel{subsec_mask_function}{{3.4.1}{52}{Absorbing boundaries by mask function}{subsection.3.4.1}{}}
\newlabel{eq_mask_function_1D}{{3.4.1}{52}{Absorbing boundaries by mask function}{equation.3.4.1}{}}
\citation{taflove2005computational}
\citation{bérenger2007perfectly}
\@writefile{lof}{\contentsline {figure}{\numberline {3.11}{\ignorespaces Mask function along a cartesian axis}}{53}{figure.3.11}}
\newlabel{fig_mask_function_1D}{{3.11}{53}{Mask function along a cartesian axis}{figure.3.11}{}}
\@writefile{toc}{\contentsline {subsection}{\numberline {3.4.2}Absorbing boundaries by perfectly matched layer}{53}{subsection.3.4.2}}
\newlabel{subsec_PML}{{3.4.2}{53}{Absorbing boundaries by perfectly matched layer}{subsection.3.4.2}{}}
\@writefile{lof}{\contentsline {figure}{\numberline {3.12}{\ignorespaces A three-dimensional contour plot of the mask function in the x-y plane}}{54}{figure.3.12}}
\newlabel{fig_mask_function_2D}{{3.12}{54}{A three-dimensional contour plot of the mask function in the x-y plane}{figure.3.12}{}}
\newlabel{eq_Faraday_PML_lossy_layer}{{3.4.4}{54}{Absorbing boundaries by perfectly matched layer}{equation.3.4.4}{}}
\newlabel{eq_Ampere_PML_lossy_layer}{{3.4.5}{54}{Absorbing boundaries by perfectly matched layer}{equation.3.4.5}{}}
\newlabel{eq_RS_Faraday_Ampere_micro_curl_plus_minus_lossy_layer}{{3.4.8}{54}{Absorbing boundaries by perfectly matched layer}{equation.3.4.8}{}}
\citation{JIN1999279}
\citation{DOLEAN2008435}
\citation{BERENGER1996363}
\citation{bérenger2007perfectly}
\citation{taflove2005computational}
\newlabel{eq_RS_Mx_equation_PML_lossy_layer}{{3.4.10}{55}{Absorbing boundaries by perfectly matched layer}{equation.3.4.10}{}}
\newlabel{eq_RS_field_split}{{3.4.11}{55}{Absorbing boundaries by perfectly matched layer}{equation.3.4.11}{}}
\newlabel{eq_RS_split_x_y}{{3.4.12}{55}{Absorbing boundaries by perfectly matched layer}{equation.3.4.12}{}}
\newlabel{eq_RS_split_x_z}{{3.4.13}{55}{Absorbing boundaries by perfectly matched layer}{equation.3.4.13}{}}
\citation{BERENGER1996363}
\citation{bérenger2007perfectly}
\citation{taflove2005computational}
\newlabel{eq_RS_split_y_z}{{3.4.14}{56}{Absorbing boundaries by perfectly matched layer}{equation.3.4.14}{}}
\newlabel{eq_RS_split_y_x}{{3.4.15}{56}{Absorbing boundaries by perfectly matched layer}{equation.3.4.15}{}}
\newlabel{eq_RS_split_z_x}{{3.4.16}{56}{Absorbing boundaries by perfectly matched layer}{equation.3.4.16}{}}
\newlabel{eq_RS_split_z_y}{{3.4.17}{56}{Absorbing boundaries by perfectly matched layer}{equation.3.4.17}{}}
\newlabel{eq_RS_split_x_y_2}{{3.4.20}{56}{Absorbing boundaries by perfectly matched layer}{equation.3.4.20}{}}
\newlabel{eq_RS_split_x_z_2}{{3.4.21}{56}{Absorbing boundaries by perfectly matched layer}{equation.3.4.21}{}}
\newlabel{eq_RS_split_y_z_2}{{3.4.22}{56}{Absorbing boundaries by perfectly matched layer}{equation.3.4.22}{}}
\citation{BERENGER1996363}
\citation{bérenger2007perfectly}
\citation{taflove2005computational}
\citation{BERENGER1996363}
\citation{bérenger2007perfectly}
\citation{taflove2005computational}
\newlabel{eq_RS_split_y_x_2}{{3.4.23}{57}{Absorbing boundaries by perfectly matched layer}{equation.3.4.23}{}}
\newlabel{eq_RS_split_z_x_2}{{3.4.24}{57}{Absorbing boundaries by perfectly matched layer}{equation.3.4.24}{}}
\newlabel{eq_RS_split_z_y_2}{{3.4.25}{57}{Absorbing boundaries by perfectly matched layer}{equation.3.4.25}{}}
\newlabel{eq_RS_PML_Hamiltonian_frequency_domain_convolution}{{3.4.26}{57}{Absorbing boundaries by perfectly matched layer}{equation.3.4.26}{}}
\newlabel{eq_ep_mu_PML_condition}{{3.4.29}{57}{Absorbing boundaries by perfectly matched layer}{equation.3.4.29}{}}
\newlabel{eq_RS_PML_Hamiltonian_time_domain_convolution_1}{{3.4.32}{58}{Absorbing boundaries by perfectly matched layer}{equation.3.4.32}{}}
\newlabel{eq_RS_PML_convolution_zeta}{{3.4.34}{58}{Absorbing boundaries by perfectly matched layer}{equation.3.4.34}{}}
\newlabel{eq_RS_PML_convolution_xi}{{3.4.35}{58}{Absorbing boundaries by perfectly matched layer}{equation.3.4.35}{}}
\newlabel{eq_RS_PML_Hamiltonian_time_domain_convolution_2}{{3.4.36}{58}{Absorbing boundaries by perfectly matched layer}{equation.3.4.36}{}}
\citation{Luebbers_Hunsberger}
\newlabel{eq_RS_Hamiltonian_PML}{{3.4.38}{59}{Absorbing boundaries by perfectly matched layer}{equation.3.4.38}{}}
\newlabel{eq_RS_Hamiltonian_PML_convolution}{{3.4.39}{59}{Absorbing boundaries by perfectly matched layer}{equation.3.4.39}{}}
\newlabel{eq_convolution_recursive}{{3.4.41}{59}{Absorbing boundaries by perfectly matched layer}{equation.3.4.41}{}}
\citation{taflove2005computational}
\newlabel{eq_f_1_pml_l}{{3.4.42}{60}{Absorbing boundaries by perfectly matched layer}{equation.3.4.42}{}}
\newlabel{eq_f_2_pml_l}{{3.4.43}{60}{Absorbing boundaries by perfectly matched layer}{equation.3.4.43}{}}
\newlabel{eq_RS_Hamiltonian_PML_numerical}{{3.4.48}{60}{Absorbing boundaries by perfectly matched layer}{equation.3.4.48}{}}
\newlabel{eq_polynomial_profile}{{3.4.49}{61}{Absorbing boundaries by perfectly matched layer}{equation.3.4.49}{}}
\newlabel{eq_test_current_4}{{3.4.51}{61}{Absorbing boundaries by perfectly matched layer}{equation.3.4.51}{}}
\@writefile{lot}{\contentsline {table}{\numberline {3.2}{\ignorespaces Physical and simulation parameters of external current simulation for screening the parameters of the PML absorbing boundaries}}{61}{table.3.2}}
\newlabel{tab_pml_power_factor}{{3.2}{61}{Physical and simulation parameters of external current simulation for screening the parameters of the PML absorbing boundaries}{table.3.2}{}}
\@writefile{lof}{\contentsline {figure}{\numberline {3.13}{\ignorespaces Relative variation of the energy and the electric field at two points for different parameters $q$}}{62}{figure.3.13}}
\newlabel{fig_pml_power_factor}{{3.4.2}{62}{Absorbing boundaries by perfectly matched layer}{figure.3.13}{}}
\newlabel{eq_ab_energy_coeff}{{3.4.52}{62}{Absorbing boundaries by perfectly matched layer}{equation.3.4.52}{}}
\newlabel{eq_ab_reflection_coeff}{{3.4.53}{62}{Absorbing boundaries by perfectly matched layer}{equation.3.4.53}{}}
\@writefile{lof}{\contentsline {figure}{\numberline {3.14}{\ignorespaces Comparison of absorbing mask and perfectly matched layer boundary conditions }}{63}{figure.3.14}}
\newlabel{fig_mask_pml_comparison}{{3.14}{63}{Comparison of absorbing mask and perfectly matched layer boundary conditions}{figure.3.14}{}}
\@writefile{toc}{\contentsline {subsection}{\numberline {3.4.3}Comparison of absorbing mask and perfectly matched layer \unhbox \voidb@x \hbox {boundaries}}{63}{subsection.3.4.3}}
\newlabel{subsec_ab_pml_comparison}{{3.4.3}{63}{Comparison of absorbing mask and perfectly matched layer \mbox {boundaries}}{subsection.3.4.3}{}}
\@writefile{toc}{\contentsline {subsection}{\numberline {3.4.4}Incident plane waves boundaries}{63}{subsection.3.4.4}}
\newlabel{subsec_incident_waves_boundaries}{{3.4.4}{63}{Incident plane waves boundaries}{subsection.3.4.4}{}}
\@writefile{lof}{\contentsline {figure}{\numberline {3.15}{\ignorespaces Two-dimensional scheme of incident waves boundaries}}{64}{figure.3.15}}
\newlabel{fig_plane_wave_boundaries}{{3.15}{64}{Two-dimensional scheme of incident waves boundaries}{figure.3.15}{}}
\newlabel{eq_plane_wave_RS}{{3.4.54}{65}{Incident plane waves boundaries}{equation.3.4.54}{}}
\newlabel{eq_plane_wave_E_1}{{3.4.55}{65}{Incident plane waves boundaries}{equation.3.4.55}{}}
\newlabel{eq_plane_wave_E_2}{{3.4.56}{65}{Incident plane waves boundaries}{equation.3.4.56}{}}
\newlabel{eq_plane_wave_B_1}{{3.4.59}{65}{Incident plane waves boundaries}{equation.3.4.59}{}}
\newlabel{eq_plane_wave_B_2}{{3.4.60}{65}{Incident plane waves boundaries}{equation.3.4.60}{}}
\newlabel{fig_2_pla ne_waves_at_t0}{{3.4.4}{66}{Incident plane waves boundaries}{equation.3.4.60}{}}
\newlabel{fig_2_plane_waves_at_t1}{{3.4.4}{66}{Incident plane waves boundaries}{equation.3.4.60}{}}
\newlabel{fig_2_plane_waves_at_t2}{{3.4.4}{66}{Incident plane waves boundaries}{equation.3.4.60}{}}
\newlabel{fig_2_plane_waves_at_t3}{{3.4.4}{66}{Incident plane waves boundaries}{equation.3.4.60}{}}
\@writefile{lof}{\contentsline {figure}{\numberline {3.16}{\ignorespaces Incident plane wave simulation of two interfering plane waves}}{66}{figure.3.16}}
\newlabel{fig_incident_plane_wave_simulation}{{3.16}{66}{Incident plane wave simulation of two interfering plane waves}{figure.3.16}{}}
\newlabel{eq_plane_wave_RS_example}{{3.4.61}{67}{Incident plane waves boundaries}{equation.3.4.61}{}}
\@writefile{lot}{\contentsline {table}{\numberline {3.3}{\ignorespaces Simulation parameters for the incident plane waves run with two interfering incident waves.}}{67}{table.3.3}}
\newlabel{tab_plane_wave_simulation}{{3.3}{67}{Simulation parameters for the incident plane waves run with two interfering incident waves}{table.3.3}{}}
\@writefile{toc}{\contentsline {subsection}{\numberline {3.4.5}Numerical dispersion for plane wave propagation}{68}{subsection.3.4.5}}
\newlabel{subsec_numerical_dispersion}{{3.4.5}{68}{Numerical dispersion for plane wave propagation}{subsection.3.4.5}{}}
\newlabel{eq_electric_field_plane_wave_numerical_dispersion}{{3.4.62}{68}{Numerical dispersion for plane wave propagation}{equation.3.4.62}{}}
\newlabel{eq_plane_wave_RS_numerical_dispersion}{{3.4.64}{68}{Numerical dispersion for plane wave propagation}{equation.3.4.64}{}}
\@writefile{lot}{\contentsline {table}{\numberline {3.4}{\ignorespaces Simulation box and time parameters for the numerical dispersion run with an incident wave pulse}}{69}{table.3.4}}
\newlabel{tab_plane_wave_numerical_dispersion}{{3.4}{69}{Simulation box and time parameters for the numerical dispersion run with an incident wave pulse}{table.3.4}{}}
\@writefile{lof}{\contentsline {figure}{\numberline {3.17}{\ignorespaces Numerical dispersion of the free Riemann-Silberstein Maxwell propagation}}{69}{figure.3.17}}
\newlabel{fig_plane_wave_numerical_dispersion}{{3.17}{69}{Numerical dispersion of the free Riemann-Silberstein Maxwell propagation}{figure.3.17}{}}
\@writefile{lot}{\contentsline {table}{\numberline {3.5}{\ignorespaces Simulation box and time parameters for the numerical dispersion run with an incident wave pulse}}{70}{table.3.5}}
\newlabel{tab_plane_wave_numerical_dispersion_wavelength}{{3.5}{70}{Simulation box and time parameters for the numerical dispersion run with an incident wave pulse}{table.3.5}{}}
\@writefile{toc}{\contentsline {subsection}{\numberline {3.4.6}Incident waves boundaries plus absorbing boundaries}{70}{subsection.3.4.6}}
\newlabel{subsec_incident_waves_plus_pml}{{3.4.6}{70}{Incident waves boundaries plus absorbing boundaries}{subsection.3.4.6}{}}
\@writefile{lof}{\contentsline {figure}{\numberline {3.18}{\ignorespaces Two-dimensional scheme of incident waves boundaries combined with PML}}{71}{figure.3.18}}
\newlabel{fig_plane_wave_and_pml_boundaries}{{3.18}{71}{Two-dimensional scheme of incident waves boundaries combined with PML}{figure.3.18}{}}
\@writefile{toc}{\contentsline {section}{\numberline {3.5}Riemann-Silberstein Maxwell propagation for linear media}{71}{section.3.5}}
\newlabel{tab_plane_wave_medium}{{3.5}{71}{Riemann-Silberstein Maxwell propagation for linear media}{section.3.5}{}}
\newlabel{eq_plane_wave_RS_medium_application}{{3.5.3}{72}{Riemann-Silberstein Maxwell propagation for linear media}{equation.3.5.3}{}}
\newlabel{eq_RS_Faraday_Ampere_macro_schroedinger_6x6_application}{{3.5.4}{72}{Riemann-Silberstein Maxwell propagation for linear media}{equation.3.5.4}{}}
\@writefile{lof}{\contentsline {figure}{\numberline {3.19}{\ignorespaces Simulation box illustration for a laser pulse hitting a linear medium box}}{73}{figure.3.19}}
\newlabel{fig_plane_wave_and_pml_boundaries_and_medium}{{3.19}{73}{Simulation box illustration for a laser pulse hitting a linear medium box}{figure.3.19}{}}
\newlabel{eq_Maxwell_hamiltonian_macro_6x6_application}{{3.5.5}{73}{Riemann-Silberstein Maxwell propagation for linear media}{equation.3.5.5}{}}
\newlabel{eq_Maxwell_hamiltonian_macro_application}{{3.5.6}{73}{Riemann-Silberstein Maxwell propagation for linear media}{equation.3.5.6}{}}
\newlabel{eq_Maxwell_RS_Hamiltonian_coupling_medium_application}{{3.5.7}{73}{Riemann-Silberstein Maxwell propagation for linear media}{equation.3.5.7}{}}
\@writefile{lot}{\contentsline {table}{\numberline {3.6}{\ignorespaces Simulation parameters for the laser pulse run that hits a cubic linear medium box}}{74}{table.3.6}}
\newlabel{tab_plane_wave_medium}{{3.6}{74}{Simulation parameters for the laser pulse run that hits a cubic linear medium box}{table.3.6}{}}
\newlabel{eq_RS_time_evolution_operator_micro_homo_const_time_application}{{3.5.8}{74}{Riemann-Silberstein Maxwell propagation for linear media}{equation.3.5.8}{}}
\newlabel{eq_RS_time_evolution_equation_recursive_medium_application}{{3.5.9}{74}{Riemann-Silberstein Maxwell propagation for linear media}{equation.3.5.9}{}}
\@writefile{lof}{\contentsline {figure}{\numberline {3.20}{\ignorespaces Sequence of the electric field simulated by a Riemann-Silberstein Maxwell propagation including a linear medium box}}{75}{figure.3.20}}
\newlabel{fig_linear_medium_propagation}{{3.20}{75}{Sequence of the electric field simulated by a Riemann-Silberstein Maxwell propagation including a linear medium box}{figure.3.20}{}}
\@setckpt{./Riemann_Silberstein_Maxwell_propagation_on_grid/Riemann_Silberstein_Maxwell_propagation_on_grid}{
\setcounter{page}{77}
\setcounter{equation}{9}
\setcounter{enumi}{0}
\setcounter{enumii}{0}
\setcounter{enumiii}{0}
\setcounter{enumiv}{0}
\setcounter{footnote}{0}
\setcounter{mpfootnote}{0}
\setcounter{part}{0}
\setcounter{chapter}{3}
\setcounter{section}{5}
\setcounter{subsection}{0}
\setcounter{subsubsection}{0}
\setcounter{paragraph}{0}
\setcounter{subparagraph}{0}
\setcounter{figure}{20}
\setcounter{table}{6}
\setcounter{parentequation}{0}
\setcounter{r@tfl@t}{0}
\setcounter{subfigure}{0}
\setcounter{lofdepth}{1}
\setcounter{subtable}{0}
\setcounter{lotdepth}{1}
\setcounter{su@anzahl}{0}
\setcounter{LT@tables}{0}
\setcounter{LT@chunks}{0}
\setcounter{@pps}{0}
\setcounter{@ppsavesec}{0}
\setcounter{@ppsaveapp}{0}
\setcounter{float@type}{4}
\setcounter{Item}{0}
\setcounter{Hfootnote}{0}
\setcounter{bookmark@seq@number}{41}
\setcounter{section@level}{1}
}
