\relax 
\providecommand\hyper@newdestlabel[2]{}
\citation{andrade_2009}
\@writefile{toc}{\contentsline {chapter}{\numberline {5}Maxwell-Pauli-Kohn-Sham propagation on a three-dimensional \newline  grid}{127}{chapter.5}}
\@writefile{lof}{\addvspace {10\p@ }}
\@writefile{lot}{\addvspace {10\p@ }}
\newlabel{chap_Maxwell_Pauli_Kohn_Sham_propagation}{{5}{127}{Maxwell-Pauli-Kohn-Sham propagation on a three-dimensional \newline grid}{chapter.5}{}}
\@writefile{toc}{\contentsline {section}{\numberline {5.1}Riemann-Silberstein Maxwell's equations with Kohn-Sham current density}{128}{section.5.1}}
\newlabel{sec_Maxwell_equation_RS_Kohn_Sham_current}{{5.1}{128}{Riemann-Silberstein Maxwell's equations with Kohn-Sham current density}{section.5.1}{}}
\newlabel{eq_Kohn_Sham_densities}{{5.1.1}{128}{Riemann-Silberstein Maxwell's equations with Kohn-Sham current density}{equation.5.1.1}{}}
\newlabel{eq_charge_density_KS}{{5.1.2}{129}{Riemann-Silberstein Maxwell's equations with Kohn-Sham current density}{equation.5.1.2}{}}
\newlabel{eq_RS_Gauss_micro_6_dim_3}{{5.1.4}{129}{Riemann-Silberstein Maxwell's equations with Kohn-Sham current density}{equation.5.1.4}{}}
\newlabel{eq_total_KS_current}{{5.1.5}{129}{Riemann-Silberstein Maxwell's equations with Kohn-Sham current density}{equation.5.1.5}{}}
\newlabel{eq_paramagnetic_current_2}{{5.1.6}{129}{Riemann-Silberstein Maxwell's equations with Kohn-Sham current density}{equation.5.1.6}{}}
\newlabel{eq_paramagnetic_current_2}{{5.1.7}{129}{Riemann-Silberstein Maxwell's equations with Kohn-Sham current density}{equation.5.1.7}{}}
\newlabel{eq_magnetization_current_2}{{5.1.8}{129}{Riemann-Silberstein Maxwell's equations with Kohn-Sham current density}{equation.5.1.8}{}}
\citation{jackson1998classical}
\citation{Griffiths}
\newlabel{eq_RS_Faraday_Ampere_schroedinger_J}{{5.1.9}{130}{Riemann-Silberstein Maxwell's equations with Kohn-Sham current density}{equation.5.1.9}{}}
\newlabel{eq_KS_current_6_dim}{{5.1.10}{130}{Riemann-Silberstein Maxwell's equations with Kohn-Sham current density}{equation.5.1.10}{}}
\newlabel{eq_KS_current_6_dim_loc_dmc}{{5.1.11}{130}{Riemann-Silberstein Maxwell's equations with Kohn-Sham current density}{equation.5.1.11}{}}
\newlabel{eq_RS_Faraday_Ampere_schroedinger_J_separated}{{5.1.12}{130}{Riemann-Silberstein Maxwell's equations with Kohn-Sham current density}{equation.5.1.12}{}}
\newlabel{eq_loc_current_density}{{5.1.13}{130}{Riemann-Silberstein Maxwell's equations with Kohn-Sham current density}{equation.5.1.13}{}}
\newlabel{eq_dmc_current_density}{{5.1.14}{130}{Riemann-Silberstein Maxwell's equations with Kohn-Sham current density}{equation.5.1.14}{}}
\newlabel{eq_vector_potential_from_B}{{5.1.15}{131}{Riemann-Silberstein Maxwell's equations with Kohn-Sham current density}{equation.5.1.15}{}}
\newlabel{eq_RS_diamagnetic_current_space}{{5.1.16}{131}{Riemann-Silberstein Maxwell's equations with Kohn-Sham current density}{equation.5.1.16}{}}
\newlabel{eq_RS_Faraday_Ampere_schroedinger_J_dmc_s_separated}{{5.1.18}{131}{Riemann-Silberstein Maxwell's equations with Kohn-Sham current density}{equation.5.1.18}{}}
\citation{jackson1998classical}
\citation{Griffiths}
\newlabel{eq_RS_Hamiltonian_kernel_no_dia_current}{{5.1.19}{132}{Riemann-Silberstein Maxwell's equations with Kohn-Sham current density}{equation.5.1.19}{}}
\newlabel{eq_RS_Hamiltonian_operation_integral}{{5.1.20}{132}{Riemann-Silberstein Maxwell's equations with Kohn-Sham current density}{equation.5.1.20}{}}
\newlabel{eq_Maxwell_RS_dia_current_kappa_space}{{5.1.21}{132}{Riemann-Silberstein Maxwell's equations with Kohn-Sham current density}{equation.5.1.21}{}}
\newlabel{eq_RS_Hamiltonian_kernel_dia_current_space}{{5.1.23}{132}{Riemann-Silberstein Maxwell's equations with Kohn-Sham current density}{equation.5.1.23}{}}
\newlabel{eq_RS_Faraday_Ampere_schroedinger_J_dmc_s_separated_2}{{5.1.24}{132}{Riemann-Silberstein Maxwell's equations with Kohn-Sham current density}{equation.5.1.24}{}}
\newlabel{eq_RS_Hamiltonian_operation_integral_dia_current_space}{{5.1.25}{132}{Riemann-Silberstein Maxwell's equations with Kohn-Sham current density}{equation.5.1.25}{}}
\citation{arfken2005mathematical}
\newlabel{eq_vector_potential_from_E_ansatz}{{5.1.26}{133}{Riemann-Silberstein Maxwell's equations with Kohn-Sham current density}{equation.5.1.26}{}}
\newlabel{eq_vector_potential_from_E}{{5.1.27}{133}{Riemann-Silberstein Maxwell's equations with Kohn-Sham current density}{equation.5.1.27}{}}
\newlabel{eq_RS_diamagnetic_current_time}{{5.1.28}{133}{Riemann-Silberstein Maxwell's equations with Kohn-Sham current density}{equation.5.1.28}{}}
\newlabel{eq_RS_Faraday_Ampere_schroedinger_J_separated_2}{{5.1.29}{133}{Riemann-Silberstein Maxwell's equations with Kohn-Sham current density}{equation.5.1.29}{}}
\newlabel{eq_RS_current_loc_A}{{5.1.32}{134}{Riemann-Silberstein Maxwell's equations with Kohn-Sham current density}{equation.5.1.32}{}}
\newlabel{eq_Maxwell_RS_dia_current_kappa_time}{{5.1.33}{134}{Riemann-Silberstein Maxwell's equations with Kohn-Sham current density}{equation.5.1.33}{}}
\newlabel{eq_RS_Hamiltonian_kernel_dia_current_time}{{5.1.35}{134}{Riemann-Silberstein Maxwell's equations with Kohn-Sham current density}{equation.5.1.35}{}}
\newlabel{eq_RS_Hamiltonian_operation_integral_dia_current_time}{{5.1.36}{134}{Riemann-Silberstein Maxwell's equations with Kohn-Sham current density}{equation.5.1.36}{}}
\newlabel{eq_RS_Faraday_Ampere_schroedinger_J_separated_space}{{5.1.37}{135}{Riemann-Silberstein Maxwell's equations with Kohn-Sham current density}{equation.5.1.37}{}}
\newlabel{eq_RS_Faraday_Ampere_schroedinger_J_separated_time}{{5.1.38}{135}{Riemann-Silberstein Maxwell's equations with Kohn-Sham current density}{equation.5.1.38}{}}
\@writefile{toc}{\contentsline {section}{\numberline {5.2}Riemann-Silberstein Maxwell propagation coupled to the Kohn-Sham current density}{135}{section.5.2}}
\newlabel{sec_RS_propagation_coupled_to_KS}{{5.2}{135}{Riemann-Silberstein Maxwell propagation coupled to the Kohn-Sham current density}{section.5.2}{}}
\newlabel{eq_time_evolution_dia_current_adapt}{{5.2.2}{135}{Riemann-Silberstein Maxwell propagation coupled to the Kohn-Sham current density}{equation.5.2.2}{}}
\citation{Sakurai1993Modern}
\citation{Moretti_2013}
\newlabel{eq_RS_time_evolution_operator_inhomo_J_loc}{{5.2.4}{136}{Riemann-Silberstein Maxwell propagation coupled to the Kohn-Sham current density}{equation.5.2.4}{}}
\newlabel{eq_RS_Faraday_Ampere_schroedinger_J_separated_homo}{{5.2.5}{136}{Riemann-Silberstein Maxwell propagation coupled to the Kohn-Sham current density}{equation.5.2.5}{}}
\newlabel{eq_RS_time_evolution_operator_dia_current}{{5.2.6}{136}{Riemann-Silberstein Maxwell propagation coupled to the Kohn-Sham current density}{equation.5.2.6}{}}
\newlabel{eq_RS_time_evolution_properties}{{5.2.9}{136}{Riemann-Silberstein Maxwell propagation coupled to the Kohn-Sham current density}{equation.5.2.9}{}}
\newlabel{eq_RS_time_evolution_dia_current_ansatz}{{5.2.10}{136}{Riemann-Silberstein Maxwell propagation coupled to the Kohn-Sham current density}{equation.5.2.10}{}}
\newlabel{eq_RS_time_evolution_homogen_diamagnetic_current}{{5.2.11}{137}{Riemann-Silberstein Maxwell propagation coupled to the Kohn-Sham current density}{equation.5.2.11}{}}
\newlabel{eq_RS_homogeneous_time_evolution_2}{{5.2.14}{137}{Riemann-Silberstein Maxwell propagation coupled to the Kohn-Sham current density}{equation.5.2.14}{}}
\newlabel{eq_RS_homogeneous_time_evolution_operator_2}{{5.2.15}{137}{Riemann-Silberstein Maxwell propagation coupled to the Kohn-Sham current density}{equation.5.2.15}{}}
\newlabel{eq_RS_Faraday_Ampere_schroedinger_inhomogen}{{5.2.16}{137}{Riemann-Silberstein Maxwell propagation coupled to the Kohn-Sham current density}{equation.5.2.16}{}}
\newlabel{eq_RS_time_evolution_equation_diamagnetic_current}{{5.2.17}{137}{Riemann-Silberstein Maxwell propagation coupled to the Kohn-Sham current density}{equation.5.2.17}{}}
\newlabel{eq_RS_time_evolution_equation_diamagnetic_current_2}{{5.2.18}{138}{Riemann-Silberstein Maxwell propagation coupled to the Kohn-Sham current density}{equation.5.2.18}{}}
\newlabel{eq_RS_time_evolution_equation_diamagnetic_current_2}{{5.2.19}{138}{Riemann-Silberstein Maxwell propagation coupled to the Kohn-Sham current density}{equation.5.2.19}{}}
\newlabel{eq_RS_time_evolution_equation_diamagnetic_current_div}{{5.2.20}{138}{Riemann-Silberstein Maxwell propagation coupled to the Kohn-Sham current density}{equation.5.2.20}{}}
\@writefile{toc}{\contentsline {section}{\numberline {5.3}Discretized time-evolution and Time-reversal symmetry of the Maxwell system}{138}{section.5.3}}
\newlabel{sec_discretized_time_evolution_Maxwell_fields}{{5.3}{138}{Discretized time-evolution and Time-reversal symmetry of the Maxwell system}{section.5.3}{}}
\newlabel{eq_RS_time_evolution_equation_recursive_KS}{{5.3.1}{138}{Discretized time-evolution and Time-reversal symmetry of the Maxwell system}{equation.5.3.1}{}}
\citation{Castro2004}
\newlabel{eq_RS_time_evolution_equation_recursive_etrs}{{5.3.2}{139}{Discretized time-evolution and Time-reversal symmetry of the Maxwell system}{equation.5.3.2}{}}
\newlabel{eq_RS_time_evolution_equation_recursive_numerical}{{5.3.3}{139}{Discretized time-evolution and Time-reversal symmetry of the Maxwell system}{equation.5.3.3}{}}
\newlabel{eq_RS_time_evolution_equation_recursive_numerical_etrs}{{5.3.4}{139}{Discretized time-evolution and Time-reversal symmetry of the Maxwell system}{equation.5.3.4}{}}
\citation{Castro2004}
\citation{Pueyo2018}
\citation{griffiths2014introduction}
\citation{Moretti_2013}
\@writefile{toc}{\contentsline {section}{\numberline {5.4}Discretized time-evolution and Time-reversal symmetry of the matter system}{140}{section.5.4}}
\newlabel{sec_discretized_time_evolution_Kohn_Sham_orbitals}{{5.4}{140}{Discretized time-evolution and Time-reversal symmetry of the matter system}{section.5.4}{}}
\newlabel{eq_MPKS_Hamiltonian}{{5.4.1}{140}{Discretized time-evolution and Time-reversal symmetry of the matter system}{equation.5.4.1}{}}
\newlabel{eq_MPKS_hamiltonian}{{5.4.3}{140}{Discretized time-evolution and Time-reversal symmetry of the matter system}{equation.5.4.3}{}}
\newlabel{eq_matter_time_evolution_equation}{{5.4.4}{140}{Discretized time-evolution and Time-reversal symmetry of the matter system}{equation.5.4.4}{}}
\newlabel{eq_matter_time_evolution_operator}{{5.4.5}{140}{Discretized time-evolution and Time-reversal symmetry of the matter system}{equation.5.4.5}{}}
\citation{Castro2004}
\newlabel{eq_time_evolution_operator_total}{{5.4.6}{141}{Discretized time-evolution and Time-reversal symmetry of the matter system}{equation.5.4.6}{}}
\newlabel{eq_KS_wave_function_time_evolution}{{5.4.8}{141}{Discretized time-evolution and Time-reversal symmetry of the matter system}{equation.5.4.8}{}}
\newlabel{eq_matter_time_evolution_equation_recursive_etrs}{{5.4.9}{141}{Discretized time-evolution and Time-reversal symmetry of the matter system}{equation.5.4.9}{}}
\newlabel{eq_matter_time_evolution_operator_recursive_etrs}{{5.4.10}{141}{Discretized time-evolution and Time-reversal symmetry of the matter system}{equation.5.4.10}{}}
\@writefile{toc}{\contentsline {section}{\numberline {5.5}Kohn-Sham interaction Hamiltonian}{142}{section.5.5}}
\newlabel{sec_interaction_hamiltonian}{{5.5}{142}{Kohn-Sham interaction Hamiltonian}{section.5.5}{}}
\@writefile{toc}{\contentsline {subsection}{\numberline {5.5.1}Full minimal coupling}{142}{subsection.5.5.1}}
\newlabel{subsec_full_minimal_coupling}{{5.5.1}{142}{Full minimal coupling}{subsection.5.5.1}{}}
\newlabel{eq_MPKS_hamiltonian}{{5.5.1}{142}{Full minimal coupling}{equation.5.5.1}{}}
\newlabel{eq_MPKS_kinetic_hamiltonian}{{5.5.2}{142}{Full minimal coupling}{equation.5.5.2}{}}
\newlabel{eq_MPKS_interaction_hamiltonian}{{5.5.3}{142}{Full minimal coupling}{equation.5.5.3}{}}
\citation{Loudon}
\@writefile{toc}{\contentsline {subsection}{\numberline {5.5.2}Multipole expansion}{143}{subsection.5.5.2}}
\newlabel{subsec_multipole_expansion}{{5.5.2}{143}{Multipole expansion}{subsection.5.5.2}{}}
\newlabel{eq_PWZ_Hamiltonian}{{5.5.6}{143}{Multipole expansion}{equation.5.5.6}{}}
\newlabel{eq_MPKS_hamiltonian_PWZ}{{5.5.10}{144}{Multipole expansion}{equation.5.5.10}{}}
\newlabel{eq_electric_dipole_hamiltonian}{{5.5.12}{144}{Multipole expansion}{equation.5.5.12}{}}
\newlabel{eq_magnetic_dipole_hamiltonian}{{5.5.14}{144}{Multipole expansion}{equation.5.5.14}{}}
\citation{loudon1988}
\citation{rokaj2018light}
\citation{spohn2004}
\citation{arfken2005mathematical}
\citation{doi:10.1002/pssb.200642067}
\citation{Octopus_2015}
\@writefile{toc}{\contentsline {subsection}{\numberline {5.5.3}Transverse Riemann-Silberstein vector calculation}{145}{subsection.5.5.3}}
\newlabel{subsec_trans_vector_calculation}{{5.5.3}{145}{Transverse Riemann-Silberstein vector calculation}{subsection.5.5.3}{}}
\newlabel{eq_helmholtz_decomposition}{{5.5.17}{145}{Transverse Riemann-Silberstein vector calculation}{equation.5.5.17}{}}
\@writefile{toc}{\contentsline {section}{\numberline {5.6}Maxwell-Kohn-Sham multi-scale implementation}{146}{section.5.6}}
\newlabel{sec_Mx_Ks_multi_scale}{{5.6}{146}{Maxwell-Kohn-Sham multi-scale implementation}{section.5.6}{}}
\@writefile{toc}{\contentsline {subsection}{\numberline {5.6.1}Multi-grid types}{146}{subsection.5.6.1}}
\newlabel{sub_sec_multi_grid_types}{{5.6.1}{146}{Multi-grid types}{subsection.5.6.1}{}}
\@writefile{lof}{\contentsline {figure}{\numberline {5.1}{\ignorespaces Multiscale grid types for the Kohn-Sham and Maxwell grid}}{147}{figure.5.1}}
\newlabel{fig_multiscale_grids}{{5.1}{147}{Multiscale grid types for the Kohn-Sham and Maxwell grid}{figure.5.1}{}}
\@writefile{toc}{\contentsline {subsection}{\numberline {5.6.2}Multi-scales in time}{148}{subsection.5.6.2}}
\newlabel{sub_sec_multi_scales_in_time}{{5.6.2}{148}{Multi-scales in time}{subsection.5.6.2}{}}
\citation{ItkinFiniteDifference}
\citation{strikwerda2004finite}
\citation{levy1961finite}
\citation{doi:10.1002/pssb.200642067}
\citation{Octopus_2015}
\citation{Octopus_2015}
\newlabel{eq_RS_time_evolution_equation_recursive_numerical_approx_etrs}{{5.6.3}{149}{Multi-scales in time}{equation.5.6.3}{}}
\@writefile{toc}{\contentsline {subsection}{\numberline {5.6.3}Finite difference operators and parallelization strategy}{149}{subsection.5.6.3}}
\newlabel{sub_sec_parallelization}{{5.6.3}{149}{Finite difference operators and parallelization strategy}{subsection.5.6.3}{}}
\citation{doi:10.1002/pssb.200642067}
\newlabel{fig_multigrid_parallel_matter_maxwell}{{5.6.3}{150}{Finite difference operators and parallelization strategy}{subsection.5.6.3}{}}
\@writefile{lof}{\contentsline {figure}{\numberline {5.2}{\ignorespaces Domain parallelization of matter and Maxwell grid}}{150}{figure.5.2}}
\citation{marques2003}
\@writefile{toc}{\contentsline {subsection}{\numberline {5.6.4}Predictor-corrector method}{151}{subsection.5.6.4}}
\newlabel{subsec_predictor_corrector}{{5.6.4}{151}{Predictor-corrector method}{subsection.5.6.4}{}}
\@writefile{toc}{\contentsline {subsection}{\numberline {5.6.5}Forward coupling}{151}{subsection.5.6.5}}
\newlabel{subsec_forward_coupling}{{5.6.5}{151}{Forward coupling}{subsection.5.6.5}{}}
\@writefile{lof}{\contentsline {figure}{\numberline {5.3}{\ignorespaces Predictor-corrector scheme of a Maxwell-Kohn-Sham propagation step}}{152}{figure.5.3}}
\newlabel{fig_predictor_corrector}{{5.3}{152}{Predictor-corrector scheme of a Maxwell-Kohn-Sham propagation step}{figure.5.3}{}}
\@writefile{toc}{\contentsline {subsection}{\numberline {5.6.6}Forward and backward coupling}{152}{subsection.5.6.6}}
\newlabel{subsec_forward_and_backward_coupling}{{5.6.6}{152}{Forward and backward coupling}{subsection.5.6.6}{}}
\citation{andrade_2009}
\citation{Ojanpera2012}
\@writefile{toc}{\contentsline {section}{\numberline {5.7}Ehrenfest-Maxwell-Pauli-Kohn-Sham approach}{153}{section.5.7}}
\newlabel{sec_EMPKS_equations}{{5.7}{153}{Ehrenfest-Maxwell-Pauli-Kohn-Sham approach}{section.5.7}{}}
\@writefile{toc}{\contentsline {section}{\numberline {5.8}Simulation of open quantum systems with the Maxwell-Kohn-Sham propagation}{154}{section.5.8}}
\newlabel{sec_open_quantum_systems}{{5.8}{154}{Simulation of open quantum systems with the Maxwell-Kohn-Sham propagation}{section.5.8}{}}
\@writefile{toc}{\contentsline {section}{\numberline {5.9}Electromagnetic detectors}{154}{section.5.9}}
\newlabel{sec_electromagnetic_detectors}{{5.9}{154}{Electromagnetic detectors}{section.5.9}{}}
\@writefile{lof}{\contentsline {figure}{\numberline {5.4}{\ignorespaces Electromagnetic detectors at the simulation boundaries}}{155}{figure.5.4}}
\newlabel{fig_plane_wave_and_pml_boundaries_and_detector}{{5.4}{155}{Electromagnetic detectors at the simulation boundaries}{figure.5.4}{}}
\citation{Marques2006}
\@writefile{toc}{\contentsline {section}{\numberline {5.10}Broken time reversal symmetry}{156}{section.5.10}}
\newlabel{sec_broken_time_reversal_symmetry}{{5.10}{156}{Broken time reversal symmetry}{section.5.10}{}}
\@setckpt{./Maxwell_Pauli_Kohn_Sham_propagation_on_grid/Maxwell_Pauli_Kohn_Sham_propagation_on_grid}{
\setcounter{page}{157}
\setcounter{equation}{0}
\setcounter{enumi}{0}
\setcounter{enumii}{0}
\setcounter{enumiii}{0}
\setcounter{enumiv}{0}
\setcounter{footnote}{0}
\setcounter{mpfootnote}{0}
\setcounter{part}{0}
\setcounter{chapter}{5}
\setcounter{section}{10}
\setcounter{subsection}{0}
\setcounter{subsubsection}{0}
\setcounter{paragraph}{0}
\setcounter{subparagraph}{0}
\setcounter{figure}{4}
\setcounter{table}{0}
\setcounter{parentequation}{0}
\setcounter{r@tfl@t}{0}
\setcounter{subfigure}{0}
\setcounter{lofdepth}{1}
\setcounter{subtable}{0}
\setcounter{lotdepth}{1}
\setcounter{su@anzahl}{0}
\setcounter{LT@tables}{0}
\setcounter{LT@chunks}{0}
\setcounter{@pps}{0}
\setcounter{@ppsavesec}{0}
\setcounter{@ppsaveapp}{0}
\setcounter{float@type}{4}
\setcounter{Item}{0}
\setcounter{Hfootnote}{2}
\setcounter{bookmark@seq@number}{0}
\setcounter{lips@count}{0}
\setcounter{section@level}{1}
}
