\relax 
\providecommand\hyper@newdestlabel[2]{}
\@writefile{toc}{\contentsline {chapter}{\numberline {C}Appendix}{134}{Appendix.a.C}}
\@writefile{lof}{\addvspace {10\p@ }}
\@writefile{lot}{\addvspace {10\p@ }}
\newlabel{eq_Appendix_RS_Faraday_Ampere_schroedinger_U_infintesimal}{{C.3}{134}{Appendix}{equation.a.C.3}{}}
\newlabel{eq_Appendix_RS_time_evolution_homogen_diamagnetic_current}{{C.5}{135}{Appendix}{equation.a.C.5}{}}
\newlabel{eq_RS_time_evolution_equation_diamagnetic_current_div_series}{{C.13}{137}{Appendix}{equation.a.C.13}{}}
\@setckpt{./Maxwell_Pauli_Kohn_Sham_propagation_on_grid/Maxwell_Pauli_Kohn_Sham_propagation_on_grid_appendix}{
\setcounter{page}{139}
\setcounter{equation}{15}
\setcounter{enumi}{0}
\setcounter{enumii}{0}
\setcounter{enumiii}{0}
\setcounter{enumiv}{0}
\setcounter{footnote}{0}
\setcounter{mpfootnote}{0}
\setcounter{part}{0}
\setcounter{chapter}{3}
\setcounter{section}{0}
\setcounter{subsection}{0}
\setcounter{subsubsection}{0}
\setcounter{paragraph}{0}
\setcounter{subparagraph}{0}
\setcounter{figure}{0}
\setcounter{table}{0}
\setcounter{parentequation}{0}
\setcounter{r@tfl@t}{0}
\setcounter{subfigure}{0}
\setcounter{lofdepth}{1}
\setcounter{subtable}{0}
\setcounter{lotdepth}{1}
\setcounter{su@anzahl}{0}
\setcounter{LT@tables}{0}
\setcounter{LT@chunks}{0}
\setcounter{@pps}{1}
\setcounter{@ppsavesec}{6}
\setcounter{@ppsaveapp}{0}
\setcounter{float@type}{4}
\setcounter{Item}{0}
\setcounter{Hfootnote}{0}
\setcounter{bookmark@seq@number}{98}
\setcounter{section@level}{1}
}
